{
    "control": {
        "report_format": "Text",
        "save_intermediate": false,
        "scratch_dir": "/tmp",
        "toolchain_path": "/home/sol/bin/dftb+",
        "toolchain_type": "dftb+"
    },
    "evaluation": {
        "crystal_settings": {
            "bandstructure": [
                {
                    "name": "GeSi_b3_type",
                    "template_input": {
                        "template_energy": "",
                        "template_frequency": "",
                        "template_opt": ""
                    },
                    "uuid": "{f1914890-1c6b-4fe6-846b-f93069fa22b0}"
                },
                {
                    "name": "Ge_a1_type",
                    "template_input": {
                        "template_energy": "",
                        "template_frequency": "",
                        "template_opt": ""
                    },
                    "uuid": "{90fff606-298e-4d5e-968e-d2749a15af2b}"
                },
                {
                    "name": "Ge_a2_type",
                    "template_input": {
                        "template_energy": "",
                        "template_frequency": "",
                        "template_opt": ""
                    },
                    "uuid": "{ed0b2e85-86d0-4f0d-9899-8680eaa78b44}"
                },
                {
                    "name": "Ge_a4_type_(Ge-I)",
                    "template_input": {
                        "template_energy": "",
                        "template_frequency": "",
                        "template_opt": ""
                    },
                    "uuid": "{3795ea9b-401f-4fe7-af72-0be13da397ac}"
                },
                {
                    "name": "Ge_hp4_type_(lonsdaleite)",
                    "template_input": {
                        "template_energy": "",
                        "template_frequency": "",
                        "template_opt": ""
                    },
                    "uuid": "{aa993112-ad4c-4921-b11b-124ec8534838}"
                },
                {
                    "name": "Si_a1_type",
                    "template_input": {
                        "template_energy": "",
                        "template_frequency": "",
                        "template_opt": ""
                    },
                    "uuid": "{fc83616d-89c9-43e3-be35-b9ae39338a61}"
                },
                {
                    "name": "Si_a2_type",
                    "template_input": {
                        "template_energy": "",
                        "template_frequency": "",
                        "template_opt": ""
                    },
                    "uuid": "{a00338f6-3ee5-40ff-b512-a0102596d270}"
                },
                {
                    "name": "Si_a4_type_(Si-I)",
                    "template_input": {
                        "template_energy": "",
                        "template_frequency": "",
                        "template_opt": ""
                    },
                    "uuid": "{1152588b-eaf4-4a31-b737-0313462d0233}"
                },
                {
                    "name": "Si_hp4_type_(lonsdaleite,_Si-IV)",
                    "template_input": {
                        "template_energy": "",
                        "template_frequency": "",
                        "template_opt": ""
                    },
                    "uuid": "{a8c133cf-65bf-44c0-b097-27b97ac9f126}"
                }
            ],
            "crystal": [
            ]
        },
        "dispersion": {
            "lennard_jones": {
            }
        },
        "hubbard_derivatives": {
        },
        "molecule_settings": {
            "atomic_energy": {
            },
            "molecule": [
            ]
        },
        "reaction_settings": {
            "reaction": [
            ]
        },
        "slater_koster_files": {
            "selected_shells": {
                "Ge": [
                    "spd"
                ],
                "Si": [
                    "spd",
                    "spd"
                ]
            },
            "skfiles": {
                "Ge-Ge": [
                    "/home/sol/work/codes/adpt_core/SKTester/example/tutorial/ex1/skfiles/Ge-Ge.skf"
                ],
                "Ge-Si": [
                    "/home/sol/work/codes/adpt_core/SKTester/example/tutorial/ex1/skfiles/Ge-Si.skf",
                    "/home/sol/work/codes/adpt_core/SKTester/example/tutorial/ex1/skfiles/Ge-Si_4s4p4d.skf"
                ],
                "Si-Ge": [
                    "/home/sol/work/codes/adpt_core/SKTester/example/tutorial/ex1/skfiles/Si-Ge.skf",
                    "/home/sol/work/codes/adpt_core/SKTester/example/tutorial/ex1/skfiles/Si_4s4p4d-Ge.skf"
                ],
                "Si-Si": [
                    "/home/sol/work/codes/adpt_core/SKTester/example/tutorial/ex1/skfiles/Si-Si.skf",
                    "/home/sol/work/codes/adpt_core/SKTester/example/tutorial/ex1/skfiles/Si-Si_4s4p4d.skf",
                    "/home/sol/work/codes/adpt_core/SKTester/example/tutorial/ex1/skfiles/Si_4s4p4d-Si.skf",
                    "/home/sol/work/codes/adpt_core/SKTester/example/tutorial/ex1/skfiles/Si_4s4p4d-Si_4s4p4d.skf"
                ]
            },
            "type2filenames": false
        },
        "template_inputfile": {
            "crystal": {
                "template_energy": "/home/sol/work/codes/adpt_core/pso_sk_optimizer/example/SiGe/dftbinp/crystal_energy.hsd",
                "template_frequency": "",
                "template_opt": ""
            },
            "molecule": {
                "template_energy": "/home/sol/work/codes/adpt_core/pso_sk_optimizer/example/SiGe/dftbinp/molecule_energy.hsd",
                "template_frequency": "",
                "template_opt": ""
            }
        }
    },
    "testing": {
        "bandstructure": [
            {
                "name": "GeSi_b3_type",
                "test_region": [
                    {
                        "lower_bound": -100.00000000000000,
                        "type": "energy_based",
                        "upper_bound": 5.0000000000000000,
                        "weight": 1.0000000000000000
                    }
                ],
                "uuid": "{f1914890-1c6b-4fe6-846b-f93069fa22b0}",
                "weight": 1.0000000000000000
            },
            {
                "name": "Ge_a1_type",
                "test_region": [
                    {
                        "band_end": 3,
                        "band_start": 0,
                        "point_end": -1,
                        "point_start": 0,
                        "type": "index_based",
                        "weight": 1.0000000000000000
                    }
                ],
                "uuid": "{90fff606-298e-4d5e-968e-d2749a15af2b}",
                "weight": 1.0000000000000000
            },
            {
                "name": "Ge_a2_type",
                "test_region": [
                    {
                        "band_end": 3,
                        "band_start": 0,
                        "point_end": -1,
                        "point_start": 0,
                        "type": "index_based",
                        "weight": 1.0000000000000000
                    }
                ],
                "uuid": "{ed0b2e85-86d0-4f0d-9899-8680eaa78b44}",
                "weight": 1.0000000000000000
            },
            {
                "name": "Ge_a4_type_(Ge-I)",
                "test_region": [
                    {
                        "band_end": 3,
                        "band_start": 0,
                        "point_end": -1,
                        "point_start": 0,
                        "type": "index_based",
                        "weight": 1.0000000000000000
                    },
                    {
                        "band_end": 7,
                        "band_start": 5,
                        "point_end": 200,
                        "point_start": 0,
                        "type": "index_based",
                        "weight": 1.0000000000000000
                    }
                ],
                "uuid": "{3795ea9b-401f-4fe7-af72-0be13da397ac}",
                "weight": 1.0000000000000000
            },
            {
                "name": "Ge_hp4_type_(lonsdaleite)",
                "test_region": [
                    {
                        "band_end": 7,
                        "band_start": 0,
                        "point_end": -1,
                        "point_start": 0,
                        "type": "index_based",
                        "weight": 1.0000000000000000
                    }
                ],
                "uuid": "{aa993112-ad4c-4921-b11b-124ec8534838}",
                "weight": 1.0000000000000000
            },
            {
                "name": "Si_a1_type",
                "test_region": [
                    {
                        "lower_bound": -100.00000000000000,
                        "type": "energy_based",
                        "upper_bound": 15.000000000000000,
                        "weight": 1.0000000000000000
                    }
                ],
                "uuid": "{fc83616d-89c9-43e3-be35-b9ae39338a61}",
                "weight": 1.0000000000000000
            },
            {
                "name": "Si_a2_type",
                "test_region": [
                    {
                        "lower_bound": -100.00000000000000,
                        "type": "energy_based",
                        "upper_bound": 15.000000000000000,
                        "weight": 1.0000000000000000
                    }
                ],
                "uuid": "{a00338f6-3ee5-40ff-b512-a0102596d270}",
                "weight": 1.0000000000000000
            },
            {
                "name": "Si_a4_type_(Si-I)",
                "test_region": [
                    {
                        "lower_bound": -100.00000000000000,
                        "type": "energy_based",
                        "upper_bound": 5.0000000000000000,
                        "weight": 1.0000000000000000
                    }
                ],
                "uuid": "{1152588b-eaf4-4a31-b737-0313462d0233}",
                "weight": 1.0000000000000000
            },
            {
                "name": "Si_hp4_type_(lonsdaleite,_Si-IV)",
                "test_region": [
                    {
                        "lower_bound": -100.00000000000000,
                        "type": "energy_based",
                        "upper_bound": 5.0000000000000000,
                        "weight": 1.0000000000000000
                    }
                ],
                "uuid": "{a8c133cf-65bf-44c0-b097-27b97ac9f126}",
                "weight": 1.0000000000000000
            }
        ],
        "error_unit": {
            "atomization_energy": 3.0000000000000000,
            "bandstructure": 0.050000000000000003,
            "bond_angle": 1.0000000000000000,
            "bond_length": 0.0030000000000000001,
            "frequency_percentage": 3.0000000000000000,
            "reaction_energy": 3.0000000000000000,
            "torsion_angle": 3.0000000000000000
        },
        "max_error_ratio": 0.050000000000000003,
        "molecule": [
        ],
        "punish_imaginary_frequency": false,
        "reaction": [
        ]
    }
}