# 1st line: number of mesh points
# abcissa weight wavefunction wavefunction_1st wavefunction_2nd
500
# Principal QN=   1 , l=   1 , Occupation=   2.0000
  9.830308526563E-006  1.966074589941E-005  7.193155309207E-005  7.317169978192E+000 -3.134817961273E+001
  3.932200719722E-005  3.932303800261E-005  2.877136925104E-004  7.316245467168E+000 -3.134817636553E+001
  8.847741541467E-005  5.898842277178E-005  6.473088524905E-004  7.314704534966E+000 -3.134816731777E+001
  1.573003992805E-004  7.865844718600E-005  1.150654402785E-003  7.312547061200E+000 -3.134814701995E+001
  2.457963722418E-004  9.833465899987E-005  1.797662617747E-003  7.309772878054E+000 -3.134810785102E+001
  3.539722959954E-004  1.180186070023E-004  2.588220633124E-003  7.306381771000E+000 -3.134804002661E+001
  4.818366816529E-004  1.377118412759E-004  3.522190390654E-003  7.302373479726E+000 -3.134793160961E+001
  6.293995911626E-004  1.574159134560E-004  4.599408570541E-003  7.297747699263E+000 -3.134776852311E+001
  7.966726389935E-004  1.771323769912E-004  5.819686511975E-003  7.292504081321E+000 -3.134753456563E+001
  9.836689940782E-004  1.968627874036E-004  7.182810121809E-003  7.286642235817E+000 -3.134721142868E+001
  1.190403382016E-003  2.166087025496E-004  8.688539771582E-003  7.280161732614E+000 -3.134677871665E+001
  1.416892087541E-003  2.363716828821E-004  1.033661018309E-002  7.273062103447E+000 -3.134621396891E+001
  1.663152957245E-003  2.561532917128E-004  1.212673030268E-002  7.265342844057E+000 -3.134549268429E+001
  1.929205402573E-003  2.759550954757E-004  1.405858316461E-002  7.257003416504E+000 -3.134458834774E+001
  2.215070403073E-003  2.957786639908E-004  1.613182574354E-002  7.248043251686E+000 -3.134347245923E+001
  2.520770509919E-003  3.156255707300E-004  1.834608879670E-002  7.238461752037E+000 -3.134211456487E+001
  2.846329849692E-003  3.354973930828E-004  2.070097669578E-002  7.228258294416E+000 -3.134048229025E+001
  3.191774128432E-003  3.553957126240E-004  2.319606724908E-002  7.217432233177E+000 -3.133854137591E+001
  3.557130635959E-003  3.753221153821E-004  2.583091151412E-002  7.205982903420E+000 -3.133625571495E+001
  3.942428250463E-003  3.952781921092E-004  2.860503360115E-002  7.193909624418E+000 -3.133358739275E+001
  4.347697443358E-003  4.152655385525E-004  3.151793046796E-002  7.181211703215E+000 -3.133049672883E+001
  4.772970284417E-003  4.352857557265E-004  3.456907170632E-002  7.167888438397E+000 -3.132694232063E+001
  5.218280447175E-003  4.553404501876E-004  3.775789932061E-002  7.153939124027E+000 -3.132288108946E+001
  5.683663214611E-003  4.754312343099E-004  4.108382749900E-002  7.139363053737E+000 -3.131826832830E+001
  6.169155485101E-003  4.955597265624E-004  4.454624237762E-002  7.124159524982E+000 -3.131305775162E+001
  6.674795778653E-003  5.157275517886E-004  4.814450179832E-002  7.108327843444E+000 -3.130720154711E+001
  7.200624243425E-003  5.359363414876E-004  5.187793506049E-002  7.091867327582E+000 -3.130065042922E+001
  7.746682662519E-003  5.561877340970E-004  5.574584266741E-002  7.074777313323E+000 -3.129335369457E+001
  8.313014461060E-003  5.764833752781E-004  5.974749606774E-002  7.057057158900E+000 -3.128525927913E+001
  8.899664713569E-003  5.968249182030E-004  6.388213739270E-002  7.038706249805E+000 -3.127631381716E+001
  9.506680151615E-003  6.172140238444E-004  6.814897918955E-002  7.019724003887E+000 -3.126646270181E+001
  1.013410917176E-002  6.376523612666E-004  7.254720415192E-002  7.000109876553E+000 -3.125565014735E+001
  1.078200184380E-002  6.581416079202E-004  7.707596484766E-002  6.979863366101E+000 -3.124381925307E+001
  1.145040991929E-002  6.786834499385E-004  8.173438344479E-002  6.958984019148E+000 -3.123091206865E+001
  1.213938684040E-002  6.992795824361E-004  8.652155143626E-002  6.937471436167E+000 -3.121686966104E+001
  1.284898774901E-002  7.199317098113E-004  9.143652936419E-002  6.915325277124E+000 -3.120163218279E+001
  1.357926949620E-002  7.406415460502E-004  9.647834654418E-002  6.892545267194E+000 -3.118513894178E+001
  1.433029065191E-002  7.614108150341E-004  1.016460007905E-001  6.869131202572E+000 -3.116732847223E+001
  1.510211151509E-002  7.822412508494E-004  1.069384581428E-001  6.845082956353E+000 -3.114813860699E+001
  1.589479412397E-002  8.031345981016E-004  1.123546525952E-001  6.820400484484E+000 -3.112750655107E+001
  1.670840226680E-002  8.240926122311E-004  1.178934858281E-001  6.795083831779E+000 -3.110536895631E+001
  1.754300149280E-002  8.451170598329E-004  1.235538269442E-001  6.769133137984E+000 -3.108166199705E+001
  1.839865912351E-002  8.662097189796E-004  1.293345122083E-001  6.742548643898E+000 -3.105632144696E+001
  1.927544426443E-002  8.873723795480E-004  1.352343447935E-001  6.715330697525E+000 -3.102928275668E+001
  2.017342781695E-002  9.086068435487E-004  1.412520945324E-001  6.687479760267E+000 -3.100048113248E+001
  2.109268249069E-002  9.299149254598E-004  1.473864976756E-001  6.658996413132E+000 -3.096985161563E+001
  2.203328281612E-002  9.512984525641E-004  1.536362566582E-001  6.629881362966E+000 -3.093732916256E+001
  2.299530515754E-002  9.727592652906E-004  1.600000398740E-001  6.600135448691E+000 -3.090284872573E+001
  2.397882772639E-002  9.942992175591E-004  1.664764814598E-001  6.569759647543E+000 -3.086634533505E+001
  2.498393059493E-002  1.015920177130E-003  1.730641810890E-001  6.538755081298E+000 -3.082775417988E+001
  2.601069571024E-002  1.037624025957E-003  1.797617037773E-001  6.507123022493E+000 -3.078701069143E+001
  2.705920690860E-002  1.059412660547E-003  1.865675796987E-001  6.474864900604E+000 -3.074405062564E+001
  2.812954993023E-002  1.081287992318E-003  1.934803040152E-001  6.441982308209E+000 -3.069881014623E+001
  2.922181243436E-002  1.103251947969E-003  2.004983367198E-001  6.408477007097E+000 -3.065122590814E+001
  3.033608401473E-002  1.125306469854E-003  2.076201024934E-001  6.374350934329E+000 -3.060123514096E+001
  3.147245621542E-002  1.147453516351E-003  2.148439905769E-001  6.339606208237E+000 -3.054877573254E+001
  3.263102254705E-002  1.169695062249E-003  2.221683546597E-001  6.304245134362E+000 -3.049378631257E+001
  3.381187850339E-002  1.192033099133E-003  2.295915127848E-001  6.268270211302E+000 -3.043620633602E+001
  3.501512157837E-002  1.214469635775E-003  2.371117472713E-001  6.231684136483E+000 -3.037597616643E+001
  3.624085128345E-002  1.237006698530E-003  2.447273046556E-001  6.194489811831E+000 -3.031303715901E+001
  3.748916916538E-002  1.259646331739E-003  2.524363956522E-001  6.156690349336E+000 -3.024733174325E+001
  3.876017882444E-002  1.282390598136E-003  2.602371951343E-001  6.118289076507E+000 -3.017880350528E+001
  4.005398593302E-002  1.305241579266E-003  2.681278421352E-001  6.079289541697E+000 -3.010739726953E+001
  4.137069825459E-002  1.328201375897E-003  2.761064398723E-001  6.039695519304E+000 -3.003305917999E+001
  4.271042566323E-002  1.351272108452E-003  2.841710557929E-001  5.999511014823E+000 -2.995573678061E+001
  4.407328016341E-002  1.374455917436E-003  2.923197216437E-001  5.958740269750E+000 -2.987537909502E+001
  4.545937591035E-002  1.397754963880E-003  3.005504335645E-001  5.917387766325E+000 -2.979193670540E+001
  4.686882923075E-002  1.421171429779E-003  3.088611522069E-001  5.875458232108E+000 -2.970536183033E+001
  4.830175864396E-002  1.444707518548E-003  3.172498028786E-001  5.832956644374E+000 -2.961560840169E+001
  4.975828488365E-002  1.468365455478E-003  3.257142757141E-001  5.789888234321E+000 -2.952263214037E+001
  5.123853091993E-002  1.492147488203E-003  3.342524258729E-001  5.746258491083E+000 -2.942639063078E+001
  5.274262198188E-002  1.516055887169E-003  3.428620737652E-001  5.702073165537E+000 -2.932684339412E+001
  5.427068558066E-002  1.540092946119E-003  3.515410053063E-001  5.657338273895E+000 -2.922395196015E+001
  5.582285153302E-002  1.564260982573E-003  3.602869722006E-001  5.612060101072E+000 -2.911767993757E+001
  5.739925198530E-002  1.588562338332E-003  3.690976922550E-001  5.566245203827E+000 -2.900799308282E+001
  5.900002143803E-002  1.612999379973E-003  3.779708497228E-001  5.519900413657E+000 -2.889485936717E+001
  6.062529677088E-002  1.637574499364E-003  3.869040956795E-001  5.473032839447E+000 -2.877824904213E+001
  6.227521726827E-002  1.662290114181E-003  3.958950484293E-001  5.425649869860E+000 -2.865813470299E+001
  6.394992464542E-002  1.687148668440E-003  4.049412939444E-001  5.377759175466E+000 -2.853449135048E+001
  6.564956307496E-002  1.712152633027E-003  4.140403863369E-001  5.329368710588E+000 -2.840729645037E+001
  6.737427921404E-002  1.737304506249E-003  4.231898483642E-001  5.280486714880E+000 -2.827652999101E+001
  6.912422223211E-002  1.762606814387E-003  4.323871719674E-001  5.231121714604E+000 -2.814217453873E+001
  7.089954383907E-002  1.788062112257E-003  4.416298188447E-001  5.181282523616E+000 -2.800421529090E+001
  7.270039831418E-002  1.813672983787E-003  4.509152210588E-001  5.130978244052E+000 -2.786264012673E+001
  7.452694253540E-002  1.839442042599E-003  4.602407816788E-001  5.080218266691E+000 -2.771743965555E+001
  7.637933600943E-002  1.865371932600E-003  4.696038754580E-001  5.029012271014E+000 -2.756860726272E+001
  7.825774090225E-002  1.891465328589E-003  4.790018495468E-001  4.977370224932E+000 -2.741613915280E+001
  8.016232207035E-002  1.917724936867E-003  4.884320242407E-001  4.925302384179E+000 -2.726003439016E+001
  8.209324709253E-002  1.944153495867E-003  4.978916937651E-001  4.872819291378E+000 -2.710029493683E+001
  8.405068630235E-002  1.970753776782E-003  5.073781270953E-001  4.819931774757E+000 -2.693692568748E+001
  8.603481282122E-002  1.997528584221E-003  5.168885688125E-001  4.766650946522E+000 -2.676993450160E+001
  8.804580259214E-002  2.024480756857E-003  5.264202399966E-001  4.712988200871E+000 -2.659933223262E+001
  9.008383441408E-002  2.051613168108E-003  5.359703391544E-001  4.658955211656E+000 -2.642513275410E+001
  9.214908997710E-002  2.078928726810E-003  5.455360431837E-001  4.604563929681E+000 -2.624735298272E+001
  9.424175389809E-002  2.106430377918E-003  5.551145083743E-001  4.549826579630E+000 -2.606601289817E+001
  9.636201375725E-002  2.134121103210E-003  5.647028714432E-001  4.494755656628E+000 -2.588113555982E+001
  9.851006013526E-002  2.162003922007E-003  5.742982506069E-001  4.439363922434E+000 -2.569274712004E+001
  1.006860866512E-001  2.190081891910E-003  5.838977466877E-001  4.383664401242E+000 -2.550087683425E+001
  1.028902900012E-001  2.218358109541E-003  5.934984442554E-001  4.327670375122E+000 -2.530555706750E+001
  1.051228699979E-001  2.246835711311E-003  6.030974128036E-001  4.271395379065E+000 -2.510682329763E+001
  1.073840296104E-001  2.275517874190E-003  6.126917079598E-001  4.214853195658E+000 -2.490471411494E+001
  1.096739750056E-001  2.304407816497E-003  6.222783727290E-001  4.158057849362E+000 -2.469927121829E+001
  1.119929155896E-001  2.333508798707E-003  6.318544387707E-001  4.101023600418E+000 -2.449053940761E+001
  1.143410640503E-001  2.362824124271E-003  6.414169277073E-001  4.043764938364E+000 -2.427856657275E+001
  1.167186364011E-001  2.392357140448E-003  6.509628524646E-001  3.986296575164E+000 -2.406340367873E+001
  1.191258520249E-001  2.422111239159E-003  6.604892186435E-001  3.928633437962E+000 -2.384510474723E+001
  1.215629337189E-001  2.452089857854E-003  6.699930259208E-001  3.870790661449E+000 -2.362372683437E+001
  1.240301077413E-001  2.482296480400E-003  6.794712694794E-001  3.812783579850E+000 -2.339933000472E+001
  1.265276038575E-001  2.512734637975E-003  6.889209414665E-001  3.754627718539E+000 -2.317197730157E+001
  1.290556553882E-001  2.543407909995E-003  6.983390324790E-001  3.696338785274E+000 -2.294173471335E+001
  1.316144992580E-001  2.574319925047E-003  7.077225330741E-001  3.637932661070E+000 -2.270867113632E+001
  1.342043760450E-001  2.605474361847E-003  7.170684353054E-001  3.579425390695E+000 -2.247285833337E+001
  1.368255300316E-001  2.636874950214E-003  7.263737342815E-001  3.520833172816E+000 -2.223437088906E+001
  1.394782092560E-001  2.668525472060E-003  7.356354297471E-001  3.462172349786E+000 -2.199328616080E+001
  1.421626655646E-001  2.700429762411E-003  7.448505276849E-001  3.403459397080E+000 -2.174968422627E+001
  1.448791546661E-001  2.732591710434E-003  7.540160419359E-001  3.344710912392E+000 -2.150364782700E+001
  1.476279361856E-001  2.765015260497E-003  7.631289958379E-001  3.285943604397E+000 -2.125526230818E+001
  1.504092737207E-001  2.797704413242E-003  7.721864238796E-001  3.227174281185E+000 -2.100461555474E+001
  1.532234348983E-001  2.830663226680E-003  7.811853733690E-001  3.168419838380E+000 -2.075179792363E+001
  1.560706914324E-001  2.863895817319E-003  7.901229061141E-001  3.109697246953E+000 -2.049690217245E+001
  1.589513191834E-001  2.897406361298E-003  7.989961001145E-001  3.051023540732E+000 -2.024002338441E+001
  1.618655982178E-001  2.931199095559E-003  8.078020512609E-001  2.992415803629E+000 -1.998125888965E+001
  1.648138128702E-001  2.965278319033E-003  8.165378750424E-001  2.933891156595E+000 -1.972070818299E+001
  1.677962518056E-001  2.999648393860E-003  8.252007082574E-001  2.875466744306E+000 -1.945847283816E+001
  1.708132080832E-001  3.034313746623E-003  8.337877107272E-001  2.817159721607E+000 -1.919465641860E+001
  1.738649792215E-001  3.069278869616E-003  8.422960670105E-001  2.758987239713E+000 -1.892936438480E+001
  1.769518672648E-001  3.104548322136E-003  8.507229881151E-001  2.700966432198E+000 -1.866270399840E+001
  1.800741788507E-001  3.140126731803E-003  8.590657132057E-001  2.643114400766E+000 -1.839478422299E+001
  1.832322252791E-001  3.176018795904E-003  8.673215113054E-001  2.585448200845E+000 -1.812571562178E+001
  1.864263225826E-001  3.212229282769E-003  8.754876829870E-001  2.527984826999E+000 -1.785561025216E+001
  1.896567915983E-001  3.248763033179E-003  8.835615620542E-001  2.470741198186E+000 -1.758458155735E+001
  1.929239580409E-001  3.285624961791E-003  8.915405172073E-001  2.413734142878E+000 -1.731274425517E+001
  1.962281525771E-001  3.322820058613E-003  8.994219536932E-001  2.356980384064E+000 -1.704021422396E+001
  1.995697109023E-001  3.360353390492E-003  9.072033149353E-001  2.300496524147E+000 -1.676710838603E+001
  2.029489738173E-001  3.398230102644E-003  9.148820841421E-001  2.244299029767E+000 -1.649354458837E+001
  2.063662873085E-001  3.436455420218E-003  9.224557858901E-001  2.188404216559E+000 -1.621964148118E+001
  2.098220026275E-001  3.475034649885E-003  9.299219876799E-001  2.132828233878E+000 -1.594551839399E+001
  2.133164763746E-001  3.513973181471E-003  9.372783014622E-001  2.077587049500E+000 -1.567129520972E+001
  2.168500705817E-001  3.553276489620E-003  9.445223851297E-001  2.022696434338E+000 -1.539709223675E+001
  2.204231527988E-001  3.592950135496E-003  9.516519439738E-001  1.968171947178E+000 -1.512303007919E+001
  2.240360961807E-001  3.632999768520E-003  9.586647321027E-001  1.914028919473E+000 -1.484922950547E+001
  2.276892795770E-001  3.673431128145E-003  9.655585538169E-001  1.860282440211E+000 -1.457581131541E+001
  2.313830876220E-001  3.714250045674E-003  9.723312649410E-001  1.806947340885E+000 -1.430289620603E+001
  2.351179108282E-001  3.755462446115E-003  9.789807741078E-001  1.754038180588E+000 -1.403060463611E+001
  2.388941456809E-001  3.797074350078E-003  9.855050439920E-001  1.701569231261E+000 -1.375905668989E+001
  2.427121947345E-001  3.839091875711E-003  9.919020924909E-001  1.649554463116E+000 -1.348837193989E+001
  2.465724667110E-001  3.881521240686E-003  9.981699938491E-001  1.598007530264E+000 -1.321866930918E+001
  2.504753766009E-001  3.924368764227E-003  1.004306879725E+000  1.546941756573E+000 -1.295006693328E+001
  2.544213457654E-001  3.967640869177E-003  1.010310940193E+000  1.496370121784E+000 -1.268268202184E+001
  2.584108020414E-001  4.011344084122E-003  1.016180424686E+000  1.446305247908E+000 -1.241663072029E+001
  2.624441798480E-001  4.055485045557E-003  1.021913642868E+000  1.396759385935E+000 -1.215202797183E+001
  2.665219202956E-001  4.100070500102E-003  1.027508965437E+000  1.347744402889E+000 -1.188898737977E+001
  2.706444712976E-001  4.145107306769E-003  1.032964824854E+000  1.299271769235E+000 -1.162762107052E+001
  2.748122876832E-001  4.190602439283E-003  1.038279716004E+000  1.251352546694E+000 -1.136803955756E+001
  2.790258313137E-001  4.236562988450E-003  1.043452196771E+000  1.203997376471E+000 -1.111035160645E+001
  2.832855712010E-001  4.282996164587E-003  1.048480888540E+000  1.157216467935E+000 -1.085466410115E+001
  2.875919836279E-001  4.329909300005E-003  1.053364476616E+000  1.111019587777E+000 -1.060108191201E+001
  2.919455522717E-001  4.377309851548E-003  1.058101710553E+000  1.065416049668E+000 -1.034970776548E+001
  2.963467683296E-001  4.425205403192E-003  1.062691404411E+000  1.020414704450E+000 -1.010064211588E+001
  3.007961306479E-001  4.473603668706E-003  1.067132436907E+000  9.760239308880E-001 -9.853983019533E+000
  3.052941458522E-001  4.522512494374E-003  1.071423751494E+000  9.322516269959E-001 -9.609826011271E+000
  3.098413284823E-001  4.571939861783E-003  1.075564356334E+000  8.891052019836E-001 -9.368263983831E+000
  3.144382011281E-001  4.621893890671E-003  1.079553324193E+000  8.465915688328E-001 -9.129387070183E+000
  3.190852945695E-001  4.672382841850E-003  1.083389792225E+000  8.047171375336E-001 -8.893282529118E+000
  3.237831479192E-001  4.723415120192E-003  1.087072961679E+000  7.634878090067E-001 -8.660034634308E+000
  3.285323087679E-001  4.774999277691E-003  1.090602097497E+000  7.229089697317E-001 -8.429724567091E+000
  3.333333333333E-001  4.827144016591E-003  1.093976527820E+000  6.829854871067E-001 -8.202430313194E+000
  3.381867866117E-001  4.879858192602E-003  1.097195643398E+000  6.437217055588E-001 -7.978226563653E+000
  3.430932425333E-001  4.933150818173E-003  1.100258896898E+000  6.051214434281E-001 -7.757184620146E+000
  3.480532841203E-001  4.987031065868E-003  1.103165802122E+000  5.671879906433E-001 -7.539372304963E+000
  3.530675036492E-001  5.041508271801E-003  1.105915933120E+000  5.299241072083E-001 -7.324853875855E+000
  3.581365028158E-001  5.096591939172E-003  1.108508923208E+000  4.933320225175E-001 -7.113689945954E+000
  3.632608929041E-001  5.152291741875E-003  1.110944463892E+000  4.574134355147E-001 -6.905937409001E+000
  3.684412949588E-001  5.208617528209E-003  1.113222303694E+000  4.221695157108E-001 -6.701649370081E+000
  3.736783399619E-001  5.265579324662E-003  1.115342246886E+000  3.876009050742E-001 -6.500875082053E+000
  3.789726690123E-001  5.323187339805E-003  1.117304152127E+000  3.537077208039E-001 -6.303659887896E+000
  3.843249335105E-001  5.381451968273E-003  1.119107931012E+000  3.204895589969E-001 -6.110045169129E+000
  3.897357953460E-001  5.440383794842E-003  1.120753546532E+000  2.879454992171E-001 -5.920068300503E+000
  3.952059270903E-001  5.499993598618E-003  1.122241011446E+000  2.560741099726E-001 -5.733762611122E+000
  4.007360121927E-001  5.560292357317E-003  1.123570386567E+000  2.248734551060E-001 -5.551157352153E+000
  4.063267451812E-001  5.621291251662E-003  1.124741778972E+000  1.943411010995E-001 -5.372277671283E+000
  4.119788318683E-001  5.683001669888E-003  1.125755340126E+000  1.644741252973E-001 -5.197144594041E+000
  4.176929895600E-001  5.745435212354E-003  1.126611263941E+000  1.352691250410E-001 -5.025775012128E+000
  4.234699472710E-001  5.808603696282E-003  1.127309784760E+000  1.067222277173E-001 -4.858181678863E+000
  4.293104459435E-001  5.872519160606E-003  1.127851175269E+000  7.882910170913E-002 -4.694373211836E+000
  4.352152386716E-001  5.937193870949E-003  1.128235744359E+000  5.158496824442E-002 -4.534354102864E+000
  4.411850909306E-001  6.002640324729E-003  1.128463834925E+000  2.498461413000E-002 -4.378124735318E+000
  4.472207808110E-001  6.068871256391E-003  1.128535821608E+000 -9.775946413242E-004 -4.225681408880E+000
  4.533230992589E-001  6.135899642772E-003  1.128452108508E+000 -2.630769842667E-002 -4.077016371762E+000
  4.594928503202E-001  6.203738708611E-003  1.128213126834E+000 -5.101212862989E-002 -3.932117860424E+000
  4.657308513924E-001  6.272401932198E-003  1.127819332544E+000 -7.509769157995E-002 -3.790970146794E+000
  4.720379334802E-001  6.341903051163E-003  1.127271203940E+000 -9.857155161429E-002 -3.653553592976E+000
  4.784149414579E-001  6.412256068427E-003  1.126569239251E+000 -1.214412133930E-001 -3.519844713428E+000
  4.848627343381E-001  6.483475258298E-003  1.125713954206E+000 -1.437145034725E-001 -3.389816244559E+000
  4.913821855461E-001  6.555575172733E-003  1.124705879592E+000 -1.653995511698E-001 -3.263437221687E+000
  4.979741832006E-001  6.628570647764E-003  1.123545558824E+000 -1.865047687519E-001 -3.140673063263E+000
  5.046396304008E-001  6.702476810086E-003  1.122233545519E+000 -2.070388309859E-001 -3.021485662281E+000
  5.113794455212E-001  6.777309083830E-003  1.120770401097E+000 -2.270106540907E-001 -2.905833484727E+000
  5.181945625116E-001  6.853083197508E-003  1.119156692399E+000 -2.464293741301E-001 -2.793671674947E+000
  5.250859312060E-001  6.929815191146E-003  1.117392989349E+000 -2.653043248946E-001 -2.684952167761E+000
  5.320545176366E-001  7.007521423604E-003  1.115479862661E+000 -2.836450153168E-001 -2.579623807143E+000
  5.391013043575E-001  7.086218580100E-003  1.113417881599E+000 -3.014611064714E-001 -2.477632471265E+000
  5.462272907741E-001  7.165923679926E-003  1.111207611803E+000 -3.187623882113E-001 -2.378921203688E+000
  5.534334934816E-001  7.246654084380E-003  1.108849613186E+000 -3.355587554960E-001 -2.283430350447E+000
  5.607209466109E-001  7.328427504912E-003  1.106344437922E+000 -3.518601844666E-001 -2.191097702780E+000
  5.680907021827E-001  7.411262011483E-003  1.103692628518E+000 -3.676767083294E-001 -2.101858645199E+000
  5.755438304707E-001  7.495176041166E-003  1.100894716000E+000 -3.830183931082E-001 -2.015646308627E+000
  5.830814203728E-001  7.580188406970E-003  1.097951218203E+000 -3.978953133283E-001 -1.932391728247E+000
  5.907045797917E-001  7.666318306912E-003  1.094862638196E+000 -4.123175276987E-001 -1.852024005752E+000
  5.984144360243E-001  7.753585333338E-003  1.091629462827E+000 -4.262950548590E-001 -1.774470475608E+000
  6.062121361613E-001  7.842009482502E-003  1.088252161429E+000 -4.398378492589E-001 -1.699656874978E+000
  6.140988474955E-001  7.931611164409E-003  1.084731184663E+000 -4.529557772425E-001 -1.627507516889E+000
  6.220757579409E-001  8.022411212936E-003  1.081066963535E+000 -4.656585934064E-001 -1.557945466239E+000
  6.301440764614E-001  8.114430896230E-003  1.077259908586E+000 -4.779559173064E-001 -1.490892718222E+000
  6.383050335109E-001  8.207691927403E-003  1.073310409258E+000 -4.898572105835E-001 -1.426270378714E+000
  6.465598814833E-001  8.302216475524E-003  1.069218833456E+000 -5.013717545866E-001 -1.363998846170E+000
  6.549098951744E-001  8.398027176926E-003  1.064985527314E+000 -5.125086285628E-001 -1.303997994564E+000
  6.633563722545E-001  8.495147146827E-003  1.060610815162E+000 -5.232766884931E-001 -1.246187356882E+000
  6.719006337539E-001  8.593599991288E-003  1.056094999716E+000 -5.336845466452E-001 -1.190486308685E+000
  6.805440245593E-001  8.693409819506E-003  1.051438362493E+000 -5.437405519207E-001 -1.136814251223E+000
  6.892879139233E-001  8.794601256469E-003  1.046641164450E+000 -5.534527710672E-001 -1.085090793615E+000
  6.981336959871E-001  8.897199455961E-003  1.041703646876E+000 -5.628289708310E-001 -1.035235933553E+000
  7.070827903152E-001  9.001230113956E-003  1.036626032510E+000 -5.718766011201E-001 -9.871702360282E-001
  7.161366424455E-001  9.106719482390E-003  1.031408526927E+000 -5.806027792487E-001 -9.408150095428E-001
  7.252967244510E-001  9.213694383338E-003  1.026051320164E+000 -5.890142753308E-001 -8.960924792876E-001
  7.345645355186E-001  9.322182223606E-003  1.020554588616E+000 -5.971174988901E-001 -8.529259567605E-001
  7.439416025400E-001  9.432211009745E-003  1.014918497181E+000 -6.049184867500E-001 -8.112400053001E-001
  7.534294807203E-001  9.543809363512E-003  1.009143201681E+000 -6.124228922641E-001 -7.709606010184E-001
  7.630297542000E-001  9.657006537783E-003  1.003228851541E+000 -6.196359759461E-001 -7.320152886182E-001
  7.727440366954E-001  9.771832432940E-003  9.971755927345E-001 -6.265625975547E-001 -6.943333315924E-001
  7.825739721536E-001  9.888317613741E-003  9.909835709934E-001 -6.332072096820E-001 -6.578458563102E-001
  7.925212354258E-001  1.000649332670E-002  9.846529352844E-001 -6.395738528957E-001 -6.224859895101E-001
  8.025875329584E-001  1.012639151798E-002  9.781838415416E-001 -6.456661524758E-001 -5.881889887307E-001
  8.127746035011E-001  1.024804485184E-002  9.715764566581E-001 -6.514873167836E-001 -5.548923652305E-001
  8.230842188350E-001  1.037148672960E-002  9.648309627284E-001 -6.570401372980E-001 -5.225359989643E-001
  8.335181845190E-001  1.049675130923E-002  9.579475615359E-001 -6.623269903451E-001 -4.910622452061E-001
  8.440783406568E-001  1.062387352550E-002  9.509264792787E-001 -6.673498405434E-001 -4.604160324302E-001
  8.547665626839E-001  1.075288911077E-002  9.437679715236E-001 -6.721102459825E-001 -4.305449510884E-001
  8.655847621758E-001  1.088383461638E-002  9.364723283797E-001 -6.766093651433E-001 -4.013993329488E-001
  8.765348876780E-001  1.101674743475E-002  9.290398798793E-001 -6.808479655649E-001 -3.729323206886E-001
  8.876189255584E-001  1.115166582209E-002  9.214710015536E-001 -6.848264342555E-001 -3.450999274678E-001
  8.988389008829E-001  1.128862892191E-002  9.137661201891E-001 -6.885447898361E-001 -3.178610862411E-001
  9.101968783143E-001  1.142767678917E-002  9.059257197497E-001 -6.920026964017E-001 -2.911776886023E-001
  9.216949630368E-001  1.156885041525E-002  8.979503474470E-001 -6.951994790760E-001 -2.650146129895E-001
  9.333353017046E-001  1.171219175365E-002  8.898406199416E-001 -6.981341412267E-001 -2.393397421206E-001
  9.451200834176E-001  1.185774374655E-002  8.815972296551E-001 -7.008053833047E-001 -2.141239695663E-001
  9.570515407237E-001  1.200555035216E-002  8.732209511731E-001 -7.032116232592E-001 -1.893411954093E-001
  9.691319506484E-001  1.215565657299E-002  8.647126477157E-001 -7.053510184753E-001 -1.649683109802E-001
  9.813636357544E-001  1.230810848498E-002  8.560732776541E-001 -7.072214891730E-001 -1.409851727054E-001
  9.937489652293E-001  1.246295326757E-002  8.473039010472E-001 -7.088207431967E-001 -1.173745651435E-001
  1.006290356005E+000  1.262023923477E-002  8.384056861734E-001 -7.101463021205E-001 -9.412215333463E-002
  1.018990273907E+000  1.278001586715E-002  8.293799160309E-001 -7.111955285830E-001 -7.121642462954E-002
  1.031851234841E+000  1.294233384499E-002  8.202279947786E-001 -7.119656547615E-001 -4.864862021277E-002
  1.044875806003E+000  1.310724508236E-002  8.109514540882E-001 -7.124538118849E-001 -2.641265657818E-002
  1.058066607138E+000  1.327480276248E-002  8.015519593796E-001 -7.126570606821E-001 -4.505037261239E-003
  1.071426311823E+000  1.344506137405E-002  7.920313159071E-001 -7.125724226503E-001  1.707524482285E-002
  1.084957648792E+000  1.361807674895E-002  7.823914746675E-001 -7.121969120267E-001  3.832681404215E-002
  1.098663403298E+000  1.379390610110E-002  7.726345380961E-001 -7.115275683374E-001  5.924602727570E-002
  1.112546418516E+000  1.397260806657E-002  7.627627655213E-001 -7.105614893932E-001  7.982709722736E-002
  1.126609596985E+000  1.415424274514E-002  7.527785783420E-001 -7.092958645962E-001  1.000622233068E-001
  1.140855902095E+000  1.433887174317E-002  7.426845648987E-001 -7.077280084171E-001  1.199417295193E-001
  1.155288359613E+000  1.452655821788E-002  7.324834850028E-001 -7.058553938978E-001  1.394542087696E-001
  1.169910059257E+000  1.471736692327E-002  7.221782740928E-001 -7.036756860309E-001  1.585866729494E-001
  1.184724156317E+000  1.491136425740E-002  7.117720469850E-001 -7.011867748650E-001  1.773247081459E-001
  1.199733873325E+000  1.510861831145E-002  7.012681011856E-001 -6.983868081819E-001  1.956526342809E-001
  1.214942501771E+000  1.530919892035E-002  6.906699197351E-001 -6.952742235887E-001  2.135536684589E-001
  1.230353403874E+000  1.551317771520E-002  6.799811735512E-001 -6.918477798704E-001  2.310100912841E-001
  1.245970014403E+000  1.572062817747E-002  6.692057232428E-001 -6.881065874446E-001  2.480034153823E-001
  1.261795842559E+000  1.593162569510E-002  6.583476203660E-001 -6.840501377620E-001  2.645145553485E-001
  1.277834473907E+000  1.614624762054E-002  6.474111080934E-001 -6.796783314986E-001  2.805239983277E-001
  1.294089572372E+000  1.636457333079E-002  6.364006212727E-001 -6.749915053857E-001  2.960119744276E-001
  1.310564882294E+000  1.658668428962E-002  6.253207858479E-001 -6.699904575289E-001  3.109586261571E-001
  1.327264230548E+000  1.681266411190E-002  6.141764176234E-001 -6.646764710690E-001  3.253441760824E-001
  1.344191528724E+000  1.704259863026E-002  6.029725203483E-001 -6.590513360448E-001  3.391490918991E-001
  1.361350775387E+000  1.727657596408E-002  5.917142831032E-001 -6.531173693212E-001  3.523542481227E-001
  1.378746058390E+000  1.751468659100E-002  5.804070769749E-001 -6.468774324535E-001  3.649410836160E-001
  1.396381557275E+000  1.775702342093E-002  5.690564510036E-001 -6.403349473672E-001  3.768917541857E-001
  1.414261545744E+000  1.800368187279E-002  5.576681273932E-001 -6.334939097374E-001  3.881892795056E-001
  1.432390394201E+000  1.825475995395E-002  5.462479959780E-001 -6.263588999654E-001  3.988176836438E-001
  1.450772572390E+000  1.851035834267E-002  5.348021079382E-001 -6.189350916559E-001  4.087621285091E-001
  1.469412652102E+000  1.877058047342E-002  5.233366687657E-001 -6.112282575115E-001  4.180090395581E-001
  1.488315309978E+000  1.903553262542E-002  5.118580304811E-001 -6.032447725703E-001  4.265462231506E-001
  1.507485330398E+000  1.930532401444E-002  5.003726831057E-001 -5.949916147268E-001  4.343629749769E-001
  1.526927608467E+000  1.958006688797E-002  4.888872454001E-001 -5.864763624862E-001  4.414501790320E-001
  1.546647153093E+000  1.985987662391E-002  4.774084548792E-001 -5.777071899185E-001  4.478003966592E-001
  1.566649090169E+000  2.014487183303E-002  4.659431571221E-001 -5.686928587884E-001  4.534079452376E-001
  1.586938665861E+000  2.043517446518E-002  4.544982943948E-001 -5.594427078562E-001  4.582689661488E-001
  1.607521250000E+000  2.073090991960E-002  4.430808936114E-001 -5.499666393548E-001  4.623814817112E-001
  1.628402339588E+000  2.103220715932E-002  4.316980536598E-001 -5.402751026657E-001  4.657454408364E-001
  1.649587562420E+000  2.133919883002E-002  4.203569321249E-001 -5.303790752312E-001  4.683627532228E-001
  1.671082680832E+000  2.165202138333E-002  4.090647314434E-001 -5.202900407546E-001  4.702373119682E-001
  1.692893595565E+000  2.197081520497E-002  3.978286845293E-001 -5.100199647557E-001  4.713750045478E-001
  1.715026349769E+000  2.229572474776E-002  3.866560399141E-001 -4.995812675656E-001  4.717837121727E-001
  1.737487133138E+000  2.262689866987E-002  3.755540464464E-001 -4.889867948567E-001  4.714732976090E-001
  1.760282286187E+000  2.296448997842E-002  3.645299376016E-001 -4.782497858231E-001  4.704555816088E-001
  1.783418304674E+000  2.330865617868E-002  3.535909154548E-001 -4.673838391354E-001  4.687443081663E-001
  1.806901844175E+000  2.365955942924E-002  3.427441343727E-001 -4.564028768145E-001  4.663550988820E-001
  1.830739724818E+000  2.401736670327E-002  3.319966844848E-001 -4.453211061761E-001  4.633053967793E-001
  1.854938936184E+000  2.438224995616E-002  3.213555749941E-001 -4.341529800157E-001  4.596143999835E-001
  1.879506642368E+000  2.475438629994E-002  3.108277173933E-001 -4.229131552128E-001  4.553029857289E-001
  1.904450187236E+000  2.513395818467E-002  3.004199086531E-001 -4.116164499452E-001  4.503936252213E-001
  1.929777099847E+000  2.552115358717E-002  2.901388144498E-001 -4.002777997152E-001  4.449102899341E-001
  1.955495100083E+000  2.591616620741E-002  2.799909525037E-001 -3.889122123990E-001  4.388783499678E-001
  1.981612104475E+000  2.631919567292E-002  2.699826760997E-001 -3.775347225365E-001  4.323244651495E-001
  2.008136232230E+000  2.673044775156E-002  2.601201578608E-001 -3.661603450896E-001  4.252764695907E-001
  2.035075811486E+000  2.715013457311E-002  2.504093738495E-001 -3.548040288996E-001  4.177632504576E-001
  2.062439385788E+000  2.757847486001E-002  2.408560880683E-001 -3.434806100800E-001  4.098146217445E-001
  2.090235720801E+000  2.801569416771E-002  2.314658374322E-001 -3.322047655849E-001  4.014611938626E-001
  2.118473811262E+000  2.846202513514E-002  2.222439172851E-001 -3.209909671932E-001  3.927342398841E-001
  2.147162888201E+000  2.891770774564E-002  2.131953675314E-001 -3.098534361497E-001  3.836655592924E-001
  2.176312426413E+000  2.938298959899E-002  2.043249594493E-001 -2.988060987040E-001  3.742873401042E-001
  2.205932152222E+000  2.985812619504E-002  1.956371832555E-001 -2.878625427825E-001  3.646320202302E-001
  2.236032051522E+000  3.034338122938E-002  1.871362364830E-001 -2.770359760265E-001  3.547321489417E-001
  2.266622378129E+000  3.083902690182E-002  1.788260132350E-001 -2.663391854229E-001  3.446202493032E-001
  2.297713662445E+000  3.134534423818E-002  1.707100943702E-001 -2.557844987456E-001  3.343286824170E-001
  2.329316720450E+000  3.186262342603E-002  1.627917386763E-001 -2.453837480176E-001  3.238895143065E-001
  2.361442663038E+000  3.239116416519E-002  1.550738750770E-001 -2.351482351910E-001  3.133343862429E-001
  2.394102905709E+000  3.293127603351E-002  1.475590959207E-001 -2.250887002332E-001  3.026943892850E-001
  2.427309178642E+000  3.348327886897E-002  1.402496513870E-001 -2.152152917910E-001  2.919999437712E-001
  2.461073537146E+000  3.404750316862E-002  1.331474450465E-001 -2.055375405902E-001  2.812806844586E-001
  2.495408372530E+000  3.462429050548E-002  1.262540306007E-001 -1.960643357125E-001  2.705653519595E-001
  2.530326423398E+000  3.521399396401E-002  1.195706098231E-001 -1.868039038737E-001  2.598816910766E-001
  2.565840787378E+000  3.581697859546E-002  1.130980317171E-001 -1.777637918085E-001  2.492563565818E-001
  2.601964933334E+000  3.643362189376E-002  1.068367928974E-001 -1.689508518464E-001  2.387148269275E-001
  2.638712714049E+000  3.706431429322E-002  1.007870391971E-001 -1.603712307464E-001  2.282813263163E-001
  2.676098379430E+000  3.770945968912E-002  9.494856849400E-002 -1.520303618312E-001  2.179787554913E-001
  2.714136590232E+000  3.836947598236E-002  8.932083474167E-002 -1.439329604463E-001  2.078286315421E-001
  2.752842432351E+000  3.904479564947E-002  8.390295318650E-002 -1.360830227412E-001  1.978510369526E-001
  2.792231431696E+000  3.973586633921E-002  7.869370674143E-002 -1.284838277523E-001  1.880645780466E-001
  2.832319569669E+000  4.044315149734E-002  7.369155348201E-002 -1.211379427411E-001  1.784863529157E-001
  2.873123299289E+000  4.116713102086E-002  6.889463522288E-002 -1.140472317210E-001  1.691319288407E-001
  2.914659561979E+000  4.190830194354E-002  6.430078712591E-002 -1.072128670829E-001  1.600153291505E-001
  2.956945805065E+000  4.266717915414E-002  5.990754828510E-002 -1.006353442085E-001  1.511490293851E-001
  3.000000000000E+000  4.344429614932E-002  5.571217322703E-002 -9.431449893860E-002  1.425439625662E-001
  3.043840661365E+000  4.424020582308E-002  5.171164426039E-002 -8.824952774628E-002  1.342095333067E-001
  3.088486866678E+000  4.505548129460E-002  4.790268460265E-002 -8.243901044166E-002  1.261536404268E-001
  3.133958277047E+000  4.589071677685E-002  4.428177220770E-002 -7.688093522195E-002  1.183827076834E-001
  3.180275158719E+000  4.674652848797E-002  4.084515421448E-002 -7.157272586169E-002  1.109017221585E-001
  3.227458405560E+000  4.762355560797E-002  3.758886193309E-002 -6.651127082484E-002  1.037142798016E-001
  3.275529562509E+000  4.852246128332E-002  3.450872628294E-002 -6.169295406824E-002  9.682263756685E-002
  3.324510850077E+000  4.944393368200E-002  3.160039359558E-002 -5.711368729542E-002  9.022777154689E-002
  3.374425189910E+000  5.038868710203E-002  2.885934169420E-002 -5.276894341220E-002  8.392944046304E-002
  3.425296231502E+000  5.135746313639E-002  2.628089616190E-002 -4.865379092955E-002  7.792625384097E-002
  3.477148380094E+000  5.235103189784E-002  2.386024671169E-002 -4.476292905669E-002  7.221574417556E-002
  3.530006825834E+000  5.337019330676E-002  2.159246357332E-002 -4.109072322663E-002  6.679444236976E-002
  3.583897574256E+000  5.441577844603E-002  1.947251381437E-002 -3.763124079874E-002  6.165795572143E-002
  3.638847478148E+000  5.548865098670E-002  1.749527751704E-002 -3.437828668791E-002  5.680104772835E-002
  3.694884270887E+000  5.658970868864E-002  1.565556373620E-002 -3.132543867738E-002  5.221771898579E-002
  3.752036601308E+000  5.771988498079E-002  1.394812616953E-002 -2.846608218273E-002  4.790128846245E-002
  3.810334070199E+000  5.888015062562E-002  1.236767847643E-002 -2.579344424700E-002  4.384447446040E-002
  3.869807268505E+000  6.007151547295E-002  1.090890918887E-002 -2.330062656252E-002  4.003947459101E-002
  3.930487817331E+000  6.129503030858E-002  9.566496164316E-003 -2.098063733192E-002  3.647804413347E-002
  3.992408409843E+000  6.255178880352E-002  8.335120538143E-003 -1.882642180080E-002  3.315157218321E-002
  4.055602855172E+000  6.384292957002E-002  7.209480140794E-003 -1.683089131512E-002  3.005115504493E-002
  4.120106124432E+000  6.516963833101E-002  6.184302352474E-003 -1.498695077958E-002  2.716766637836E-002
  4.185954398964E+000  6.653315021009E-002  5.254356376104E-003 -1.328752441651E-002  2.449182366290E-002
  4.253185120935E+000  6.793475214960E-002  4.414464916745E-003 -1.172557974968E-002  2.201425060993E-002
  4.321837046422E+000  6.937578546490E-002  3.659515262974E-003 -1.029414976193E-002  1.972553521754E-002
  4.391950301120E+000  7.085764854355E-002  2.984469772470E-003 -8.986353200784E-003  1.761628323076E-002
  4.463566438835E+000  7.238179969882E-002  2.384375770160E-003 -7.795413029822E-003  1.567716683964E-002
  4.536728502895E+000  7.394976018725E-002  1.854374872622E-003 -6.714673047601E-003  1.389896851785E-002
  4.611481090679E+000  7.556311740127E-002  1.389711756819E-003 -5.737612717363E-003  1.227261997268E-002
  4.687870421430E+000  7.722352824817E-002  9.857423945980E-004 -4.857860271219E-003  1.078923624448E-002
  4.765944407533E+000  7.893272272784E-002  6.379417765772E-004 -4.069204170338E-003  9.440145056625E-003
  4.845752729492E+000  8.069250772248E-002  3.419111500101E-004 -3.365603018164E-003  8.216911576234E-003
  4.927346914797E+000  8.250477101257E-002  9.338479491948E-005 -2.741194036217E-003  7.111358799450E-003
  5.010780420931E+000  8.437148553436E-002 -1.117636388021E-004 -2.190300221503E-003  6.115583822145E-003
  5.096108722763E+000  8.629471389541E-002 -2.775152134810E-004 -1.707436310722E-003  5.221970296980E-003
  5.183389404586E+000  8.827661316581E-002 -4.077001891645E-004 -1.287313679177E-003  4.423197409809E-003
  5.272682257105E+000  9.031943996425E-002 -5.059929019305E-004 -9.248443016416E-004  3.712245732088E-003
  5.364049379651E+000  9.242555585946E-002 -5.759070305415E-004 -6.151438983098E-004  3.082400321001E-003
  5.457555287978E+000  9.459743310926E-002 -6.207912539178E-004 -3.535343816816E-004  2.527251445148E-003
  5.553267027968E+000  9.683766076100E-002 -6.438253094135E-004 -1.355457099346E-004  2.040693311148E-003
  5.651254295630E+000  9.914895113938E-002 -6.480164697230E-004  4.308276063066E-005  1.616921155609E-003
  5.751589563796E+000  1.015341467494E-001 -6.361964641328E-004  1.864013466663E-004  1.250427048125E-003
  5.854348215936E+000  1.039962276248E-001 -6.110188774710E-004  2.982494719138E-004  9.359947251913E-004
  5.959608687557E+000  1.065383191537E-001 -5.749570671747E-004  3.822554220728E-004  6.686937428408E-004
  6.067452615683E+000  1.091637004188E-001 -5.303026450617E-004  4.418363967851E-004  4.438731988549E-004
  6.177964996951E+000  1.118758130872E-001 -4.791645753510E-004  4.801988537699E-004  2.571552344925E-004
  6.291234354880E+000  1.146782708938E-001 -4.234689438941E-004  5.003391580756E-004  1.044284824397E-004
  6.407352916949E+000  1.175748697626E-001 -3.649594551930E-004  5.050445659656E-004 -1.815841665234E-005
  6.526416802128E+000  1.205695986129E-001 -3.051987133317E-004  4.968945875073E-004 -1.142031505793E-004
  6.648526219580E+000  1.236666509049E-001 -2.455703402264E-004  4.782627838903E-004 -1.870558885859E-004
  6.773785679311E+000  1.268704369821E-001 -1.872819794838E-004  4.513190643704E-004 -2.398252535596E-004
  6.902304215570E+000  1.301855972713E-001 -1.313692265461E-004  4.180325530796E-004 -2.753841506135E-004
  7.034195623922E+000  1.336170164087E-001 -7.870051571492E-005  3.801750974645E-004 -2.963755184438E-004
  7.169578712934E+000  1.371698383673E-001 -2.998298216430E-005  3.393254876197E-004 -3.052180927711E-004
  7.308577571516E+000  1.408494826628E-001  1.423069765928E-005  2.968744492270E-004 -3.041122872063E-004
  7.451321853057E+000  1.446616617293E-001  5.353450051766E-005  2.540304622879E-004 -2.950463056635E-004
  7.597947077547E+000  1.486123995567E-001  8.766031729223E-005  2.118264435918E-004 -2.798026018712E-004
  7.748594953021E+000  1.527080516973E-001  1.164683313291E-004  1.711273132946E-004 -2.599647957882E-004
  7.903413717736E+000  1.569553267535E-001  1.399365853385E-004  1.326384456076E-004 -2.369251442574E-004
  8.062558504629E+000  1.613613094717E-001  1.581498281736E-004  9.691498109122E-005 -2.118926447381E-004
  8.226191729726E+000  1.659334855793E-001  1.712877524770E-004  6.437195415777E-005 -1.859018273558E-004
  8.394483506327E+000  1.706797685137E-001  1.796127526460E-004  3.529516497199E-005 -1.598222629434E-004
  8.567612086926E+000  1.756085282071E-001  1.834573491655E-004  9.852700895896E-006 -1.343687844623E-004
  8.745764335025E+000  1.807286221064E-001  1.832114394187E-004 -1.189301011694E-005 -1.101123875772E-004
  8.929136229160E+000  1.860494286260E-001  1.793095460049E-004 -2.997275229567E-005 -8.749174461757E-005
  9.117933401693E+000  1.915808832504E-001  1.722182407957E-004 -4.449783654687E-005 -6.682523610259E-005
  9.312371715124E+000  1.973335175235E-001  1.624239259866E-004 -5.564734577889E-005 -4.832337676674E-005
  9.512677878945E+000  2.033185011886E-001  1.504211518825E-004 -6.365548917367E-005 -3.210148982166E-005
  9.719090110332E+000  2.095476877688E-001  1.367016448734E-004 -6.879924746196E-005 -1.819246506281E-005
  9.931858842267E+000  2.160336639044E-001  1.217442079473E-004 -7.138648978079E-005 -6.559424204462E-006
  1.015124748302E+001  2.227898028021E-001  1.060056402308E-004 -7.174473565378E-005  2.891888925665E-006
  1.037753323129E+001  2.298303221843E-001  8.991280174683E-005 -7.021072310457E-005  1.030117468754E-005
  1.061100795175E+001  2.371703471699E-001  7.385592526122E-005 -6.712092618112E-005  1.584227400505E-005
  1.085197911611E+001  2.448259785618E-001  5.818324939631E-005 -6.280314274351E-005  1.971265415590E-005
  1.110077081537E+001  2.528143670735E-001  4.319701689966E-005 -5.756924696384E-005  2.212382319362E-005
  1.135772484956E+001  2.611537940784E-001  2.915084998167E-005 -5.170917150425E-005  2.329278706759E-005
  1.162320190175E+001  2.698637595360E-001  1.624848200366E-005 -4.548615282454E-005  2.343463439650E-005
  1.189758280382E+001  2.789650778206E-001  4.643792587920E-006 -3.913324068337E-005  2.275630203254E-005
  1.218126990242E+001  2.884799822596E-001 -5.557937460088E-006 -3.285104084960E-005  2.145154140045E-005
  1.247468853413E+001  2.984322392826E-001 -1.429766310468E-005 -2.680662955150E-005  1.969707253081E-005
  1.277828862002E+001  3.088472731875E-001 -2.155924007110E-005 -2.113355042021E-005  1.764988113824E-005
  1.309254639077E+001  3.197523026463E-001 -2.736527404319E-005 -1.593278067485E-005  1.544558533913E-005
  1.341796625462E+001  3.311764902095E-001 -3.177232507149E-005 -1.127453392295E-005  1.319777381810E-005
  1.375508282195E+001  3.431511062169E-001 -3.486564737442E-005 -7.200752867431E-006  1.099819737312E-005
  1.410446310162E+001  3.557097086969E-001 -3.675364798119E-005 -3.728136820247E-006  8.917681461097E-006
  1.446670888596E+001  3.688883410292E-001 -3.756224501486E-005 -8.515463488163E-007  7.007618986138E-006
  1.484245934302E+001  3.827257493700E-001 -3.742929808893E-005  1.452369530359E-006  5.301900157007E-006
  1.523239383723E+001  3.972636220891E-001 -3.649926976632E-005  3.221469869470E-006  3.819139507804E-006
  1.563723500136E+001  4.125468537596E-001 -3.491825898358E-005  4.504475368803E-006  2.565068555163E-006
  1.605775208607E+001  4.286238365683E-001 -3.282952561453E-005  5.357495727130E-006  1.534975242180E-006
  1.649476461582E+001  4.455467823929E-001 -3.036960088941E-005  5.840828077284E-006  7.160873005538E-007
  1.694914638379E+001  4.633720792263E-001 -2.766505220859E-005  6.016102714669E-006  8.981485076837E-008
  1.742182982203E+001  4.821606861220E-001 -2.482994401332E-005  5.943830548255E-006 -3.662131649980E-007
  1.791381078784E+001  5.019785714107E-001 -2.196400977718E-005  5.681385226993E-006 -6.763648267613E-007
  1.842615381215E+001  5.228971995942E-001 -1.915152476221E-005  5.281432574415E-006 -8.655010918395E-007
  1.895999786176E+001  5.449940730840E-001 -1.646084574030E-005  4.790801499376E-006 -9.577627060908E-007
  1.951656267356E+001  5.683533358366E-001 -1.394456309224E-005  4.249774465228E-006 -9.756447677360E-007
  2.009715572669E+001  5.930664469535E-001 -1.164019312408E-005  3.691762239903E-006 -9.393436690878E-007
  2.070317992707E+001  6.192329335039E-001 -9.571324526822E-006  3.143317199957E-006 -8.663519765736E-007
  2.133614208874E+001  6.469612332097E-001 -7.749122984874E-006  2.624431970206E-006 -7.712703022853E-007
  2.199766230782E+001  6.763696392388E-001 -6.174092241106E-006  2.149065589313E-006 -6.658011875444E-007
  2.268948433818E+001  7.075873612439E-001 -4.837988571743E-006  1.725837567262E-006 -5.588881896187E-007
  2.341348709294E+001  7.407557189842E-001 -3.725788610343E-006  1.358830957284E-006 -4.569634228147E-007
  2.417169741362E+001  7.760294874639E-001 -2.817617638112E-006  1.048448677083E-006 -3.642684337022E-007
  2.496630426925E+001  8.135784155747E-001 -2.090556502706E-006  7.922725173622E-007 -2.832161819268E-007
  2.579967457140E+001  8.535889438281E-001 -1.520259710636E-006  5.858812570789E-007 -2.147657721660E-007
  2.667437081864E+001  8.962661510291E-001 -1.082334209154E-006  4.235926904850E-007 -1.587861795887E-007
  2.759317081651E+001  9.418359647997E-001 -7.534469660088E-007  2.991037148416E-007 -1.143902812038E-007
  2.855908975674E+001  9.905476768748E-001 -5.121485235255E-007  2.060124112471E-007 -8.022579721504E-008
  2.957540498378E+001  1.042676811269E+000 -3.394179923839E-007  1.382156988912E-007 -5.471499882498E-008
  3.064568382919E+001  1.098528402000E+000 -2.189512024901E-007  9.018505783337E-008 -3.623998306851E-008
  3.177381495601E+001  1.158440747351E+000 -1.372268121663E-007  5.713042957924E-008 -2.327468798272E-008
  3.296404372807E+001  1.222789720048E+000 -8.339422437317E-008  3.506824351532E-008 -1.446838829254E-008
  3.422101220608E+001  1.291993727721E+000 -4.903168554037E-008  2.081326143730E-008 -8.687995849516E-009
  3.554980447538E+001  1.366519436102E+000 -2.782292880052E-008  1.191546809449E-008 -5.027998161135E-009
  3.695599813319E+001  1.446888389511E+000 -1.519663231662E-008  6.562678741892E-009 -2.797313813187E-009
  3.844572291106E+001  1.533684690030E+000 -7.965687450321E-009  3.467220876163E-009 -1.491843972738E-009
  4.002572758518E+001  1.627563929686E+000 -3.994007035115E-009  1.751485878415E-009 -7.602660205735E-010
  4.170345654134E+001  1.729263610453E+000 -1.908672109682E-009  8.429428576072E-010 -3.689220746069E-010
  4.348713762001E+001  1.839615336740E+000 -8.658611801660E-010  3.849693985460E-010 -1.697941608500E-010
  4.538588318162E+001  1.959559126947E+000 -3.712151542106E-010  1.660994662695E-010 -7.379490883097E-011
  4.740980671574E+001  2.090160267552E+000 -1.496625548692E-010  6.737269068915E-011 -3.013852505983E-011
  4.957015778746E+001  2.232629229408E+000 -5.643059780937E-011  2.554972723814E-011 -1.150369441746E-011
  5.187947869225E+001  2.388345286640E+000 -1.977675018544E-011  9.003435872680E-012 -4.078667703190E-012
  5.435178690397E+001  2.558884630889E+000 -6.397939569740E-012  2.927948488799E-012 -1.334104911786E-012
  5.700278828629E+001  2.746053966795E+000 -1.895884336052E-012  8.719668361242E-013 -3.994944798558E-013
  5.985012714155E+001  2.951930820846E+000 -5.101443310058E-013  2.357474169214E-013 -1.085722708095E-013
  6.291368055481E+001  3.178912111311E+000 -1.234311378321E-013  5.729949060897E-014 -2.651972307068E-014
  6.621590623276E+001  3.429772933797E+000 -2.655770328829E-014  1.238226480372E-014 -5.757805459400E-015
  6.978225524452E+001  3.707738044625E+000 -5.017965165387E-015  2.349290411978E-015 -1.097315040219E-015
  7.364166388185E+001  4.016569212832E+000 -8.207682991752E-016  3.857884638256E-016 -1.809616782207E-016
  7.782714245929E+001  4.360672516382E+000 -1.143335458191E-016  5.394433576298E-017 -2.540600728572E-017
  8.237648351994E+001  4.745230855210E+000 -1.331245076007E-017  6.303780970630E-018 -2.980301627696E-018
  8.733311794502E+001  5.176368549127E+000 -1.268020188094E-018  6.025190834351E-019 -2.859027013320E-019
  9.274715535088E+001  5.661357031559E+000 -9.638002669245E-020  4.594801812256E-020 -2.187894918508E-020
  9.867665554529E+001  6.208873552072E+000 -5.679769043885E-021  2.716325435087E-021 -1.297720870189E-021
  1.051891916055E+002  6.829328764649E+000 -2.509515240730E-022  1.203791097143E-022 -5.769277270755E-023
  1.123637836013E+002  7.535284543316E+000 -7.993211330094E-024  3.845332015741E-024 -1.848455563603E-024
  1.202933069206E+002  8.341990973529E+000 -1.752605747319E-025  8.454564984983E-026 -4.075756825145E-026
  1.290875131414E+002  9.268082166539E+000 -2.504873935936E-027  1.211525601859E-027 -5.856403321740E-028
  1.388768482001E+002  1.033648575811E+001 -2.187027708978E-029  1.060443955436E-029 -5.139364856714E-030
  1.498173177370E+002  1.157562284364E+001 -1.079404236038E-031  5.246298328109E-032 -2.548838014775E-032
  1.620967411853E+002  1.302100699722E+001 -2.742718520143E-034  1.336090310567E-034 -6.506370724056E-035
  1.759428668168E+002  1.471739812515E+001 -3.203345648193E-037  1.563852612273E-037 -7.632391529859E-038
  1.916340085825E+002  1.672173748087E+001 -1.497119281815E-040  7.323841523895E-041 -3.581916139407E-041
  2.095131417987E+002  1.910719757888E+001 -2.360119660382E-044  1.156808296659E-044 -5.668928063904E-045
  2.300068054477E+002  2.196884699990E+001 -1.014666527669E-048  4.982542565858E-049 -2.446282108085E-049
  2.536507797910E+002  2.543169216868E+001 -9.108234695848E-054  4.480420242101E-054 -2.203659525386E-054
  2.811254638474E+002  2.966227967912E+001 -1.215981088249E-059  5.991364535616E-060 -2.951733997618E-060
  3.133053780630E+002  3.488573552677E+001 -1.560895873718E-066  7.702747979895E-067 -3.800839672726E-067
  3.513296254502E+002  4.141128389041E+001 -1.091378856561E-074  5.393608455923E-075 -2.665344741037E-075
  3.967041014107E+002  4.967130404215E+001 -1.960576763614E-084  9.702416784473E-085 -4.801232222879E-085
  4.514529193350E+002  6.028257212519E+001 -3.294940799604E-096  1.632663471088E-096 -8.089615344690E-097
  5.183481233601E+002  7.414493328741E+001 -1.298271393013E-110  6.440639356049E-111 -3.195059923888E-111
  6.012676077950E+002  9.260523890243E+001 -1.729866836620E-128  8.591176756728E-129 -4.266607415647E-129
  7.057700503752E+002  1.177394213729E+002 -4.854704402683E-151  2.413469788796E-151 -1.199813535440E-151
  8.400513767914E+002  1.528577972397E+002 -4.785094410521E-180  2.381067947681E-180 -1.184808113411E-180
  1.016602135495E+003  2.034537342122E+002 -3.230125977602E-218  1.608668302586E-218 -8.011431377243E-219
  1.255220715579E+003  2.790860613465E+002 -7.551405268267E-270  3.763609543220E-270 -1.875767909061E-270
  1.588815776243E+003  3.973705897531E+002  0.000000000000E+000  0.000000000000E+000  0.000000000000E+000
  2.075392011604E+003  5.931596040112E+002  0.000000000000E+000  0.000000000000E+000  0.000000000000E+000
  2.825079847528E+003  9.419154890018E+002  0.000000000000E+000  0.000000000000E+000  0.000000000000E+000
  4.068408296183E+003  1.627629972032E+003  0.000000000000E+000  0.000000000000E+000  0.000000000000E+000
  6.357262947672E+003  3.178964796684E+003  0.000000000000E+000  0.000000000000E+000  0.000000000000E+000
  1.130231930164E+004  7.535323971003E+003  0.000000000000E+000  0.000000000000E+000  0.000000000000E+000
  2.543105175136E+004  2.543171841278E+004  0.000000000000E+000  0.000000000000E+000  0.000000000000E+000
  1.017262069952E+005  2.034537473203E+005  0.000000000000E+000  0.000000000000E+000  0.000000000000E+000
