{
    "atomic_info": {
        "H": {
            "hubbard": {
                "1s": 0.41959999999999997
            },
            "occupation": {
                "1s": 1.0000000000000000
            },
            "onecenter_template_input": "",
            "orbital_energy": {
                "1s": -0.23860000000000001
            },
            "orbitals": [
                [
                    "1s"
                ]
            ]
        },
        "O": {
            "hubbard": {
                "2p": 0.49530000000000002,
                "2s": 0.52880000000000005
            },
            "occupation": {
                "2p": 4.0000000000000000,
                "2s": 2.0000000000000000
            },
            "onecenter_template_input": "",
            "orbital_energy": {
                "2p": -0.33184999999999998,
                "2s": -0.88055000000000005
            },
            "orbitals": [
                [
                    "2s",
                    "2p"
                ]
            ]
        }
    },
    "confining_info": {
    },
    "desired_pairs": [
        "H-H",
        "H-O",
        "O-H",
        "O-O"
    ],
    "external_repulsive_potentials": {
    },
    "options": {
        "output_prefix": "",
        "save_intermediate": false
    },
    "toolchain_info": {
        "name": "nctu",
        "onecenter": {
            "options": {
                "default": {
                    "functional": "pbe",
                    "ngrid": 3000
                },
                "specific": null
            },
            "path": "onecent"
        },
        "twocenter": {
            "options": {
                "default": {
                    "c2": -0.25000000000000000,
                    "end_distance": 15.000000000000000,
                    "functional_name": "pbe",
                    "functional_type": "gga",
                    "interval": 0.10000000000000001,
                    "ngrid1": 100,
                    "ngrid2": 100,
                    "rm": 0.40000000000000002
                },
                "specific": null
            },
            "path": "twocent",
            "superposition": "density"
        }
    }
}