 Fermi distribution function
 
 Calculation with static geometry
 

********************************************************************************
  iSCC Total electronic   Diff electronic      SCC error    
    2   -0.27460040E+00    0.00000000E+00    0.00000000E+00
********************************************************************************
 

 Net atomic charges (e)
  Atom       Net charge
     1       0.00000000
 
 COMPONENT = up
  
 Eigenvalues /H
   -0.31060040
 
 Eigenvalues /eV
   -8.45186691
 
 Fillings
     1.00000
 
 COMPONENT = down
  
 Eigenvalues /H
   -0.16660040
 
 Eigenvalues /eV
   -4.53342754
 
 Fillings
     0.00000
 
 Nr. of electrons (up):      1.00000000
 Atom populations (up)
  Atom       Population
     1       1.00000000
 
 l-shell populations (up)
  Atom Sh.   l       Population
     1   1   0       1.00000000
 
 Orbital populations (up)
  Atom Sh.   l   m       Population
     1   1   0   0       1.00000000
 
 Nr. of electrons (down):      0.00000000
 Atom populations (down)
  Atom       Population
     1       0.00000000
 
 l-shell populations (down)
  Atom Sh.   l       Population
     1   1   0       0.00000000
 
 Orbital populations (down)
  Atom Sh.   l   m       Population
     1   1   0   0       0.00000000
 
 Spin up
 Fermi energy:                      -0.3056004000 H           -8.3158 eV
 Band energy:                       -0.3106004000 H           -8.4519 eV
 TS:                                 0.0000000000 H            0.0000 eV
 Band free energy (E-TS):           -0.3106004000 H           -8.4519 eV
 Extrapolated E(0K):                -0.3106004000 H           -8.4519 eV
 Input/Output electrons (up):      1.00000000      1.00000000
 
 Spin down
 Fermi energy:                       0.0000000000 H            0.0000 eV
 Band energy:                        0.0000000000 H            0.0000 eV
 TS:                                 0.0000000000 H            0.0000 eV
 Band free energy (E-TS):            0.0000000000 H            0.0000 eV
 Extrapolated E(0K):                 0.0000000000 H            0.0000 eV
 Input/Output electrons (down):      0.00000000      0.00000000
 
 Energy H0:                         -0.2386004000 H           -6.4926 eV
 Energy SCC:                         0.0000000000 H            0.0000 eV
 Energy SPIN:                       -0.0360000000 H           -0.9796 eV
 Total Electronic energy:           -0.2746004000 H           -7.4723 eV
 Repulsive energy:                   0.0000000000 H            0.0000 eV
 Total energy:                      -0.2746004000 H           -7.4723 eV
 Total Mermin free energy:          -0.2746004000 H           -7.4723 eV
 
 SCC converged
 
 Dipole moment  :    0.00000000    0.00000000    0.00000000 au
 Dipole moment  :    0.00000000    0.00000000    0.00000000 Debye
 
 
