{
    "atomic_info": {
        "C": {
            "hubbard": {
                "2p": 0.38742500000000002,
                "2s": 0.36470000000000002
            },
            "occupation": {
                "2p": 2.0000000000000000,
                "2s": 2.0000000000000000
            },
            "orbital_energy": {
                "2p": -0.19435511000000000,
                "2s": -0.50489172000000004
            },
            "orbitals": [
                [
                    "2s",
                    "2p"
                ]
            ]
        },
        "H": {
            "hubbard": {
                "1s": 0.41949999999999998
            },
            "occupation": {
                "1s": 1.0000000000000000
            },
            "orbital_energy": {
                "1s": -0.23860039999999999
            },
            "orbitals": [
                [
                    "1s"
                ]
            ]
        }
    },
    "confining_info": {
        "C": {
            "confining_actions": [
                {
                    "confining": [
                        {
                            "orbital_types": [
                                "s",
                                "p"
                            ],
                            "parameters": {
                                "n": 2,
                                "r": 2.7000000000000002
                            }
                        }
                    ],
                    "take": [
                        "s"
                    ]
                },
                {
                    "confining": [
                        {
                            "orbital_types": [
                                "s",
                                "p"
                            ],
                            "parameters": {
                                "n": 2,
                                "r": 2.7999999999999998
                            }
                        }
                    ],
                    "take": [
                        "p"
                    ]
                },
                {
                    "confining": [
                        {
                            "orbital_types": [
                                "s"
                            ],
                            "parameters": {
                                "n": 2,
                                "r": 7.0000000000000000
                            }
                        },
                        {
                            "orbital_types": [
                                "p"
                            ],
                            "parameters": {
                                "n": 2,
                                "r": 6.0000000000000000
                            }
                        }
                    ],
                    "take": [
                        "density"
                    ]
                }
            ]
        },
        "H": {
            "confining_actions": [
                {
                    "confining": [
                        {
                            "orbital_types": [
                                "s"
                            ],
                            "parameters": {
                                "n": 2,
                                "r": 3.0000000000000000
                            }
                        }
                    ],
                    "take": [
                        "s"
                    ]
                },
                {
                    "confining": [
                        {
                            "orbital_types": [
                                "s"
                            ],
                            "parameters": {
                                "n": 2,
                                "r": 2.5000000000000000
                            }
                        }
                    ],
                    "take": [
                        "density"
                    ]
                }
            ]
        }
    },
    "desired_pairs": "all",
    "external_repulsive_potentials": {
    },
    "options": {
        "save_intermediate": true
    },
    "toolchain_info": {
        "name": "bccms",
        "onecenter": {
            "options": {
                "specific": {
                    "C": {
                        "exponent_definition": {
                            "auto": false,
                            "exponents": [
                                0.50000000000000000,
                                1.1399999999999999,
                                2.6200000000000001,
                                6.0000000000000000
                            ],
                            "power": 2
                        }
                    },
                    "H": {
                        "exponent_definition": {
                            "auto": false,
                            "exponents": [
                                0.50000000000000000,
                                1.0000000000000000,
                                2.0000000000000000
                            ],
                            "power": 2
                        }
                    }
                }
            },
            "path": "/home/chienpin/adpt/toolchain/bccms/slateratom"
        },
        "twocenter": {
            "options": {
                "default": {
                    "end_condition": 1.0000000000000001e-05,
                    "end_distance": 10.400000000000000,
                    "interval": 0.020000000000000000
                }
            },
            "path": "/home/chienpin/adpt/toolchain/bccms/sktwocnt",
            "superposition": "density"
        }
    }
}