# 1st line: number of mesh points
# abcissa weight wavefunction wavefunction_1st wavefunction_2nd
500
# Principal QN=   1 , l=   0 , Occupation=   1.0000
  9.830308526563E-006  1.966074589941E-005  2.475711550571E+000 -2.625956280604E+000  3.091157874667E+000
  3.932200719722E-005  3.932303800261E-005  2.475634108004E+000 -2.625865119643E+000  3.090985926631E+000
  8.847741541467E-005  5.898842277178E-005  2.475505036266E+000 -2.625713188011E+000  3.090699362585E+000
  1.573003992805E-004  7.865844718600E-005  2.475324334169E+000 -2.625500490664E+000  3.090298206554E+000
  2.457963722418E-004  9.833465899987E-005  2.475092000049E+000 -2.625227034537E+000  3.089782492171E+000
  3.539722959954E-004  1.180186070023E-004  2.474808031766E+000 -2.624892828552E+000  3.089152262685E+000
  4.818366816529E-004  1.377118412759E-004  2.474472426708E+000 -2.624497883608E+000  3.088407570961E+000
  6.293995911626E-004  1.574159134560E-004  2.474085181786E+000 -2.624042212590E+000  3.087548479485E+000
  7.966726389935E-004  1.771323769912E-004  2.473646293438E+000 -2.623525830365E+000  3.086575060368E+000
  9.836689940782E-004  1.968627874036E-004  2.473155757629E+000 -2.622948753783E+000  3.085487395349E+000
  1.190403382016E-003  2.166087025496E-004  2.472613569851E+000 -2.622311001675E+000  3.084285575802E+000
  1.416892087541E-003  2.363716828821E-004  2.472019725123E+000 -2.621612594858E+000  3.082969702744E+000
  1.663152957245E-003  2.561532917128E-004  2.471374217993E+000 -2.620853556132E+000  3.081539886838E+000
  1.929205402573E-003  2.759550954757E-004  2.470677042539E+000 -2.620033910279E+000  3.079996248402E+000
  2.215070403073E-003  2.957786639908E-004  2.469928192368E+000 -2.619153684068E+000  3.078338917418E+000
  2.520770509919E-003  3.156255707300E-004  2.469127660619E+000 -2.618212906249E+000  3.076568033541E+000
  2.846329849692E-003  3.354973930828E-004  2.468275439962E+000 -2.617211607561E+000  3.074683746103E+000
  3.191774128432E-003  3.553957126240E-004  2.467371522599E+000 -2.616149820725E+000  3.072686214130E+000
  3.557130635959E-003  3.753221153821E-004  2.466415900270E+000 -2.615027580448E+000  3.070575606347E+000
  3.942428250463E-003  3.952781921092E-004  2.465408564247E+000 -2.613844923423E+000  3.068352101192E+000
  4.347697443358E-003  4.152655385525E-004  2.464349505338E+000 -2.612601888329E+000  3.066015886825E+000
  4.772970284417E-003  4.352857557265E-004  2.463238713892E+000 -2.611298515832E+000  3.063567161142E+000
  5.218280447175E-003  4.553404501876E-004  2.462076179794E+000 -2.609934848584E+000  3.061006131784E+000
  5.683663214611E-003  4.754312343099E-004  2.460861892473E+000 -2.608510931223E+000  3.058333016156E+000
  6.169155485101E-003  4.955597265624E-004  2.459595840898E+000 -2.607026810375E+000  3.055548041434E+000
  6.674795778653E-003  5.157275517886E-004  2.458278013582E+000 -2.605482534654E+000  3.052651444583E+000
  7.200624243425E-003  5.359363414876E-004  2.456908398584E+000 -2.603878154661E+000  3.049643472369E+000
  7.746682662519E-003  5.561877340970E-004  2.455486983512E+000 -2.602213722984E+000  3.046524381375E+000
  8.313014461060E-003  5.764833752781E-004  2.454013755520E+000 -2.600489294200E+000  3.043294438018E+000
  8.899664713569E-003  5.968249182030E-004  2.452488701315E+000 -2.598704924871E+000  3.039953918559E+000
  9.506680151615E-003  6.172140238444E-004  2.450911807157E+000 -2.596860673551E+000  3.036503109125E+000
  1.013410917176E-002  6.376523612666E-004  2.449283058861E+000 -2.594956600777E+000  3.032942305722E+000
  1.078200184380E-002  6.581416079202E-004  2.447602441800E+000 -2.592992769079E+000  3.029271814254E+000
  1.145040991929E-002  6.786834499385E-004  2.445869940904E+000 -2.590969242968E+000  3.025491950537E+000
  1.213938684040E-002  6.992795824361E-004  2.444085540669E+000 -2.588886088947E+000  3.021603040317E+000
  1.284898774901E-002  7.199317098113E-004  2.442249225152E+000 -2.586743375504E+000  3.017605419291E+000
  1.357926949620E-002  7.406415460502E-004  2.440360977976E+000 -2.584541173111E+000  3.013499433119E+000
  1.433029065191E-002  7.614108150341E-004  2.438420782337E+000 -2.582279554229E+000  3.009285437448E+000
  1.510211151509E-002  7.822412508494E-004  2.436428621000E+000 -2.579958593301E+000  3.004963797926E+000
  1.589479412397E-002  8.031345981016E-004  2.434384476306E+000 -2.577578366756E+000  3.000534890220E+000
  1.670840226680E-002  8.240926122311E-004  2.432288330172E+000 -2.575138953002E+000  2.995999100038E+000
  1.754300149280E-002  8.451170598329E-004  2.430140164096E+000 -2.572640432434E+000  2.991356823145E+000
  1.839865912351E-002  8.662097189796E-004  2.427939959160E+000 -2.570082887423E+000  2.986608465382E+000
  1.927544426443E-002  8.873723795480E-004  2.425687696032E+000 -2.567466402322E+000  2.981754442685E+000
  2.017342781695E-002  9.086068435487E-004  2.423383354969E+000 -2.564791063459E+000  2.976795181103E+000
  2.109268249069E-002  9.299149254598E-004  2.421026915823E+000 -2.562056959139E+000  2.971731116818E+000
  2.203328281612E-002  9.512984525641E-004  2.418618358039E+000 -2.559264179640E+000  2.966562696161E+000
  2.299530515754E-002  9.727592652906E-004  2.416157660664E+000 -2.556412817213E+000  2.961290375633E+000
  2.397882772639E-002  9.942992175591E-004  2.413644802349E+000 -2.553502966074E+000  2.955914621922E+000
  2.498393059493E-002  1.015920177130E-003  2.411079761349E+000 -2.550534722410E+000  2.950435911922E+000
  2.601069571024E-002  1.037624025957E-003  2.408462515533E+000 -2.547508184369E+000  2.944854732749E+000
  2.705920690860E-002  1.059412660547E-003  2.405793042382E+000 -2.544423452059E+000  2.939171581762E+000
  2.812954993023E-002  1.081287992318E-003  2.403071318999E+000 -2.541280627546E+000  2.933386966576E+000
  2.922181243436E-002  1.103251947969E-003  2.400297322106E+000 -2.538079814850E+000  2.927501405082E+000
  3.033608401473E-002  1.125306469854E-003  2.397471028054E+000 -2.534821119938E+000  2.921515425462E+000
  3.147245621542E-002  1.147453516351E-003  2.394592412827E+000 -2.531504650724E+000  2.915429566207E+000
  3.263102254705E-002  1.169695062249E-003  2.391661452041E+000 -2.528130517064E+000  2.909244376131E+000
  3.381187850339E-002  1.192033099133E-003  2.388678120955E+000 -2.524698830747E+000  2.902960414386E+000
  3.501512157837E-002  1.214469635775E-003  2.385642394473E+000 -2.521209705493E+000  2.896578250477E+000
  3.624085128345E-002  1.237006698530E-003  2.382554247149E+000 -2.517663256950E+000  2.890098464278E+000
  3.748916916538E-002  1.259646331739E-003  2.379413653192E+000 -2.514059602682E+000  2.883521646039E+000
  3.876017882444E-002  1.282390598136E-003  2.376220586470E+000 -2.510398862166E+000  2.876848396406E+000
  4.005398593302E-002  1.305241579266E-003  2.372975020518E+000 -2.506681156788E+000  2.870079326427E+000
  4.137069825459E-002  1.328201375897E-003  2.369676928541E+000 -2.502906609831E+000  2.863215057567E+000
  4.271042566323E-002  1.351272108452E-003  2.366326283419E+000 -2.499075346470E+000  2.856256221712E+000
  4.407328016341E-002  1.374455917436E-003  2.362923057718E+000 -2.495187493763E+000  2.849203461186E+000
  4.545937591035E-002  1.397754963880E-003  2.359467223687E+000 -2.491243180645E+000  2.842057428751E+000
  4.686882923075E-002  1.421171429779E-003  2.355958753272E+000 -2.487242537916E+000  2.834818787619E+000
  4.830175864396E-002  1.444707518548E-003  2.352397618118E+000 -2.483185698234E+000  2.827488211454E+000
  4.975828488365E-002  1.468365455478E-003  2.348783789578E+000 -2.479072796103E+000  2.820066384379E+000
  5.123853091993E-002  1.492147488203E-003  2.345117238715E+000 -2.474903967864E+000  2.812554000977E+000
  5.274262198188E-002  1.516055887169E-003  2.341397936315E+000 -2.470679351686E+000  2.804951766296E+000
  5.427068558066E-002  1.540092946119E-003  2.337625852888E+000 -2.466399087549E+000  2.797260395843E+000
  5.582285153302E-002  1.564260982573E-003  2.333800958678E+000 -2.462063317238E+000  2.789480615589E+000
  5.739925198530E-002  1.588562338332E-003  2.329923223673E+000 -2.457672184327E+000  2.781613161964E+000
  5.900002143803E-002  1.612999379973E-003  2.325992617605E+000 -2.453225834165E+000  2.773658781851E+000
  6.062529677088E-002  1.637574499364E-003  2.322009109964E+000 -2.448724413866E+000  2.765618232580E+000
  6.227521726827E-002  1.662290114181E-003  2.317972670005E+000 -2.444168072290E+000  2.757492281922E+000
  6.394992464542E-002  1.687148668440E-003  2.313883266754E+000 -2.439556960030E+000  2.749281708075E+000
  6.564956307496E-002  1.712152633027E-003  2.309740869018E+000 -2.434891229398E+000  2.740987299659E+000
  6.737427921404E-002  1.737304506249E-003  2.305545445393E+000 -2.430171034405E+000  2.732609855693E+000
  6.912422223211E-002  1.762606814387E-003  2.301296964272E+000 -2.425396530743E+000  2.724150185585E+000
  7.089954383907E-002  1.788062112257E-003  2.296995393857E+000 -2.420567875772E+000  2.715609109112E+000
  7.270039831418E-002  1.813672983787E-003  2.292640702164E+000 -2.415685228498E+000  2.706987456398E+000
  7.452694253540E-002  1.839442042599E-003  2.288232857037E+000 -2.410748749551E+000  2.698286067891E+000
  7.637933600943E-002  1.865371932600E-003  2.283771826156E+000 -2.405758601170E+000  2.689505794340E+000
  7.825774090225E-002  1.891465328589E-003  2.279257577045E+000 -2.400714947178E+000  2.680647496760E+000
  8.016232207035E-002  1.917724936867E-003  2.274690077088E+000 -2.395617952960E+000  2.671712046410E+000
  8.209324709253E-002  1.944153495867E-003  2.270069293532E+000 -2.390467785443E+000  2.662700324752E+000
  8.405068630235E-002  1.970753776782E-003  2.265395193508E+000 -2.385264613068E+000  2.653613223414E+000
  8.603481282122E-002  1.997528584221E-003  2.260667744032E+000 -2.380008605769E+000  2.644451644156E+000
  8.804580259214E-002  2.024480756857E-003  2.255886912024E+000 -2.374699934946E+000  2.635216498821E+000
  9.008383441408E-002  2.051613168108E-003  2.251052664320E+000 -2.369338773435E+000  2.625908709292E+000
  9.214908997710E-002  2.078928726810E-003  2.246164967679E+000 -2.363925295489E+000  2.616529207441E+000
  9.424175389809E-002  2.106430377918E-003  2.241223788802E+000 -2.358459676740E+000  2.607078935075E+000
  9.636201375725E-002  2.134121103210E-003  2.236229094341E+000 -2.352942094174E+000  2.597558843883E+000
  9.851006013526E-002  2.162003922007E-003  2.231180850915E+000 -2.347372726102E+000  2.587969895371E+000
  1.006860866512E-001  2.190081891910E-003  2.226079025125E+000 -2.341751752126E+000  2.578313060801E+000
  1.028902900012E-001  2.218358109541E-003  2.220923583565E+000 -2.336079353103E+000  2.568589321120E+000
  1.051228699979E-001  2.246835711311E-003  2.215714492842E+000 -2.330355711120E+000  2.558799666891E+000
  1.073840296104E-001  2.275517874190E-003  2.210451719585E+000 -2.324581009450E+000  2.548945098216E+000
  1.096739750056E-001  2.304407816497E-003  2.205135230467E+000 -2.318755432522E+000  2.539026624653E+000
  1.119929155896E-001  2.333508798707E-003  2.199764992220E+000 -2.312879165880E+000  2.529045265132E+000
  1.143410640503E-001  2.362824124271E-003  2.194340971649E+000 -2.306952396148E+000  2.519002047867E+000
  1.167186364011E-001  2.392357140448E-003  2.188863135653E+000 -2.300975310988E+000  2.508898010259E+000
  1.191258520249E-001  2.422111239159E-003  2.183331451242E+000 -2.294948099058E+000  2.498734198799E+000
  1.215629337189E-001  2.452089857854E-003  2.177745885555E+000 -2.288870949975E+000  2.488511668963E+000
  1.240301077413E-001  2.482296480400E-003  2.172106405880E+000 -2.282744054266E+000  2.478231485100E+000
  1.265276038575E-001  2.512734637975E-003  2.166412979674E+000 -2.276567603327E+000  2.467894720324E+000
  1.290556553882E-001  2.543407909995E-003  2.160665574584E+000 -2.270341789378E+000  2.457502456386E+000
  1.316144992580E-001  2.574319925047E-003  2.154864158466E+000 -2.264066805410E+000  2.447055783556E+000
  1.342043760450E-001  2.605474361847E-003  2.149008699411E+000 -2.257742845145E+000  2.436555800487E+000
  1.368255300316E-001  2.636874950214E-003  2.143099165762E+000 -2.251370102978E+000  2.426003614077E+000
  1.394782092560E-001  2.668525472060E-003  2.137135526144E+000 -2.244948773933E+000  2.415400339333E+000
  1.421626655646E-001  2.700429762411E-003  2.131117749484E+000 -2.238479053605E+000  2.404747099215E+000
  1.448791546661E-001  2.732591710434E-003  2.125045805035E+000 -2.231961138110E+000  2.394045024482E+000
  1.476279361856E-001  2.765015260497E-003  2.118919662407E+000 -2.225395224027E+000  2.383295253534E+000
  1.504092737207E-001  2.797704413242E-003  2.112739291587E+000 -2.218781508342E+000  2.372498932239E+000
  1.532234348983E-001  2.830663226680E-003  2.106504662974E+000 -2.212120188392E+000  2.361657213759E+000
  1.560706914324E-001  2.863895817319E-003  2.100215747400E+000 -2.205411461802E+000  2.350771258373E+000
  1.589513191834E-001  2.897406361298E-003  2.093872516166E+000 -2.198655526426E+000  2.339842233278E+000
  1.618655982178E-001  2.931199095559E-003  2.087474941068E+000 -2.191852580288E+000  2.328871312404E+000
  1.648138128702E-001  2.965278319033E-003  2.081022994431E+000 -2.185002821509E+000  2.317859676202E+000
  1.677962518056E-001  2.999648393860E-003  2.074516649139E+000 -2.178106448252E+000  2.306808511435E+000
  1.708132080832E-001  3.034313746623E-003  2.067955878675E+000 -2.171163658649E+000  2.295719010964E+000
  1.738649792215E-001  3.069278869616E-003  2.061340657147E+000 -2.164174650734E+000  2.284592373512E+000
  1.769518672648E-001  3.104548322136E-003  2.054670959330E+000 -2.157139622375E+000  2.273429803439E+000
  1.800741788507E-001  3.140126731803E-003  2.047946760703E+000 -2.150058771200E+000  2.262232510492E+000
  1.832322252791E-001  3.176018795904E-003  2.041168037486E+000 -2.142932294529E+000  2.251001709558E+000
  1.864263225826E-001  3.212229282769E-003  2.034334766680E+000 -2.135760389295E+000  2.239738620402E+000
  1.896567915983E-001  3.248763033179E-003  2.027446926108E+000 -2.128543251971E+000  2.228444467400E+000
  1.929239580409E-001  3.285624961791E-003  2.020504494462E+000 -2.121281078495E+000  2.217120479259E+000
  1.962281525771E-001  3.322820058613E-003  2.013507451339E+000 -2.113974064188E+000  2.205767888736E+000
  1.995697109023E-001  3.360353390492E-003  2.006455777296E+000 -2.106622403676E+000  2.194387932338E+000
  2.029489738173E-001  3.398230102644E-003  1.999349453891E+000 -2.099226290810E+000  2.182981850018E+000
  2.063662873085E-001  3.436455420218E-003  1.992188463733E+000 -2.091785918583E+000  2.171550884864E+000
  2.098220026275E-001  3.475034649885E-003  1.984972790535E+000 -2.084301479045E+000  2.160096282771E+000
  2.133164763746E-001  3.513973181471E-003  1.977702419166E+000 -2.076773163218E+000  2.148619292111E+000
  2.168500705817E-001  3.553276489620E-003  1.970377335702E+000 -2.069201161014E+000  2.137121163388E+000
  2.204231527988E-001  3.592950135496E-003  1.962997527488E+000 -2.061585661142E+000  2.125603148884E+000
  2.240360961807E-001  3.632999768520E-003  1.955562983190E+000 -2.053926851020E+000  2.114066502298E+000
  2.276892795770E-001  3.673431128145E-003  1.948073692860E+000 -2.046224916689E+000  2.102512478366E+000
  2.313830876220E-001  3.714250045674E-003  1.940529647995E+000 -2.038480042718E+000  2.090942332486E+000
  2.351179108282E-001  3.755462446115E-003  1.932930841604E+000 -2.030692412114E+000  2.079357320312E+000
  2.388941456809E-001  3.797074350078E-003  1.925277268274E+000 -2.022862206226E+000  2.067758697356E+000
  2.427121947345E-001  3.839091875711E-003  1.917568924236E+000 -2.014989604655E+000  2.056147718570E+000
  2.465724667110E-001  3.881521240686E-003  1.909805807443E+000 -2.007074785157E+000  2.044525637913E+000
  2.504753766009E-001  3.924368764227E-003  1.901987917636E+000 -1.999117923546E+000  2.032893707918E+000
  2.544213457654E-001  3.967640869177E-003  1.894115256429E+000 -1.991119193597E+000  2.021253179240E+000
  2.584108020414E-001  4.011344084122E-003  1.886187827380E+000 -1.983078766952E+000  2.009605300193E+000
  2.624441798480E-001  4.055485045557E-003  1.878205636078E+000 -1.974996813019E+000  1.997951316278E+000
  2.665219202956E-001  4.100070500102E-003  1.870168690228E+000 -1.966873498876E+000  1.986292469699E+000
  2.706444712976E-001  4.145107306769E-003  1.862076999736E+000 -1.958708989167E+000  1.974629998867E+000
  2.748122876832E-001  4.190602439283E-003  1.853930576801E+000 -1.950503446010E+000  1.962965137891E+000
  2.790258313137E-001  4.236562988450E-003  1.845729436008E+000 -1.942257028891E+000  1.951299116059E+000
  2.832855712010E-001  4.282996164587E-003  1.837473594429E+000 -1.933969894569E+000  1.939633157307E+000
  2.875919836279E-001  4.329909300005E-003  1.829163071719E+000 -1.925642196973E+000  1.927968479676E+000
  2.919455522717E-001  4.377309851548E-003  1.820797890222E+000 -1.917274087104E+000  1.916306294757E+000
  2.963467683296E-001  4.425205403192E-003  1.812378075077E+000 -1.908865712938E+000  1.904647807124E+000
  3.007961306479E-001  4.473603668706E-003  1.803903654333E+000 -1.900417219322E+000  1.892994213753E+000
  3.052941458522E-001  4.522512494374E-003  1.795374659061E+000 -1.891928747880E+000  1.881346703437E+000
  3.098413284823E-001  4.571939861783E-003  1.786791123472E+000 -1.883400436914E+000  1.869706456175E+000
  3.144382011281E-001  4.621893890671E-003  1.778153085043E+000 -1.874832421308E+000  1.858074642565E+000
  3.190852945695E-001  4.672382841850E-003  1.769460584645E+000 -1.866224832431E+000  1.846452423175E+000
  3.237831479192E-001  4.723415120192E-003  1.760713666670E+000 -1.857577798043E+000  1.834840947905E+000
  3.285323087679E-001  4.774999277691E-003  1.751912379170E+000 -1.848891442205E+000  1.823241355336E+000
  3.333333333333E-001  4.827144016591E-003  1.743056774000E+000 -1.840165885182E+000  1.811654772071E+000
  3.381867866117E-001  4.879858192602E-003  1.734146906958E+000 -1.831401243357E+000  1.800082312062E+000
  3.430932425333E-001  4.933150818173E-003  1.725182837940E+000 -1.822597629147E+000  1.788525075926E+000
  3.480532841203E-001  4.987031065868E-003  1.716164631094E+000 -1.813755150910E+000  1.776984150248E+000
  3.530675036492E-001  5.041508271801E-003  1.707092354978E+000 -1.804873912869E+000  1.765460606878E+000
  3.581365028158E-001  5.096591939172E-003  1.697966082731E+000 -1.795954015028E+000  1.753955502213E+000
  3.632608929041E-001  5.152291741875E-003  1.688785892237E+000 -1.786995553101E+000  1.742469876469E+000
  3.684412949588E-001  5.208617528209E-003  1.679551866312E+000 -1.777998618432E+000  1.731004752945E+000
  3.736783399619E-001  5.265579324662E-003  1.670264092877E+000 -1.768963297929E+000  1.719561137276E+000
  3.789726690123E-001  5.323187339805E-003  1.660922665153E+000 -1.759889674000E+000  1.708140016671E+000
  3.843249335105E-001  5.381451968273E-003  1.651527681853E+000 -1.750777824488E+000  1.696742359155E+000
  3.897357953460E-001  5.440383794842E-003  1.642079247386E+000 -1.741627822616E+000  1.685369112786E+000
  3.952059270903E-001  5.499993598618E-003  1.632577472062E+000 -1.732439736936E+000  1.674021204874E+000
  4.007360121927E-001  5.560292357317E-003  1.623022472310E+000 -1.723213631282E+000  1.662699541190E+000
  4.063267451812E-001  5.621291251662E-003  1.613414370895E+000 -1.713949564728E+000  1.651405005166E+000
  4.119788318683E-001  5.683001669888E-003  1.603753297151E+000 -1.704647591557E+000  1.640138457085E+000
  4.176929895600E-001  5.745435212354E-003  1.594039387213E+000 -1.695307761228E+000  1.628900733273E+000
  4.234699472710E-001  5.808603696282E-003  1.584272784263E+000 -1.685930118360E+000  1.617692645273E+000
  4.293104459435E-001  5.872519160606E-003  1.574453638780E+000 -1.676514702714E+000  1.606514979028E+000
  4.352152386716E-001  5.937193870949E-003  1.564582108797E+000 -1.667061549190E+000  1.595368494042E+000
  4.411850909306E-001  6.002640324729E-003  1.554658360172E+000 -1.657570687829E+000  1.584253922555E+000
  4.472207808110E-001  6.068871256391E-003  1.544682566856E+000 -1.648042143821E+000  1.573171968700E+000
  4.533230992589E-001  6.135899642772E-003  1.534654911183E+000 -1.638475937530E+000  1.562123307669E+000
  4.594928503202E-001  6.203738708611E-003  1.524575584160E+000 -1.628872084523E+000  1.551108584866E+000
  4.657308513924E-001  6.272401932198E-003  1.514444785765E+000 -1.619230595607E+000  1.540128415068E+000
  4.720379334802E-001  6.341903051163E-003  1.504262725259E+000 -1.609551476886E+000  1.529183381584E+000
  4.784149414579E-001  6.412256068427E-003  1.494029621507E+000 -1.599834729820E+000  1.518274035414E+000
  4.848627343381E-001  6.483475258298E-003  1.483745703303E+000 -1.590080351303E+000  1.507400894409E+000
  4.913821855461E-001  6.555575172733E-003  1.473411209708E+000 -1.580288333748E+000  1.496564442439E+000
  4.979741832006E-001  6.628570647764E-003  1.463026390401E+000 -1.570458665189E+000  1.485765128558E+000
  5.046396304008E-001  6.702476810086E-003  1.452591506034E+000 -1.560591329399E+000  1.475003366183E+000
  5.113794455212E-001  6.777309083830E-003  1.442106828603E+000 -1.550686306013E+000  1.464279532277E+000
  5.181945625116E-001  6.853083197508E-003  1.431572641822E+000 -1.540743570682E+000  1.453593966535E+000
  5.250859312060E-001  6.929815191146E-003  1.420989241518E+000 -1.530763095223E+000  1.442946970587E+000
  5.320545176366E-001  7.007521423604E-003  1.410356936024E+000 -1.520744847808E+000  1.432338807209E+000
  5.391013043575E-001  7.086218580100E-003  1.399676046596E+000 -1.510688793151E+000  1.421769699548E+000
  5.462272907741E-001  7.165923679926E-003  1.388946907834E+000 -1.500594892725E+000  1.411239830358E+000
  5.534334934816E-001  7.246654084380E-003  1.378169868110E+000 -1.490463104992E+000  1.400749341257E+000
  5.607209466109E-001  7.328427504912E-003  1.367345290019E+000 -1.480293385657E+000  1.390298331997E+000
  5.680907021827E-001  7.411262011483E-003  1.356473550834E+000 -1.470085687940E+000  1.379886859758E+000
  5.755438304707E-001  7.495176041166E-003  1.345555042971E+000 -1.459839962871E+000  1.369514938459E+000
  5.830814203728E-001  7.580188406970E-003  1.334590174474E+000 -1.449556159603E+000  1.359182538098E+000
  5.907045797917E-001  7.666318306912E-003  1.323579369502E+000 -1.439234225754E+000  1.348889584108E+000
  5.984144360243E-001  7.753585333338E-003  1.312523068837E+000 -1.428874107768E+000  1.338635956754E+000
  6.062121361613E-001  7.842009482502E-003  1.301421730401E+000 -1.418475751308E+000  1.328421490547E+000
  6.140988474955E-001  7.931611164409E-003  1.290275829780E+000 -1.408039101661E+000  1.318245973699E+000
  6.220757579409E-001  8.022411212936E-003  1.279085860772E+000 -1.397564104186E+000  1.308109147606E+000
  6.301440764614E-001  8.114430896230E-003  1.267852335936E+000 -1.387050704777E+000  1.298010706372E+000
  6.383050335109E-001  8.207691927403E-003  1.256575787160E+000 -1.376498850360E+000  1.287950296374E+000
  6.465598814833E-001  8.302216475524E-003  1.245256766240E+000 -1.365908489418E+000  1.277927515860E+000
  6.549098951744E-001  8.398027176926E-003  1.233895845472E+000 -1.355279572548E+000  1.267941914603E+000
  6.633563722545E-001  8.495147146827E-003  1.222493618253E+000 -1.344612053045E+000  1.257992993592E+000
  6.719006337539E-001  8.593599991288E-003  1.211050699701E+000 -1.333905887522E+000  1.248080204784E+000
  6.805440245593E-001  8.693409819506E-003  1.199567727283E+000 -1.323161036561E+000  1.238202950897E+000
  6.892879139233E-001  8.794601256469E-003  1.188045361453E+000 -1.312377465397E+000  1.228360585270E+000
  6.981336959871E-001  8.897199455961E-003  1.176484286310E+000 -1.301555144641E+000  1.218552411773E+000
  7.070827903152E-001  9.001230113956E-003  1.164885210257E+000 -1.290694051033E+000  1.208777684786E+000
  7.161366424455E-001  9.106719482390E-003  1.153248866685E+000 -1.279794168236E+000  1.199035609240E+000
  7.252967244510E-001  9.213694383338E-003  1.141576014656E+000 -1.268855487663E+000  1.189325340728E+000
  7.345645355186E-001  9.322182223606E-003  1.129867439603E+000 -1.257878009350E+000  1.179645985686E+000
  7.439416025400E-001  9.432211009745E-003  1.118123954044E+000 -1.246861742856E+000  1.169996601650E+000
  7.534294807203E-001  9.543809363512E-003  1.106346398299E+000 -1.235806708216E+000  1.160376197595E+000
  7.630297542000E-001  9.657006537783E-003  1.094535641225E+000 -1.224712936926E+000  1.150783734350E+000
  7.727440366954E-001  9.771832432940E-003  1.082692580953E+000 -1.213580472973E+000  1.141218125108E+000
  7.825739721536E-001  9.888317613741E-003  1.070818145639E+000 -1.202409373903E+000  1.131678236011E+000
  7.925212354258E-001  1.000649332670E-002  1.058913294225E+000 -1.191199711939E+000  1.122162886846E+000
  8.025875329584E-001  1.012639151798E-002  1.046979017202E+000 -1.179951575134E+000  1.112670851823E+000
  8.127746035011E-001  1.024804485184E-002  1.035016337384E+000 -1.168665068577E+000  1.103200860459E+000
  8.230842188350E-001  1.037148672960E-002  1.023026310691E+000 -1.157340315633E+000  1.093751598568E+000
  8.335181845190E-001  1.049675130923E-002  1.011010026930E+000 -1.145977459235E+000  1.084321709354E+000
  8.440783406568E-001  1.062387352550E-002  9.989686105882E-001 -1.134576663221E+000  1.074909794621E+000
  8.547665626839E-001  1.075288911077E-002  9.869032216252E-001 -1.123138113712E+000  1.065514416089E+000
  8.655847621758E-001  1.088383461638E-002  9.748150562703E-001 -1.111662020538E+000  1.056134096842E+000
  8.765348876780E-001  1.101674743475E-002  9.627053478199E-001 -1.100148618711E+000  1.046767322886E+000
  8.876189255584E-001  1.115166582209E-002  9.505753674353E-001 -1.088598169940E+000  1.037412544838E+000
  8.988389008829E-001  1.128862892191E-002  9.384264249393E-001 -1.077010964197E+000  1.028068179748E+000
  9.101968783143E-001  1.142767678917E-002  9.262598696106E-001 -1.065387321320E+000  1.018732613044E+000
  9.216949630368E-001  1.156885041525E-002  9.140770909736E-001 -1.053727592665E+000  1.009404200627E+000
  9.333353017046E-001  1.171219175365E-002  9.018795195822E-001 -1.042032162808E+000  1.000081271091E+000
  9.451200834176E-001  1.185774374655E-002  8.896686277965E-001 -1.030301451279E+000  9.907621280948E-001
  9.570515407237E-001  1.200555035216E-002  8.774459305495E-001 -1.018535914344E+000  9.814450528788E-001
  9.691319506484E-001  1.215565657299E-002  8.652129861028E-001 -1.006736046833E+000  9.721283069253E-001
  9.813636357544E-001  1.230810848498E-002  8.529713967885E-001 -9.949023840011E-001  9.628101347739E-001
  9.937489652293E-001  1.246295326757E-002  8.407228097346E-001 -9.830355034299E-001  9.534887669887E-001
  1.006290356005E+000  1.262023923477E-002  8.284689175734E-001 -9.711360269709E-001  9.441624232812E-001
  1.018990273907E+000  1.278001586715E-002  8.162114591282E-001 -9.592046227187E-001  9.348293157910E-001
  1.031851234841E+000  1.294233384499E-002  8.039522200767E-001 -9.472420070207E-001  9.254876525248E-001
  1.044875806003E+000  1.310724508236E-002  7.916930335881E-001 -9.352489465165E-001  9.161356409566E-001
  1.058066607138E+000  1.327480276248E-002  7.794357809317E-001 -9.232262602068E-001  9.067714917893E-001
  1.071426311823E+000  1.344506137405E-002  7.671823920521E-001 -9.111748215467E-001  8.973934228775E-001
  1.084957648792E+000  1.361807674895E-002  7.549348461095E-001 -8.990955605626E-001  8.879996633142E-001
  1.098663403298E+000  1.379390610110E-002  7.426951719812E-001 -8.869894659873E-001  8.785884576778E-001
  1.112546418516E+000  1.397260806657E-002  7.304654487194E-001 -8.748575874115E-001  8.691580704422E-001
  1.126609596985E+000  1.415424274514E-002  7.182478059645E-001 -8.627010374451E-001  8.597067905463E-001
  1.140855902095E+000  1.433887174317E-002  7.060444243060E-001 -8.505209938869E-001  8.502329361230E-001
  1.155288359613E+000  1.452655821788E-002  6.938575355909E-001 -8.383187018959E-001  8.407348593833E-001
  1.169910059257E+000  1.471736692327E-002  6.816894231724E-001 -8.260954761591E-001  8.312109516562E-001
  1.184724156317E+000  1.491136425740E-002  6.695424220964E-001 -8.138527030519E-001  8.216596485766E-001
  1.199733873325E+000  1.510861831145E-002  6.574189192194E-001 -8.015918427834E-001  8.120794354209E-001
  1.214942501771E+000  1.530919892035E-002  6.453213532550E-001 -7.893144315219E-001  8.024688525830E-001
  1.230353403874E+000  1.551317771520E-002  6.332522147426E-001 -7.770220834924E-001  7.928265011858E-001
  1.245970014403E+000  1.572062817747E-002  6.212140459342E-001 -7.647164930404E-001  7.831510488226E-001
  1.261795842559E+000  1.593162569510E-002  6.092094405928E-001 -7.523994366537E-001  7.734412354192E-001
  1.277834473907E+000  1.614624762054E-002  5.972410436986E-001 -7.400727749338E-001  7.636958792110E-001
  1.294089572372E+000  1.636457333079E-002  5.853115510564E-001 -7.277384545100E-001  7.539138828242E-001
  1.310564882294E+000  1.658668428962E-002  5.734237087980E-001 -7.153985098858E-001  7.440942394512E-001
  1.327264230548E+000  1.681266411190E-002  5.615803127761E-001 -7.030550652081E-001  7.342360391108E-001
  1.344191528724E+000  1.704259863026E-002  5.497842078401E-001 -6.907103359518E-001  7.243384749787E-001
  1.361350775387E+000  1.727657596408E-002  5.380382869914E-001 -6.783666305055E-001  7.144008497773E-001
  1.378746058390E+000  1.751468659100E-002  5.263454904099E-001 -6.660263516519E-001  7.044225822094E-001
  1.396381557275E+000  1.775702342093E-002  5.147088043452E-001 -6.536919979278E-001  6.944032134206E-001
  1.414261545744E+000  1.800368187279E-002  5.031312598677E-001 -6.413661648551E-001  6.843424134735E-001
  1.432390394201E+000  1.825475995395E-002  4.916159314724E-001 -6.290515460283E-001  6.742399878172E-001
  1.450772572390E+000  1.851035834267E-002  4.801659355280E-001 -6.167509340470E-001  6.640958837307E-001
  1.469412652102E+000  1.877058047342E-002  4.687844285670E-001 -6.044672212809E-001  6.539101967225E-001
  1.488315309978E+000  1.903553262542E-002  4.574746054084E-001 -5.922034004521E-001  6.436831768628E-001
  1.507485330398E+000  1.930532401444E-002  4.462396971076E-001 -5.799625650227E-001  6.334152350264E-001
  1.526927608467E+000  1.958006688797E-002  4.350829687272E-001 -5.677479093721E-001  6.231069490218E-001
  1.546647153093E+000  1.985987662391E-002  4.240077169217E-001 -5.555627287503E-001  6.127590695811E-001
  1.566649090169E+000  2.014487183303E-002  4.130172673316E-001 -5.434104189915E-001  6.023725261834E-001
  1.586938665861E+000  2.043517446518E-002  4.021149717789E-001 -5.312944759738E-001  5.919484326849E-001
  1.607521250000E+000  2.073090991960E-002  3.913042052607E-001 -5.192184948085E-001  5.814880927242E-001
  1.628402339588E+000  2.103220715932E-002  3.805883627329E-001 -5.071861687445E-001  5.709930048739E-001
  1.649587562420E+000  2.133919883002E-002  3.699708556816E-001 -4.952012877711E-001  5.604648675062E-001
  1.671082680832E+000  2.165202138333E-002  3.594551084754E-001 -4.832677369044E-001  5.499055833388E-001
  1.692893595565E+000  2.197081520497E-002  3.490445544953E-001 -4.713894941404E-001  5.393172636276E-001
  1.715026349769E+000  2.229572474776E-002  3.387426320381E-001 -4.595706280602E-001  5.287022319711E-001
  1.737487133138E+000  2.262689866987E-002  3.285527799901E-001 -4.478152950713E-001  5.180630276891E-001
  1.760282286187E+000  2.296448997842E-002  3.184784332687E-001 -4.361277362694E-001  5.074024087404E-001
  1.783418304674E+000  2.330865617868E-002  3.085230180286E-001 -4.245122739067E-001  4.967233541406E-001
  1.806901844175E+000  2.365955942924E-002  2.986899466339E-001 -4.129733074508E-001  4.860290658411E-001
  1.830739724818E+000  2.401736670327E-002  2.889826123924E-001 -4.015153092219E-001  4.753229700322E-001
  1.854938936184E+000  2.438224995616E-002  2.794043840554E-001 -3.901428195941E-001  4.646087178283E-001
  1.879506642368E+000  2.475438629994E-002  2.699586000829E-001 -3.788604417485E-001  4.538901852985E-001
  1.904450187236E+000  2.513395818467E-002  2.606485626769E-001 -3.676728359672E-001  4.431714728013E-001
  1.929777099847E+000  2.552115358717E-002  2.514775315864E-001 -3.565847134569E-001  4.324569035845E-001
  1.955495100083E+000  2.591616620741E-002  2.424487176903E-001 -3.456008296942E-001  4.217510216122E-001
  1.981612104475E+000  2.631919567292E-002  2.335652763613E-001 -3.347259772847E-001  4.110585885807E-001
  2.008136232230E+000  2.673044775156E-002  2.248303006222E-001 -3.239649783286E-001  4.003845800853E-001
  2.035075811486E+000  2.715013457311E-002  2.162468141009E-001 -3.133226762903E-001  3.897341809041E-001
  2.062439385788E+000  2.757847486001E-002  2.078177637958E-001 -3.028039273693E-001  3.791127793624E-001
  2.090235720801E+000  2.801569416771E-002  1.995460126639E-001 -2.924135913709E-001  3.685259607477E-001
  2.118473811262E+000  2.846202513514E-002  1.914343320466E-001 -2.821565220808E-001  3.579794997437E-001
  2.147162888201E+000  2.891770774564E-002  1.834853939472E-001 -2.720375571473E-001  3.474793518568E-001
  2.176312426413E+000  2.938298959899E-002  1.757017631803E-001 -2.620615074789E-001  3.370316438112E-001
  2.205932152222E+000  2.985812619504E-002  1.680858894116E-001 -2.522331461672E-001  3.266426628901E-001
  2.236032051522E+000  3.034338122938E-002  1.606400991104E-001 -2.425571969505E-001  3.163188452089E-001
  2.266622378129E+000  3.083902690182E-002  1.533665874404E-001 -2.330383222323E-001  3.060667629047E-001
  2.297713662445E+000  3.134534423818E-002  1.462674101128E-001 -2.236811106788E-001  2.958931102375E-001
  2.329316720450E+000  3.186262342603E-002  1.393444752323E-001 -2.144900644162E-001  2.858046885970E-001
  2.361442663038E+000  3.239116416519E-002  1.325995351671E-001 -2.054695858590E-001  2.758083904217E-001
  2.394102905709E+000  3.293127603351E-002  1.260341784747E-001 -1.966239642007E-001  2.659111820366E-001
  2.427309178642E+000  3.348327886897E-002  1.196498219202E-001 -1.879573616031E-001  2.561200854277E-001
  2.461073537146E+000  3.404750316862E-002  1.134477026255E-001 -1.794737991265E-001  2.464421589748E-001
  2.495408372530E+000  3.462429050548E-002  1.074288703886E-001 -1.711771424469E-001  2.368844771744E-001
  2.530326423398E+000  3.521399396401E-002  1.015941802160E-001 -1.630710874089E-001  2.274541093900E-001
  2.565840787378E+000  3.581697859546E-002  9.594428511315E-002 -1.551591454727E-001  2.181580976791E-001
  2.601964933334E+000  3.643362189376E-002  9.047962917870E-002 -1.474446291124E-001  2.090034337499E-001
  2.638712714049E+000  3.706431429322E-002  8.520044105267E-002 -1.399306372327E-001  1.999970351163E-001
  2.676098379430E+000  3.770945968912E-002  8.010672776741E-002 -1.326200406734E-001  1.911457205224E-001
  2.714136590232E+000  3.836947598236E-002  7.519826905442E-002 -1.255154678758E-001  1.824561847234E-001
  2.752842432351E+000  3.904479564947E-002  7.047461215981E-002 -1.186192907913E-001  1.739349727169E-001
  2.792231431696E+000  3.973586633921E-002  6.593506722321E-002 -1.119336111155E-001  1.655884535284E-001
  2.832319569669E+000  4.044315149734E-002  6.157870327512E-002 -1.054602469356E-001  1.574227936664E-001
  2.873123299289E+000  4.116713102086E-002  5.740434490855E-002 -9.920071988390E-002  1.494439303723E-001
  2.914659561979E+000  4.190830194354E-002  5.341056968072E-002 -9.315624289268E-002  1.416575447999E-001
  2.956945805065E+000  4.266717915414E-002  4.959570630018E-002 -8.732770864890E-002  1.340690352696E-001
  3.000000000000E+000  4.344429614932E-002  4.595783365408E-002 -8.171567885105E-002  1.266834907514E-001
  3.043840661365E+000  4.424020582308E-002  4.249478072889E-002 -7.632037437119E-002  1.195056647410E-001
  3.088486866678E+000  4.505548129460E-002  3.920412747588E-002 -7.114166642738E-002  1.125399497000E-001
  3.133958277047E+000  4.589071677685E-002  3.608320667053E-002 -6.617906887226E-002  1.057903522411E-001
  3.180275158719E+000  4.674652848797E-002  3.312910681160E-002 -6.143173170331E-002  9.926046924313E-002
  3.227458405560E+000  4.762355560797E-002  3.033867610197E-002 -5.689843589929E-002  9.295346508965E-002
  3.275529562509E+000  4.852246128332E-002  2.770852754892E-002 -5.257758968526E-002  8.687205022723E-002
  3.324510850077E+000  4.944393368200E-002  2.523504521623E-002 -4.846722632542E-002  8.101846124307E-002
  3.374425189910E+000  5.038868710203E-002  2.291439165448E-002 -4.456500353859E-002  7.539444266376E-002
  3.425296231502E+000  5.135746313639E-002  2.074251652926E-002 -4.086820462575E-002  7.000123067624E-002
  3.477148380094E+000  5.235103189784E-002  1.871516645933E-002 -3.737374139172E-002  6.483953897016E-002
  3.530006825834E+000  5.337019330676E-002  1.682789606854E-002 -3.407815893542E-002  5.990954689658E-002
  3.583897574256E+000  5.441577844603E-002  1.507608024608E-002 -3.097764237272E-002  5.521089013159E-002
  3.638847478148E+000  5.548865098670E-002  1.345492759974E-002 -2.806802554515E-002  5.074265402471E-002
  3.694884270887E+000  5.658970868864E-002  1.195949507634E-002 -2.534480175501E-002  4.650336980043E-002
  3.752036601308E+000  5.771988498079E-002  1.058470371194E-002 -2.280313655304E-002  4.249101376752E-002
  3.810334070199E+000  5.888015062562E-002  9.325355462642E-003 -2.043788258947E-002  3.870300967414E-002
  3.869807268505E+000  6.007151547295E-002  8.176151054346E-003 -1.824359652187E-002  3.513623432711E-002
  3.930487817331E+000  6.129503030858E-002  7.131708776565E-003 -1.621455795516E-002  3.178702657188E-002
  3.992408409843E+000  6.255178880352E-002  6.186584132505E-003 -1.434479036898E-002  2.865119970446E-002
  4.055602855172E+000  6.384292957002E-002  5.335290243804E-003 -1.262808396728E-002  2.572405735911E-002
  4.120106124432E+000  6.516963833101E-002  4.572318894945E-003 -1.105802036258E-002  2.300041288511E-002
  4.185954398964E+000  6.653315021009E-002  3.892162088892E-003 -9.627998985147E-003  2.047461219328E-002
  4.253185120935E+000  6.793475214960E-002  3.289333972426E-003 -8.331265083917E-003  1.814056001783E-002
  4.321837046422E+000  6.937578546490E-002  2.758392977113E-003 -7.160939162323E-003  1.599174950219E-002
  4.391950301120E+000  7.085764854355E-002  2.293964010044E-003 -6.110047668869E-003  1.402129497862E-002
  4.463566438835E+000  7.238179969882E-002  1.890760517785E-003 -5.171554738859E-003  1.222196777196E-002
  4.536728502895E+000  7.394976018725E-002  1.543606237463E-003 -4.338394761175E-003  1.058623481654E-002
  4.611481090679E+000  7.556311740127E-002  1.247456441051E-003 -3.603505522542E-003  9.106299835120E-003
  4.687870421430E+000  7.722352824817E-002  9.974184728522E-004 -2.959861661704E-003  7.774146787353E-003
  4.765944407533E+000  7.893272272784E-002  7.887713762442E-004 -2.400508147954E-003  6.581585256411E-003
  4.845752729492E+000  8.069250772248E-002  6.169844042493E-004 -1.918593482880E-003  5.520297403919E-003
  4.927346914797E+000  8.250477101257E-002  4.777342096216E-004 -1.507402311527E-003  4.581886088235E-003
  5.010780420931E+000  8.437148553436E-002  3.669205142651E-004 -1.160387119910E-003  3.757923708748E-003
  5.096108722763E+000  8.629471389541E-002  2.806800650237E-004 -8.711986903855E-004  3.040001310662E-003
  5.183389404586E+000  8.827661316581E-002  2.153986935089E-004 -6.337149853395E-004  2.419777461436E-003
  5.272682257105E+000  9.031943996425E-002  1.677213117406E-004 -4.420681332621E-004  1.889026392306E-003
  5.364049379651E+000  9.242555585946E-002  1.345596931098E-004 -2.906692000466E-004  1.439684887114E-003
  5.457555287978E+000  9.459743310926E-002  1.130979095550E-004 -1.742304425243E-004  1.063897396543E-003
  5.553267027968E+000  9.683766076100E-002  1.007953208359E-004 -8.778476106730E-005  7.540588596873E-004
  5.651254295630E+000  9.914895113938E-002  9.538704029251E-005 -2.670209370675E-005  5.028547269682E-004
  5.751589563796E+000  1.015341467494E-001  9.488183327372E-005  1.329747434611E-005  3.032976994830E-004
  5.854348215936E+000  1.039962276248E-001  9.755743921242E-005  3.613407471644E-005  1.487607299761E-004
  5.959608687557E+000  1.065383191537E-001  1.019533457083E-004  4.536203968845E-005  3.300587005076E-005
  6.067452615683E+000  1.091637004188E-001  1.068610824341E-004  4.416760430411E-005 -4.979140315712E-005
  6.177964996951E+000  1.118758130872E-001  1.113121435899E-004  3.537037282644E-005 -1.050226901119E-004
  6.291234354880E+000  1.146782708938E-001  1.145636892542E-004  2.142853939342E-005 -1.376322451972E-004
  6.407352916949E+000  1.175748697626E-001  1.160822174852E-004  4.447793417207E-006 -1.521077961004E-004
  6.526416802128E+000  1.205695986129E-001  1.155254394871E-004 -1.380622096105E-005 -1.524766960685E-004
  6.648526219580E+000  1.236666509049E-001  1.127226285526E-004 -3.189208407159E-005 -1.423074134793E-004
  6.773785679311E+000  1.268704369821E-001  1.076537487634E-004 -4.867367274538E-005 -1.247162740558E-004
  6.902304215570E+000  1.301855972713E-001  1.004277004576E-004 -6.329843879370E-005 -1.023792799661E-004
  7.034195623922E+000  1.336170164087E-001  9.126004513506E-005 -7.517326343789E-005 -7.754873896271E-005
  7.169578712934E+000  1.371698383673E-001  8.045059167647E-005 -8.393830789357E-005 -5.207434779880E-005
  7.308577571516E+000  1.408494826628E-001  6.836123745897E-005 -8.943932421848E-005 -2.742828967192E-005
  7.451321853057E+000  1.446616617293E-001  5.539446122964E-005 -9.169892605136E-005 -4.733827761090E-006
  7.597947077547E+000  1.486123995567E-001  4.197285866679E-005 -9.088734450366E-005  1.520319162691E-005
  7.748594953021E+000  1.527080516973E-001  2.852009582728E-005 -8.729320886918E-005  3.186056991453E-005
  7.903413717736E+000  1.569553267535E-001  1.544362980298E-005 -8.129489385617E-005  4.496440831917E-005
  8.062558504629E+000  1.613613094717E-001  3.119509828394E-006 -7.333296386754E-005  5.445289651398E-005
  8.226191729726E+000  1.659334855793E-001 -8.120473934106E-006 -6.388421994362E-005  6.043996450079E-005
  8.394483506327E+000  1.706797685137E-001 -1.799908203116E-005 -5.343781622190E-005  6.317951747193E-005
  8.567612086926E+000  1.756085282071E-001 -2.630120950108E-005 -4.247386049326E-005  6.303094791288E-005
  8.745764335025E+000  1.807286221064E-001 -3.287868404215E-005 -3.144484846153E-005  6.042657494344E-005
  8.929136229160E+000  1.860494286260E-001 -3.765227642091E-005 -2.076020497352E-005  5.584159850237E-005
  9.117933401693E+000  1.915808832504E-001 -4.061099952320E-005 -1.077411962022E-005  4.976707670183E-005
  9.312371715124E+000  1.973335175235E-001 -4.180885144785E-005 -1.776771056437E-006  4.268634044887E-005
  9.512677878945E+000  2.033185011886E-001 -4.135923473924E-005  6.011063062611E-006  3.505515284677E-005
  9.719090110332E+000  2.095476877688E-001 -3.942735533173E-005  1.244011229714E-005  2.728580516280E-005
  9.931858842267E+000  2.160336639044E-001 -3.622096804831E-005  1.743163398277E-005  1.973522002581E-005
  1.015124748302E+001  2.227898028021E-001 -3.197988763586E-005  2.097363687377E-005  1.269701016369E-005
  1.037753323129E+001  2.298303221843E-001 -2.696472261278E-005  2.311467763376E-005  6.397321842817E-006
  1.061100795175E+001  2.371703471699E-001 -2.144531129742E-005  2.395566794389E-005  9.941807596970E-007
  1.085197911611E+001  2.448259785618E-001 -1.568934344259E-005  2.364018181651E-005 -3.420041118417E-006
  1.110077081537E+001  2.528143670735E-001 -9.951635760766E-006  2.234378568276E-005 -6.813502265722E-006
  1.135772484956E+001  2.611537940784E-001 -4.464494936916E-006  2.026292601182E-005 -9.207639557902E-006
  1.162320190175E+001  2.698637595360E-001  5.704519394441E-007  1.760389952653E-005 -1.066835577841E-005
  1.189758280382E+001  2.789650778206E-001  4.988650667283E-006  1.457239941201E-005 -1.129623115626E-005
  1.218126990242E+001  2.884799822596E-001  8.667014003305E-006  1.136407826667E-005 -1.121633448375E-005
  1.247468853413E+001  2.984322392826E-001  1.152619073505E-005  8.156497042076E-006 -1.056817582383E-005
  1.277828862002E+001  3.088472731875E-001  1.353068799903E-005  5.102742083791E-006 -9.496286473167E-006
  1.309254639077E+001  3.197523026463E-001  1.468693080465E-005  2.326893838549E-006 -8.141835741216E-006
  1.341796625462E+001  3.311764902095E-001  1.503944456948E-005 -7.857412266666E-008 -6.635602417850E-006
  1.375508282195E+001  3.431511062169E-001  1.466543871740E-005 -2.053492793494E-006 -5.092516653860E-006
  1.410446310162E+001  3.557097086969E-001  1.366814653375E-005 -3.568919738277E-006 -3.607881160180E-006
  1.446670888596E+001  3.688883410292E-001  1.216933360828E-005 -4.624502755271E-006 -2.255275260765E-006
  1.484245934302E+001  3.827257493700E-001  1.030142041973E-005 -5.244576195883E-006 -1.086047464514E-006
  1.523239383723E+001  3.972636220891E-001  8.199671371880E-006 -5.473334194421E-006 -1.302174299569E-007
  1.563723500136E+001  4.125468537596E-001  5.994881974020E-006 -5.369454850345E-006  6.014588238650E-007
  1.605775208607E+001  4.286238365683E-001  3.806948807949E-006 -5.000554213029E-006  1.114552408244E-006
  1.649476461582E+001  4.455467823929E-001  1.739636288692E-006 -4.437828975827E-006  1.427468368930E-006
  1.694914638379E+001  4.633720792263E-001 -1.232353235180E-007 -3.751204115294E-006  1.567709724038E-006
  1.742182982203E+001  4.821606861220E-001 -1.720058429167E-006 -3.005240036903E-006  1.568190130367E-006
  1.791381078784E+001  5.019785714107E-001 -3.012148398342E-006 -2.255978284273E-006  1.463845354574E-006
  1.842615381215E+001  5.228971995942E-001 -3.982985790413E-006 -1.548821760710E-006  1.288738314449E-006
  1.895999786176E+001  5.449940730840E-001 -4.636174802488E-006 -9.174614616754E-007  1.073788309641E-006
  1.951656267356E+001  5.683533358366E-001 -4.992378706913E-006 -3.837836294416E-007  8.451880981966E-007
  2.009715572669E+001  5.930664469535E-001 -5.085545998603E-006  4.137494671412E-008  6.235085215300E-007
  2.070317992707E+001  6.192329335039E-001 -4.958766756148E-006  3.568052471249E-007  4.234346244804E-007
  2.133614208874E+001  6.469612332097E-001 -4.660096056027E-006  5.690493871272E-007  2.540337300750E-007
  2.199766230782E+001  6.763696392388E-001 -4.238651497040E-006  6.902891774919E-007  1.194273074450E-007
  2.268948433818E+001  7.075873612439E-001 -3.741238831304E-006  7.362086985550E-007  1.972564878535E-008
  2.341348709294E+001  7.407557189842E-001 -3.209689339427E-006  7.240111551839E-007 -4.791338323913E-008
  2.417169741362E+001  7.760294874639E-001 -2.679012436312E-006  6.707288652407E-007 -8.822516530340E-008
  2.496630426925E+001  8.135784155747E-001 -2.176385276680E-006  5.919163255411E-007 -1.068776512308E-007
  2.579967457140E+001  8.535889438281E-001 -1.720925888745E-006  5.007656293085E-007 -1.096779720014E-007
  2.667437081864E+001  8.962661510291E-001 -1.324134566916E-006  4.076365040252E-007 -1.019833087742E-007
  2.759317081651E+001  9.418359647997E-001 -9.908450202691E-007  3.199544073069E-007 -8.832356035293E-008
  2.855908975674E+001  9.905476768748E-001 -7.205048351948E-007  2.424025812906E-007 -7.221900845399E-008
  2.957540498378E+001  1.042676811269E+000 -5.086042766036E-007  1.773191832506E-007 -5.615891834699E-008
  3.064568382919E+001  1.098528402000E+000 -3.480909135823E-007  1.252083418716E-007 -4.169751728621E-008
  3.177381495601E+001  1.158440747351E+000 -2.306405280038E-007  8.528248436815E-008 -2.962168690074E-008
  3.296404372807E+001  1.222789720048E+000 -1.476964033444E-007  5.596966225621E-008 -2.014871418607E-008
  3.422101220608E+001  1.291993727721E+000 -9.123307668995E-008  3.534038324665E-008 -1.312071180623E-008
  3.554980447538E+001  1.366519436102E+000 -5.424109754592E-008  2.143009280690E-008 -8.172757254480E-009
  3.695599813319E+001  1.446888389511E+000 -3.096165770267E-008  1.245287025700E-008 -4.862442017891E-009
  3.844572291106E+001  1.533684690030E+000 -1.692134487235E-008  6.916906807428E-009 -2.757788409086E-009
  4.002572758518E+001  1.627563929686E+000 -8.826987231856E-009  3.661795754735E-009 -1.487371809647E-009
  4.170345654134E+001  1.729263610453E+000 -4.379762444473E-009  1.841558576145E-009 -7.605881885598E-010
  4.348713762001E+001  1.839615336740E+000 -2.059046527027E-009  8.765314664422E-010 -3.674962889398E-010
  4.538588318162E+001  1.959559126947E+000 -9.132279227047E-010  3.932009197481E-010 -1.671099926963E-010
  4.740980671574E+001  2.090160267552E+000 -3.802663346533E-010  1.654518318578E-010 -7.119079665483E-011
  4.957015778746E+001  2.232629229408E+000 -1.478565114934E-010  6.495717221907E-011 -2.826655719946E-011
  5.187947869225E+001  2.388345286640E+000 -5.335828164385E-011  2.365270640055E-011 -1.039933756694E-011
  5.435178690397E+001  2.558884630889E+000 -1.775067097452E-011  7.934248095282E-012 -3.521621852528E-012
  5.700278828629E+001  2.746053966795E+000 -5.401995973067E-012  2.433342875042E-012 -1.089496655243E-012
  5.985012714155E+001  2.951930820846E+000 -1.490987017330E-012  6.764725330064E-013 -3.053279574125E-013
  6.291368055481E+001  3.178912111311E+000 -3.696089710904E-013  1.688245643496E-013 -7.676863457697E-014
  6.621590623276E+001  3.429772933797E+000 -8.138971770550E-014  3.740994507971E-014 -1.712895106032E-014
  6.978225524452E+001  3.707738044625E+000 -1.572229048386E-014  7.269110126649E-015 -3.349705540308E-015
  7.364166388185E+001  4.016569212832E+000 -2.626561133652E-015  1.221064294805E-015 -5.660455108744E-016
  7.782714245929E+001  4.360672516382E+000 -3.733438698791E-016  1.744600323279E-016 -8.132407484865E-017
  8.237648351994E+001  4.745230855210E+000 -4.431695493628E-017  2.080915083312E-017 -9.750479282884E-018
  8.733311794502E+001  5.176368549127E+000 -4.299716517236E-018  2.028119485271E-018 -9.549156190868E-019
  9.274715535088E+001  5.661357031559E+000 -3.326162544766E-019  1.575604812134E-019 -7.452155383755E-020
  9.867665554529E+001  6.208873552072E+000 -1.993358992614E-020  9.480440351265E-021 -4.502980832187E-021
  1.051891916055E+002  6.829328764649E+000 -8.949778884836E-022  4.272586866063E-022 -2.037430156393E-022
  1.123637836013E+002  7.535284543316E+000 -2.894630790333E-023  1.386789402824E-023 -6.637648679863E-024
  1.202933069206E+002  8.341990973529E+000 -6.440194691106E-025  3.095738543645E-025 -1.486891142560E-025
  1.290875131414E+002  9.268082166539E+000 -9.333571096951E-027  4.500655390601E-027 -2.168741737099E-027
  1.388768482001E+002  1.033648575811E+001 -8.258056584769E-029  3.993816636317E-029 -1.930409818750E-029
  1.498173177370E+002  1.157562284364E+001 -4.127556873474E-031  2.001750453889E-031 -9.703274478475E-032
  1.620967411853E+002  1.302100699722E+001 -1.061470823244E-033  5.161309909276E-034 -2.508637792777E-034
  1.759428668168E+002  1.471739812515E+001 -1.253975648698E-036  6.112349417686E-037 -2.978399971514E-037
  1.916340085825E+002  1.672173748087E+001 -5.924453963385E-040  2.894477893903E-040 -1.413751843283E-040
  2.095131417987E+002  1.910719757888E+001 -9.435995686371E-044  4.620098976566E-044 -2.261607980759E-044
  2.300068054477E+002  2.196884699990E+001 -4.096382591208E-048  2.009774730920E-048 -9.858592428559E-049
  2.536507797910E+002  2.543169216868E+001 -3.711099488562E-053  1.824219590456E-053 -8.965769799691E-054
  2.811254638474E+002  2.966227967912E+001 -4.997580244266E-059  2.460983377418E-059 -1.211731331522E-059
  3.133053780630E+002  3.488573552677E+001 -6.467702588550E-066  3.190232059433E-066 -1.573453508858E-066
  3.513296254502E+002  4.141128389041E+001 -4.556991434194E-074  2.251255236729E-074 -1.112088800246E-074
  3.967041014107E+002  4.967130404215E+001 -8.245195936627E-084  4.079196207492E-084 -2.018011458510E-084
  4.514529193350E+002  6.028257212519E+001 -1.394990372457E-095  6.910769309195E-096 -3.423441032010E-096
  5.183481233601E+002  7.414493328741E+001 -5.530843365205E-110  2.743368356300E-110 -1.360701482937E-110
  6.012676077950E+002  9.260523890243E+001 -7.412080449677E-128  3.680678366496E-128 -1.827701644995E-128
  7.057700503752E+002  1.177394213729E+002 -2.091193977406E-150  1.039526822454E-150 -5.167371382209E-151
  8.400513767914E+002  1.528577972397E+002 -2.071245237832E-179  1.030590972083E-179 -5.127857743281E-180
  1.016602135495E+003  2.034537342122E+002 -1.404358550179E-217  6.993700995813E-218 -3.482832716855E-218
  1.255220715579E+003  2.790860613465E+002 -3.296205461833E-269  1.642779635361E-269 -8.187325680948E-270
  1.588815776243E+003  3.973705897531E+002  0.000000000000E+000  0.000000000000E+000  0.000000000000E+000
  2.075392011604E+003  5.931596040112E+002  0.000000000000E+000  0.000000000000E+000  0.000000000000E+000
  2.825079847528E+003  9.419154890018E+002  0.000000000000E+000  0.000000000000E+000  0.000000000000E+000
  4.068408296183E+003  1.627629972032E+003  0.000000000000E+000  0.000000000000E+000  0.000000000000E+000
  6.357262947672E+003  3.178964796684E+003  0.000000000000E+000  0.000000000000E+000  0.000000000000E+000
  1.130231930164E+004  7.535323971003E+003  0.000000000000E+000  0.000000000000E+000  0.000000000000E+000
  2.543105175136E+004  2.543171841278E+004  0.000000000000E+000  0.000000000000E+000  0.000000000000E+000
  1.017262069952E+005  2.034537473203E+005  0.000000000000E+000  0.000000000000E+000  0.000000000000E+000
