{
  "$schema": "http://json-schema.org/draft-04/schema#",
  "title": "onecenter_parameters_nctu",
  "description": "onecenter_parameters_nctu",
  "type": "object",
  "properties": {
    "ngrid": {
      "type": "integer",
      "minimum": 1000
    },
    "functional":{
      "type": "string"
    }
  },
  "additionalProperties": false
}
