# 1st line: number of mesh points
# abcissa weight wavefunction wavefunction_1st wavefunction_2nd
750
# Principal QN=   2 , l=   1 , Occupation=   2.0000
  4.374829648462E-006  8.749684815795E-006 -7.961017859620E-005 -1.819718136018E+001  6.375810673793E+001
  1.749947170803E-005  1.749967586165E-005 -3.184361770724E-004 -1.819634409986E+001  6.382789191845E+001
  3.937438553227E-005  2.625027939039E-005 -7.164643556996E-004 -1.819494659876E+001  6.394412392615E+001
  7.000033674850E-005  3.500180170042E-005 -1.273671889035E-003 -1.819298575930E+001  6.410668790259E+001
  1.093783973148E-004  4.375454915846E-005 -1.990026627250E-003 -1.819045725142E+001  6.431542320851E+001
  1.575099455994E-004  5.250882822235E-005 -2.865486902346E-003 -1.818735551904E+001  6.457012358619E+001
  2.143966664839E-004  6.126494546391E-005 -3.900001279609E-003 -1.818367378850E+001  6.487053736786E+001
  2.800405514876E-004  7.002320759166E-005 -5.093508254743E-003 -1.817940407872E+001  6.521636773003E+001
  3.544438989166E-004  7.878392147376E-005 -6.445935897257E-003 -1.817453721326E+001  6.560727299332E+001
  4.376093140344E-004  8.754739416078E-005 -7.957201440732E-003 -1.816906283416E+001  6.604286696767E+001
  5.295397092558E-004  9.631393290865E-005 -9.627210820723E-003 -1.816296941753E+001  6.652271934236E+001
  6.302383043639E-004  1.050838452015E-004 -1.145585816115E-002 -1.815624429103E+001  6.704635612055E+001
  7.397086267493E-004  1.138574387747E-004 -1.344302521007E-002 -1.814887365296E+001  6.761326009780E+001
  8.579545116732E-004  1.226350216376E-004 -1.558858072595E-002 -1.814084259320E+001  6.822287138417E+001
  9.849801025530E-004  1.314169020969E-004 -1.789237981549E-002 -1.813213511574E+001  6.887458796911E+001
  1.120789851271E-003  1.402033887793E-004 -2.035426322419E-002 -1.812273416296E+001  6.956776632888E+001
  1.265388518505E-003  1.489947906549E-004 -2.297405658108E-002 -1.811262164152E+001  7.030172207546E+001
  1.418781174086E-003  1.577914170601E-004 -2.575156959888E-002 -1.810177844986E+001  7.107573064657E+001
  1.580973197373E-003  1.665935777210E-004 -2.868659523114E-002 -1.809018450725E+001  7.188902803591E+001
  1.751970277655E-003  1.754015827762E-004 -3.177890878790E-002 -1.807781878441E+001  7.274081156282E+001
  1.931778414577E-003  1.842157428007E-004 -3.502826701149E-002 -1.806465933561E+001  7.363024068066E+001
  2.120403918585E-003  1.930363688286E-004 -3.843440711421E-002 -1.805068333220E+001  7.455643782283E+001
  2.317853411402E-003  2.018637723769E-004 -4.199704577971E-002 -1.803586709762E+001  7.551848928581E+001
  2.524133826515E-003  2.106982654690E-004 -4.571587812986E-002 -1.802018614366E+001  7.651544614800E+001
  2.739252409699E-003  2.195401606578E-004 -4.959057665913E-002 -1.800361520819E+001  7.754632522353E+001
  2.963216719558E-003  2.283897710495E-004 -5.362079013848E-002 -1.798612829401E+001  7.861011005001E+001
  3.196034628087E-003  2.372474103276E-004 -5.780614249074E-002 -1.796769870903E+001  7.970575190905E+001
  3.437714321263E-003  2.461133927761E-004 -6.214623163971E-002 -1.794829910760E+001  8.083217087863E+001
  3.688264299658E-003  2.549880333035E-004 -6.664062833520E-002 -1.792790153291E+001  8.198825691607E+001
  3.947693379075E-003  2.638716474669E-004 -7.128887495610E-002 -1.790647746049E+001  8.317287097040E+001
  4.216010691206E-003  2.727645514955E-004 -7.609048429398E-002 -1.788399784272E+001  8.438484612312E+001
  4.493225684321E-003  2.816670623153E-004 -8.104493831943E-002 -1.786043315430E+001  8.562298875592E+001
  4.779348123974E-003  2.905794975725E-004 -8.615168693356E-002 -1.783575343855E+001  8.688607974428E+001
  5.074388093734E-003  2.995021756586E-004 -9.141014670719E-002 -1.780992835462E+001  8.817287567555E+001
  5.378355995945E-003  3.084354157338E-004 -9.681969961009E-002 -1.778292722546E+001  8.948211009025E+001
  5.691262552507E-003  3.173795377523E-004 -1.023796917328E-001 -1.775471908640E+001  9.081249474534E+001
  6.013118805679E-003  3.263348624862E-004 -1.080894320038E-001 -1.772527273454E+001  9.216272089791E+001
  6.343936118913E-003  3.353017115504E-004 -1.139481909041E-001 -1.769455677856E+001  9.353146060817E+001
  6.683726177708E-003  3.442804074275E-004 -1.199551991823E-001 -1.766253968920E+001  9.491736806013E+001
  7.032500990487E-003  3.532712734924E-004 -1.261096465728E-001 -1.762918985006E+001  9.631908089867E+001
  7.390272889509E-003  3.622746340375E-004 -1.324106805192E-001 -1.759447560888E+001  9.773522158158E+001
  7.757054531790E-003  3.712908142975E-004 -1.388574049063E-001 -1.755836532907E+001  9.916439874508E+001
  8.132858900065E-003  3.803201404750E-004 -1.454488788026E-001 -1.752082744159E+001  1.006052085813E+002
  8.517699303766E-003  3.893629397656E-004 -1.521841152168E-001 -1.748183049690E+001  1.020562362265E+002
  8.911589380027E-003  3.984195403834E-004 -1.590620798697E-001 -1.744134321714E+001  1.035160571582E+002
  9.314543094716E-003  4.074902715868E-004 -1.660816899859E-001 -1.739933454825E+001  1.049832385999E+002
  9.726574743493E-003  4.165754637041E-004 -1.732418131065E-001 -1.735577371218E+001  1.064563409322E+002
  1.014769895289E-002  4.256754481591E-004 -1.805412659258E-001 -1.731063025895E+001  1.079339191079E+002
  1.057793068143E-002  4.347905574978E-004 -1.879788131548E-001 -1.726387411859E+001  1.094145240712E+002
  1.101728522073E-002  4.439211254141E-004 -1.955531664143E-001 -1.721547565279E+001  1.108967041771E+002
  1.146577819672E-002  4.530674867761E-004 -2.032629831597E-001 -1.716540570639E+001  1.123790066123E+002
  1.192342557078E-002  4.622299776527E-004 -2.111068656405E-001 -1.711363565838E+001  1.138599788134E+002
  1.239024364095E-002  4.714089353406E-004 -2.190833598960E-001 -1.706013747256E+001  1.153381698835E+002
  1.286624904323E-002  4.806046983903E-004 -2.271909547916E-001 -1.700488374769E+001  1.168121320026E+002
  1.335145875278E-002  4.898176066337E-004 -2.354280810963E-001 -1.694784776706E+001  1.182804218340E+002
  1.384589008526E-002  4.990480012113E-004 -2.437931106043E-001 -1.688900354746E+001  1.197416019217E+002
  1.434956069813E-002  5.082962245988E-004 -2.522843553037E-001 -1.682832588746E+001  1.211942420800E+002
  1.486248859199E-002  5.175626206355E-004 -2.609000665943E-001 -1.676579041495E+001  1.226369207717E+002
  1.538469211201E-002  5.268475345511E-004 -2.696384345557E-001 -1.670137363385E+001  1.240682264754E+002
  1.591618994926E-002  5.361513129942E-004 -2.784975872696E-001 -1.663505296991E+001  1.254867590391E+002
  1.645700114219E-002  5.454743040600E-004 -2.874755901973E-001 -1.656680681566E+001  1.268911310191E+002
  1.700714507809E-002  5.548168573187E-004 -2.965704456146E-001 -1.649661457430E+001  1.282799690027E+002
  1.756664149456E-002  5.641793238438E-004 -3.057800921063E-001 -1.642445670250E+001  1.296519149138E+002
  1.813551048105E-002  5.735620562407E-004 -3.151024041224E-001 -1.635031475219E+001  1.310056272992E+002
  1.871377248037E-002  5.829654086755E-004 -3.245351915969E-001 -1.627417141106E+001  1.323397825950E+002
  1.930144829031E-002  5.923897369045E-004 -3.340761996325E-001 -1.619601054194E+001  1.336530763714E+002
  1.989855906522E-002  6.018353983027E-004 -3.437231082515E-001 -1.611581722080E+001  1.349442245544E+002
  2.050512631763E-002  6.113027518937E-004 -3.534735322146E-001 -1.603357777352E+001  1.362119646239E+002
  2.112117191995E-002  6.207921583795E-004 -3.633250209106E-001 -1.594927981118E+001  1.374550567863E+002
  2.174671810614E-002  6.303039801700E-004 -3.732750583162E-001 -1.586291226397E+001  1.386722851201E+002
  2.238178747343E-002  6.398385814135E-004 -3.833210630289E-001 -1.577446541366E+001  1.398624586946E+002
  2.302640298407E-002  6.493963280269E-004 -3.934603883737E-001 -1.568393092444E+001  1.410244126590E+002
  2.368058796715E-002  6.589775877264E-004 -4.036903225842E-001 -1.559130187229E+001  1.421570093018E+002
  2.434436612038E-002  6.685827300582E-004 -4.140080890601E-001 -1.549657277271E+001  1.432591390795E+002
  2.501776151193E-002  6.782121264298E-004 -4.244108467012E-001 -1.539973960679E+001  1.443297216122E+002
  2.570079858233E-002  6.878661501412E-004 -4.348956903194E-001 -1.530079984559E+001  1.453677066474E+002
  2.639350214638E-002  6.975451764166E-004 -4.454596511281E-001 -1.519975247284E+001  1.463720749885E+002
  2.709589739506E-002  7.072495824363E-004 -4.560996973118E-001 -1.509659800586E+001  1.473418393890E+002
  2.780800989753E-002  7.169797473686E-004 -4.668127346744E-001 -1.499133851467E+001  1.482760454108E+002
  2.852986560314E-002  7.267360524025E-004 -4.775956073669E-001 -1.488397763934E+001  1.491737722453E+002
  2.926149084343E-002  7.365188807802E-004 -4.884450986961E-001 -1.477452060549E+001  1.500341334972E+002
  3.000291233423E-002  7.463286178302E-004 -4.993579320128E-001 -1.466297423786E+001  1.508562779303E+002
  3.075415717777E-002  7.561656510005E-004 -5.103307716807E-001 -1.454934697210E+001  1.516393901737E+002
  3.151525286478E-002  7.660303698919E-004 -5.213602241245E-001 -1.443364886458E+001  1.523826913886E+002
  3.228622727670E-002  7.759231662923E-004 -5.324428389595E-001 -1.431589160030E+001  1.530854398951E+002
  3.306710868785E-002  7.858444342105E-004 -5.435751101992E-001 -1.419608849888E+001  1.537469317572E+002
  3.385792576769E-002  7.957945699105E-004 -5.547534775432E-001 -1.407425451857E+001  1.543665013276E+002
  3.465870758309E-002  8.057739719470E-004 -5.659743277431E-001 -1.395040625833E+001  1.549435217493E+002
  3.546948360063E-002  8.157830411993E-004 -5.772339960468E-001 -1.382456195795E+001  1.554774054158E+002
  3.629028368895E-002  8.258221809078E-004 -5.885287677196E-001 -1.369674149616E+001  1.559676043884E+002
  3.712113812112E-002  8.358917967092E-004 -5.998548796415E-001 -1.356696638683E+001  1.564136107700E+002
  3.796207757706E-002  8.459922966724E-004 -6.112085219802E-001 -1.343525977313E+001  1.568149570358E+002
  3.881313314600E-002  8.561240913352E-004 -6.225858399378E-001 -1.330164641978E+001  1.571712163209E+002
  3.967433632895E-002  8.662875937410E-004 -6.339829355701E-001 -1.316615270332E+001  1.574820026631E+002
  4.054571904123E-002  8.764832194758E-004 -6.453958696777E-001 -1.302880660043E+001  1.577469712031E+002
  4.142731361504E-002  8.867113867056E-004 -6.568206637674E-001 -1.288963767427E+001  1.579658183391E+002
  4.231915280204E-002  8.969725162143E-004 -6.682533020808E-001 -1.274867705895E+001  1.581382818391E+002
  4.322126977601E-002  9.072670314420E-004 -6.796897336907E-001 -1.260595744202E+001  1.582641409081E+002
  4.413369813551E-002  9.175953585230E-004 -6.911258746617E-001 -1.246151304518E+001  1.583432162115E+002
  4.505647190660E-002  9.279579263255E-004 -7.025576102739E-001 -1.231537960293E+001  1.583753698551E+002
  4.598962554558E-002  9.383551664904E-004 -7.139807973073E-001 -1.216759433955E+001  1.583605053212E+002
  4.693319394182E-002  9.487875134711E-004 -7.253912663848E-001 -1.201819594415E+001  1.582985673610E+002
  4.788721242053E-002  9.592554045735E-004 -7.367848243725E-001 -1.186722454396E+001  1.581895418446E+002
  4.885171674571E-002  9.697592799971E-004 -7.481572568328E-001 -1.171472167581E+001  1.580334555677E+002
  4.982674312298E-002  9.802995828750E-004 -7.595043305304E-001 -1.156073025596E+001  1.578303760155E+002
  5.081232820261E-002  9.908767593160E-004 -7.708217959867E-001 -1.140529454811E+001  1.575804110856E+002
  5.180850908247E-002  1.001491258446E-003 -7.821053900815E-001 -1.124846012987E+001  1.572837087680E+002
  5.281532331109E-002  1.012143532450E-003 -7.933508386977E-001 -1.109027385750E+001  1.569404567855E+002
  5.383280889073E-002  1.022834036616E-003 -8.045538594078E-001 -1.093078382915E+001  1.565508821925E+002
  5.486100428049E-002  1.033563229377E-003 -8.157101641984E-001 -1.077003934652E+001  1.561152509343E+002
  5.589994839952E-002  1.044331572352E-003 -8.268154622301E-001 -1.060809087501E+001  1.556338673675E+002
  5.694968063018E-002  1.055139530397E-003 -8.378654626290E-001 -1.044499000249E+001  1.551070737414E+002
  5.801024082134E-002  1.065987571642E-003 -8.488558773088E-001 -1.028078939660E+001  1.545352496419E+002
  5.908166929164E-002  1.076876167541E-003 -8.597824238173E-001 -1.011554276077E+001  1.539188113985E+002
  6.016400683288E-002  1.087805792914E-003 -8.706408282071E-001 -9.949304788906E+000  1.532582114546E+002
  6.125729471334E-002  1.098776925995E-003 -8.814268279252E-001 -9.782131118850E+000  1.525539377037E+002
  6.236157468129E-002  1.109790048479E-003 -8.921361747187E-001 -9.614078284690E+000  1.518065127898E+002
  6.347688896846E-002  1.120845645566E-003 -9.027646375545E-001 -9.445203667916E+000  1.510164933752E+002
  6.460328029351E-002  1.131944206013E-003 -9.133080055468E-001 -9.275565447539E+000  1.501844693760E+002
  6.574079186568E-002  1.143086222175E-003 -9.237620908924E-001 -9.105222549196E+000  1.493110631658E+002
  6.688946738839E-002  1.154272190062E-003 -9.341227318074E-001 -8.934234593335E+000  1.483969287490E+002
  6.804935106291E-002  1.165502609382E-003 -9.443857954635E-001 -8.762661842521E+000  1.474427509051E+002
  6.922048759208E-002  1.176777983592E-003 -9.545471809196E-001 -8.590565147937E+000  1.464492443052E+002
  7.040292218410E-002  1.188098819950E-003 -9.646028220458E-001 -8.418005895146E+000  1.454171526004E+002
  7.159670055635E-002  1.199465629562E-003 -9.745486904356E-001 -8.245045949186E+000  1.443472474857E+002
  7.280186893927E-002  1.210878927440E-003 -9.843807983027E-001 -8.071747599056E+000  1.432403277384E+002
  7.401847408026E-002  1.222339232543E-003 -9.940952013599E-001 -7.898173501671E+000  1.420972182337E+002
  7.524656324771E-002  1.233847067843E-003 -1.003688001675E+000 -7.724386625355E+000  1.409187689379E+002
  7.648618423497E-002  1.245402960365E-003 -1.013155350500E+000 -7.550450192936E+000  1.397058538810E+002
  7.773738536451E-002  1.257007441251E-003 -1.022493451075E+000 -7.376427624524E+000  1.384593701098E+002
  7.900021549199E-002  1.268661045808E-003 -1.031698561392E+000 -7.202382480038E+000  1.371802366224E+002
  8.027472401048E-002  1.280364313566E-003 -1.040766996932E+000 -7.028378401553E+000  1.358693932869E+002
  8.156096085474E-002  1.292117788331E-003 -1.049695133349E+000 -6.854479055542E+000  1.345277997436E+002
  8.285897650548E-002  1.303922018244E-003 -1.058479409127E+000 -6.680748075090E+000  1.331564342936E+002
  8.416882199374E-002  1.315777555837E-003 -1.067116328174E+000 -6.507249002138E+000  1.317562927746E+002
  8.549054890532E-002  1.327684958091E-003 -1.075602462378E+000 -6.334045229848E+000  1.303283874258E+002
  8.682420938525E-002  1.339644786491E-003 -1.083934454105E+000 -6.161199945151E+000  1.288737457422E+002
  8.816985614232E-002  1.351657607091E-003 -1.092109018636E+000 -5.988776071546E+000  1.273934093210E+002
  8.952754245367E-002  1.363723990566E-003 -1.100122946551E+000 -5.816836212238E+000  1.258884327008E+002
  9.089732216948E-002  1.375844512281E-003 -1.107973106049E+000 -5.645442593665E+000  1.243598821953E+002
  9.227924971763E-002  1.388019752345E-003 -1.115656445196E+000 -5.474657009507E+000  1.228088347223E+002
  9.367338010853E-002  1.400250295676E-003 -1.123169994110E+000 -5.304540765231E+000  1.212363766309E+002
  9.507976893995E-002  1.412536732063E-003 -1.130510867072E+000 -5.135154623246E+000  1.196436025260E+002
  9.649847240187E-002  1.424879656231E-003 -1.137676264561E+000 -4.966558748741E+000  1.180316140946E+002
  9.792954728152E-002  1.437279667901E-003 -1.144663475212E+000 -4.798812656272E+000  1.164015189317E+002
  9.937305096837E-002  1.449737371860E-003 -1.151469877694E+000 -4.631975157159E+000  1.147544293707E+002
  1.008290414592E-001  1.462253378024E-003 -1.158092942506E+000 -4.466104307767E+000  1.130914613173E+002
  1.022975773635E-001  1.474828301502E-003 -1.164530233683E+000 -4.301257358731E+000  1.114137330890E+002
  1.037787179081E-001  1.487462762670E-003 -1.170779410424E+000 -4.137490705185E+000  1.097223642623E+002
  1.052725229432E-001  1.500157387233E-003 -1.176838228618E+000 -3.974859838071E+000  1.080184745273E+002
  1.067790529473E-001  1.512912806297E-003 -1.182704542290E+000 -3.813419296565E+000  1.063031825532E+002
  1.082983690328E-001  1.525729656437E-003 -1.188376304939E+000 -3.653222621699E+000  1.045776048640E+002
  1.098305329512E-001  1.538608579772E-003 -1.193851570798E+000 -3.494322311229E+000  1.028428547271E+002
  1.113756070992E-001  1.551550224032E-003 -1.199128495976E+000 -3.336769775799E+000  1.011000410549E+002
  1.129336545240E-001  1.564555242631E-003 -1.204205339520E+000 -3.180615296464E+000  9.935026732246E+001
  1.145047389289E-001  1.577624294744E-003 -1.209080464363E+000 -3.025907983616E+000  9.759463049981E+001
  1.160889246796E-001  1.590758045378E-003 -1.213752338175E+000 -2.872695737366E+000  9.583422000290E+001
  1.176862768094E-001  1.603957165450E-003 -1.218219534109E+000 -2.721025209428E+000  9.407011666229E+001
  1.192968610259E-001  1.617222331860E-003 -1.222480731444E+000 -2.570941766553E+000  9.230339171184E+001
  1.209207437162E-001  1.630554227571E-003 -1.226534716125E+000 -2.422489455553E+000  9.053510579801E+001
  1.225579919537E-001  1.643953541688E-003 -1.230380381188E+000 -2.275710969952E+000  8.876630801110E+001
  1.242086735041E-001  1.657420969534E-003 -1.234016727089E+000 -2.130647618320E+000  8.699803493934E+001
  1.258728568312E-001  1.670957212734E-003 -1.237442861921E+000 -1.987339294297E+000  8.523130974687E+001
  1.275506111039E-001  1.684562979294E-003 -1.240658001518E+000 -1.845824448375E+000  8.346714127666E+001
  1.292420062023E-001  1.698238983683E-003 -1.243661469463E+000 -1.706140061433E+000  8.170652317916E+001
  1.309471127242E-001  1.711985946919E-003 -1.246452696975E+000 -1.568321620091E+000  7.995043306764E+001
  1.326660019916E-001  1.725804596653E-003 -1.249031222701E+000 -1.432403093876E+000  7.819983170120E+001
  1.343987460577E-001  1.739695667252E-003 -1.251396692390E+000 -1.298416914243E+000  7.645566219597E+001
  1.361454177133E-001  1.753659899890E-003 -1.253548858465E+000 -1.166393955468E+000  7.471884926559E+001
  1.379060904941E-001  1.767698042632E-003 -1.255487579488E+000 -1.036363517427E+000  7.299029849143E+001
  1.396808386869E-001  1.781810850528E-003 -1.257212819519E+000 -9.083533102828E-001  7.127089562338E+001
  1.414697373375E-001  1.795999085697E-003 -1.258724647371E+000 -7.823894410819E-001  6.956150591183E+001
  1.432728622571E-001  1.810263517424E-003 -1.260023235757E+000 -6.584964022857E-001  6.786297347137E+001
  1.450902900299E-001  1.824604922251E-003 -1.261108860342E+000 -5.366970622302E-001  6.617612067673E+001
  1.469220980205E-001  1.839024084070E-003 -1.261981898684E+000 -4.170126575266E-001  6.450174759160E+001
  1.487683643808E-001  1.853521794220E-003 -1.262642829085E+000 -2.994627873997E-001  6.284063143057E+001
  1.506291680579E-001  1.868098851582E-003 -1.263092229337E+000 -1.840654099660E-001  6.119352605476E+001
  1.525045888018E-001  1.882756062679E-003 -1.263330775374E+000 -7.083684044589E-002  5.956116150136E+001
  1.543947071725E-001  1.897494241771E-003 -1.263359239830E+000  4.020824869736E-002  5.794424354745E+001
  1.562996045486E-001  1.912314210961E-003 -1.263178490501E+000  1.490568256998E-001  5.634345330832E+001
  1.582193631344E-001  1.927216800294E-003 -1.262789488724E+000  2.556974955339E-001  5.475944687045E+001
  1.601540659685E-001  1.942202847859E-003 -1.262193287664E+000  3.601204940553E-001  5.319285495941E+001
  1.621037969315E-001  1.957273199896E-003 -1.261391030509E+000  4.623176802770E-001  5.164428264262E+001
  1.640686407545E-001  1.972428710903E-003 -1.260383948596E+000  5.622825267909E-001  5.011430906716E+001
  1.660486830272E-001  1.987670243739E-003 -1.259173359446E+000  6.600101083613E-001  4.860348723245E+001
  1.680440102063E-001  2.002998669738E-003 -1.257760664728E+000  7.554970887146E-001  4.711234379803E+001
  1.700547096242E-001  2.018414868818E-003 -1.256147348142E+000  8.487417055548E-001  4.564137892599E+001
  1.720808694977E-001  2.033919729591E-003 -1.254334973241E+000  9.397437538345E-001  4.419106615816E+001
  1.741225789364E-001  2.049514149481E-003 -1.252325181172E+000  1.028504567316E+000  4.276185232777E+001
  1.761799279517E-001  2.065199034834E-003 -1.250119688369E+000  1.115026998456E+000  4.135415750529E+001
  1.782530074662E-001  2.080975301039E-003 -1.247720284164E+000  1.199315396658E+000  3.996837497823E+001
  1.803419093222E-001  2.096843872645E-003 -1.245128828363E+000  1.281375584921E+000  3.860487126448E+001
  1.824467262912E-001  2.112805683482E-003 -1.242347248748E+000  1.361214834946E+000  3.726398615891E+001
  1.845675520832E-001  2.128861676779E-003 -1.239377538540E+000  1.438841840717E+000  3.594603281262E+001
  1.867044813563E-001  2.145012805293E-003 -1.236221753812E+000  1.514266690642E+000  3.465129784459E+001
  1.888576097262E-001  2.161260031432E-003 -1.232882010859E+000  1.587500838260E+000  3.338004148498E+001
  1.910270337757E-001  2.177604327381E-003 -1.229360483528E+000  1.658557071598E+000  3.213249774971E+001
  1.932128510648E-001  2.194046675232E-003 -1.225659400514E+000  1.727449481221E+000  3.090887464552E+001
  1.954151601407E-001  2.210588067114E-003 -1.221781042625E+000  1.794193427015E+000  2.970935440508E+001
  1.976340605477E-001  2.227229505327E-003 -1.217727740020E+000  1.858805503782E+000  2.853409375128E+001
  1.998696528376E-001  2.243972002475E-003 -1.213501869421E+000  1.921303505692E+000  2.738322419006E+001
  2.021220385799E-001  2.260816581601E-003 -1.209105851309E+000  1.981706389647E+000  2.625685233106E+001
  2.043913203725E-001  2.277764276330E-003 -1.204542147104E+000  2.040034237631E+000  2.515506023518E+001
  2.066776018524E-001  2.294816131004E-003 -1.199813256335E+000  2.096308218099E+000  2.407790578836E+001
  2.089809877061E-001  2.311973200830E-003 -1.194921713803E+000  2.150550546462E+000  2.302542310058E+001
  2.113015836811E-001  2.329236552016E-003 -1.189870086740E+000  2.202784444751E+000  2.199762292934E+001
  2.136394965963E-001  2.346607261927E-003 -1.184660971971E+000  2.253034100502E+000  2.099449312656E+001
  2.159948343539E-001  2.364086419226E-003 -1.179296993083E+000  2.301324624949E+000  2.001599910808E+001
  2.183677059504E-001  2.381675124032E-003 -1.173780797604E+000  2.347682010571E+000  1.906208434468E+001
  2.207582214883E-001  2.399374488064E-003 -1.168115054191E+000  2.392133088081E+000  1.813267087372E+001
  2.231664921873E-001  2.417185634804E-003 -1.162302449842E+000  2.434705482907E+000  1.722765983033E+001
  2.255926303971E-001  2.435109699650E-003 -1.156345687132E+000  2.475427571246E+000  1.634693199707E+001
  2.280367496084E-001  2.453147830078E-003 -1.150247481465E+000  2.514328435744E+000  1.549034837119E+001
  2.304989644655E-001  2.471301185804E-003 -1.144010558366E+000  2.551437820894E+000  1.465775074815E+001
  2.329793907790E-001  2.489570938946E-003 -1.137637650805E+000  2.586786088193E+000  1.384896232058E+001
  2.354781455373E-001  2.507958274194E-003 -1.131131496556E+000  2.620404171147E+000  1.306378829137E+001
  2.379953469204E-001  2.526464388978E-003 -1.124494835597E+000  2.652323530186E+000  1.230201649993E+001
  2.405311143118E-001  2.545090493639E-003 -1.117730407563E+000  2.682576107552E+000  1.156341806043E+001
  2.430855683120E-001  2.563837811606E-003 -1.110840949237E+000  2.711194282232E+000  1.084774801092E+001
  2.456588307515E-001  2.582707579569E-003 -1.103829192101E+000  2.738210825001E+000  1.015474597219E+001
  2.482510247043E-001  2.601701047664E-003 -1.096697859943E+000  2.763658853649E+000  9.484136815258E+000
  2.508622745013E-001  2.620819479651E-003 -1.089449666514E+000  2.787571788446E+000  8.835631336331E+000
  2.534927057440E-001  2.640064153101E-003 -1.082087313263E+000  2.809983307907E+000  8.208926938140E+000
  2.561424453184E-001  2.659436359584E-003 -1.074613487118E+000  2.830927304947E+000  7.603708316488E+000
  2.588116214092E-001  2.678937404858E-003 -1.067030858357E+000  2.850437843449E+000  7.019648150914E+000
  2.615003635142E-001  2.698568609066E-003 -1.059342078527E+000  2.868549115341E+000  6.456407798340E+000
  2.642088024584E-001  2.718331306928E-003 -1.051549778459E+000  2.885295398220E+000  5.913637988611E+000
  2.669370704090E-001  2.738226847945E-003 -1.043656566342E+000  2.900711013594E+000  5.390979520818E+000
  2.696853008900E-001  2.758256596597E-003 -1.035665025886E+000  2.914830285792E+000  4.888063959323E+000
  2.724536287978E-001  2.778421932555E-003 -1.027577714562E+000  2.927687501601E+000  4.404514328427E+000
  2.752421904157E-001  2.798724250882E-003 -1.019397161925E+000  2.939316870678E+000  3.939945804608E+000
  2.780511234304E-001  2.819164962252E-003 -1.011125868027E+000  2.949752486805E+000  3.493966405312E+000
  2.808805669466E-001  2.839745493158E-003 -1.002766301910E+000  2.959028290009E+000  3.066177673270E+000
  2.837306615039E-001  2.860467286140E-003 -9.943209001925E-001  2.967178029630E+000  2.656175355346E+000
  2.866015490923E-001  2.881331799996E-003 -9.857920657439E-001  2.974235228352E+000  2.263550074947E+000
  2.894933731690E-001  2.902340510016E-003 -9.771821664530E-001  2.980233147257E+000  1.887887997040E+000
  2.924062786749E-001  2.923494908207E-003 -9.684935340861E-001  2.985204751947E+000  1.528771484863E+000
  2.953404120510E-001  2.944796503524E-003 -9.597284632412E-001  2.989182679760E+000  1.185779747417E+000
  2.982959212561E-001  2.966246822111E-003 -9.508892103953E-001  2.992199208130E+000  8.584894768905E-001
  3.012729557839E-001  2.987847407534E-003 -9.419779930475E-001  2.994286224117E+000  5.464754751646E-001
  3.042716666804E-001  3.009599821029E-003 -9.329969889581E-001  2.995475195154E+000  2.493112685938E-001
  3.072922065615E-001  3.031505641749E-003 -9.239483354828E-001  2.995797141013E+000 -3.343028970715E-002
  3.103347296318E-001  3.053566467011E-003 -9.148341290037E-001  2.995282607058E+000 -3.021764308180E-001
  3.133993917021E-001  3.075783912557E-003 -9.056564244563E-001  2.993961638768E+000 -5.573538949152E-001
  3.164863502083E-001  3.098159612807E-003 -8.964172349522E-001  2.991863757586E+000 -7.993883707933E-001
  3.195957642302E-001  3.120695221125E-003 -8.871185314973E-001  2.989017938096E+000 -1.028703950644E+000
  3.227277945106E-001  3.143392410088E-003 -8.777622428050E-001  2.985452586553E+000 -1.245722600689E+000
  3.258826034744E-001  3.166252871753E-003 -8.683502552037E-001  2.981195520774E+000 -1.450863648237E+000
  3.290603552487E-001  3.189278317936E-003 -8.588844126374E-001  2.976273951410E+000 -1.644543285676E+000
  3.322612156822E-001  3.212470480492E-003 -8.493665167584E-001  2.970714464610E+000 -1.827174091896E+000
  3.354853523656E-001  3.235831111596E-003 -8.397983271117E-001  2.964543006066E+000 -1.999164571588E+000
  3.387329346522E-001  3.259361984038E-003 -8.301815614082E-001  2.957784866479E+000 -2.160918712821E+000
  3.420041336785E-001  3.283064891511E-003 -8.205178958862E-001  2.950464668400E+000 -2.312835563263E+000
  3.452991223850E-001  3.306941648913E-003 -8.108089657596E-001  2.942606354496E+000 -2.455308825377E+000
  3.486180755382E-001  3.330994092651E-003 -8.010563657501E-001  2.934233177198E+000 -2.588726470879E+000
  3.519611697516E-001  3.355224080944E-003 -7.912616507024E-001  2.925367689743E+000 -2.713470374697E+000
  3.553285835081E-001  3.379633494141E-003 -7.814263362790E-001  2.916031738608E+000 -2.829915968638E+000
  3.587204971822E-001  3.404224235039E-003 -7.715518997338E-001  2.906246457305E+000 -2.938431914940E+000
  3.621370930623E-001  3.428998229202E-003 -7.616397807610E-001  2.896032261541E+000 -3.039379799812E+000
  3.655785553743E-001  3.453957425296E-003 -7.516913824168E-001  2.885408845728E+000 -3.133113847078E+000
  3.690450703040E-001  3.479103795417E-003 -7.417080721120E-001  2.874395180809E+000 -3.219980651936E+000
  3.725368260215E-001  3.504439335432E-003 -7.316911826718E-001  2.863009513396E+000 -3.300318934874E+000
  3.760540127046E-001  3.529966065329E-003 -7.216420134602E-001  2.851269366196E+000 -3.374459315690E+000
  3.795968225633E-001  3.555686029558E-003 -7.115618315668E-001  2.839191539690E+000 -3.442724107554E+000
  3.831654498646E-001  3.581601297396E-003 -7.014518730508E-001  2.826792115049E+000 -3.505427131010E+000
  3.867600909572E-001  3.607713963305E-003 -6.913133442417E-001  2.814086458257E+000 -3.562873547775E+000
  3.903809442970E-001  3.634026147302E-003 -6.811474230915E-001  2.801089225410E+000 -3.615359714153E+000
  3.940282104728E-001  3.660539995329E-003 -6.709552605749E-001  2.787814369149E+000 -3.663173053862E+000
  3.977020922328E-001  3.687257679640E-003 -6.607379821361E-001  2.774275146221E+000 -3.706591950022E+000
  4.014027945102E-001  3.714181399184E-003 -6.504966891761E-001  2.760484126092E+000 -3.745885656024E+000
  4.051305244512E-001  3.741313379997E-003 -6.402324605783E-001  2.746453200616E+000 -3.781314224986E+000
  4.088854914415E-001  3.768655875605E-003 -6.299463542696E-001  2.732193594689E+000 -3.813128457437E+000
  4.126679071342E-001  3.796211167429E-003 -6.196394088108E-001  2.717715877873E+000 -3.841569866876E+000
  4.164779854780E-001  3.823981565195E-003 -6.093126450153E-001  2.703029976931E+000 -3.866870662800E+000
  4.203159427457E-001  3.851969407363E-003 -5.989670675907E-001  2.688145189239E+000 -3.889253750788E+000
  4.241819975631E-001  3.880177061543E-003 -5.886036667998E-001  2.673070197033E+000 -3.908932749185E+000
  4.280763709382E-001  3.908606924938E-003 -5.782234201384E-001  2.657813082441E+000 -3.926112021920E+000
  4.319992862915E-001  3.937261424783E-003 -5.678272940237E-001  2.642381343262E+000 -3.940986726956E+000
  4.359509694855E-001  3.966143018791E-003 -5.574162454925E-001  2.626781909440E+000 -3.953742879874E+000
  4.399316488563E-001  3.995254195618E-003 -5.469912239030E-001  2.611021160190E+000 -3.964557432039E+000
  4.439415552440E-001  4.024597475318E-003 -5.365531726373E-001  2.595104941729E+000 -3.973598362803E+000
  4.479809220248E-001  4.054175409823E-003 -5.261030308021E-001  2.579038585559E+000 -3.981024785179E+000
  4.520499851430E-001  4.083990583419E-003 -5.156417349211E-001  2.562826927270E+000 -3.986987064407E+000
  4.561489831434E-001  4.114045613239E-003 -5.051702206185E-001  2.546474325793E+000 -3.991626948798E+000
  4.602781572047E-001  4.144343149756E-003 -4.946894242878E-001  2.529984683069E+000 -3.995077712274E+000
  4.644377511728E-001  4.174885877292E-003 -4.842002847434E-001  2.513361464091E+000 -3.997464307958E+000
  4.686280115954E-001  4.205676514532E-003 -4.737037448512E-001  2.496607717253E+000 -3.998903532217E+000
  4.728491877559E-001  4.236717815045E-003 -4.632007531348E-001  2.479726094975E+000 -3.999504198501E+000
  4.771015317092E-001  4.268012567821E-003 -4.526922653535E-001  2.462718874548E+000 -3.999367320345E+000
  4.813852983169E-001  4.299563597807E-003 -4.421792460502E-001  2.445587979157E+000 -3.998586302912E+000
  4.857007452840E-001  4.331373766464E-003 -4.316626700639E-001  2.428334999031E+000 -3.997247142394E+000
  4.900481331952E-001  4.363445972324E-003 -4.211435240054E-001  2.410961212678E+000 -3.995428632667E+000
  4.944277255526E-001  4.395783151562E-003 -4.106228076926E-001  2.393467608153E+000 -3.993202578526E+000
  4.988397888138E-001  4.428388278575E-003 -4.001015355422E-001  2.375854904332E+000 -3.990634014874E+000
  5.032845924297E-001  4.461264366576E-003 -3.895807379152E-001  2.358123572120E+000 -3.987781431221E+000
  5.077624088844E-001  4.494414468191E-003 -3.790614624142E-001  2.340273855582E+000 -3.984697000862E+000
  5.122735137344E-001  4.527841676074E-003 -3.685447751282E-001  2.322305792934E+000 -3.981426814106E+000
  5.168181856492E-001  4.561549123528E-003 -3.580317618240E-001  2.304219237354E+000 -3.978011114942E+000
  5.213967064523E-001  4.595539985139E-003 -3.475235290815E-001  2.286013877594E+000 -3.974484540527E+000
  5.260093611626E-001  4.629817477421E-003 -3.370212053702E-001  2.267689258330E+000 -3.970876362905E+000
  5.306564380366E-001  4.664384859469E-003 -3.265259420650E-001  2.249244800229E+000 -3.967210732358E+000
  5.353382286118E-001  4.699245433635E-003 -3.160389143994E-001  2.230679819688E+000 -3.963506921833E+000
  5.400550277495E-001  4.734402546198E-003 -3.055613223547E-001  2.211993548228E+000 -3.959779571866E+000
  5.448071336801E-001  4.769859588063E-003 -2.950943914823E-001  2.193185151484E+000 -3.956038935468E+000
  5.495948480470E-001  4.805619995464E-003 -2.846393736590E-001  2.174253747788E+000 -3.952291122447E+000
  5.544184759531E-001  4.841687250679E-003 -2.741975477729E-001  2.155198426296E+000 -3.948538342639E+000
  5.592783260068E-001  4.878064882763E-003 -2.637702203386E-001  2.136018264639E+000 -3.944779147572E+000
  5.641747103692E-001  4.914756468287E-003 -2.533587260413E-001  2.116712346073E+000 -3.941008670069E+000
  5.691079448022E-001  4.951765632101E-003 -2.429644282081E-001  2.097279776102E+000 -3.937218861347E+000
  5.740783487169E-001  4.989096048100E-003 -2.325887192060E-001  2.077719698550E+000 -3.933398725160E+000
  5.790862452232E-001  5.026751440008E-003 -2.222330207654E-001  2.058031311061E+000 -3.929534548584E+000
  5.841319611798E-001  5.064735582181E-003 -2.118987842294E-001  2.038213880014E+000 -3.925610129037E+000
  5.892158272457E-001  5.103052300416E-003 -2.015874907276E-001  2.018266754823E+000 -3.921606997163E+000
  5.943381779314E-001  5.141705472783E-003 -1.913006512744E-001  1.998189381620E+000 -3.917504635226E+000
  5.994993516524E-001  5.180699030465E-003 -1.810398067919E-001  1.977981316296E+000 -3.913280690684E+000
  6.046996907819E-001  5.220036958620E-003 -1.708065280570E-001  1.957642236895E+000 -3.908911184628E+000
  6.099395417058E-001  5.259723297253E-003 -1.606024155728E-001  1.937171955345E+000 -3.904370714816E+000
  6.152192548779E-001  5.299762142113E-003 -1.504290993654E-001  1.916570428519E+000 -3.899632653007E+000
  6.205391848756E-001  5.340157645592E-003 -1.402882387044E-001  1.895837768623E+000 -3.894669336397E+000
  6.258996904579E-001  5.380914017656E-003 -1.301815217507E-001  1.874974252894E+000 -3.889452252890E+000
  6.313011346226E-001  5.422035526786E-003 -1.201106651287E-001  1.853980332618E+000 -3.883952220047E+000
  6.367438846658E-001  5.463526500935E-003 -1.100774134271E-001  1.832856641452E+000 -3.878139557517E+000
  6.422283122416E-001  5.505391328506E-003 -1.000835386261E-001  1.811604003065E+000 -3.871984252804E+000
  6.477547934232E-001  5.547634459350E-003 -9.013083945392E-002  1.790223438074E+000 -3.865456120234E+000
  6.533237087648E-001  5.590260405775E-003 -8.022114067348E-002  1.768716170309E+000 -3.858524953031E+000
  6.589354433645E-001  5.633273743585E-003 -7.035629229946E-002  1.747083632381E+000 -3.851160668384E+000
  6.645903869285E-001  5.676679113133E-003 -6.053816874803E-002  1.725327470577E+000 -3.843333445466E+000
  6.702889338360E-001  5.720481220387E-003 -5.076866792017E-002  1.703449549078E+000 -3.835013856344E+000
  6.760314832053E-001  5.764684838032E-003 -4.104971022019E-002  1.681451953516E+000 -3.826172989746E+000
  6.818184389616E-001  5.809294806578E-003 -3.138323751098E-002  1.659336993864E+000 -3.816782567697E+000
  6.876502099045E-001  5.854316035499E-003 -2.177121200764E-002  1.637107206690E+000 -3.806815055011E+000
  6.935272097784E-001  5.899753504387E-003 -1.221561511125E-002  1.614765356767E+000 -3.796243761680E+000
  6.994498573427E-001  5.945612264135E-003 -2.718446184623E-003  1.592314438062E+000 -3.785042938199E+000
  7.054185764439E-001  5.991897438134E-003  6.718278728141E-003  1.569757674110E+000 -3.773187863895E+000
  7.114337960886E-001  6.038614223503E-003  1.609252823635E-002  1.547098517796E+000 -3.760654928318E+000
  7.174959505179E-001  6.085767892336E-003  2.540225698955E-002  1.524340650545E+000 -3.747421705813E+000
  7.236054792831E-001  6.133363792973E-003  3.464540711458E-002  1.501487980958E+000 -3.733467023346E+000
  7.297628273222E-001  6.181407351299E-003  4.381990970055E-002  1.478544642882E+000 -3.718771021733E+000
  7.359684450389E-001  6.229904072069E-003  5.292368632970E-002  1.455514992961E+000 -3.703315210377E+000
  7.422227883813E-001  6.278859540252E-003  6.195465065189E-002  1.432403607657E+000 -3.687082515670E+000
  7.485263189231E-001  6.328279422409E-003  7.091071000047E-002  1.409215279786E+000 -3.670057323206E+000
  7.548795039463E-001  6.378169468097E-003  7.978976704714E-002  1.385955014561E+000 -3.652225513972E+000
  7.612828165242E-001  6.428535511294E-003  8.858972149362E-002  1.362628025187E+000 -3.633574494681E+000
  7.677367356071E-001  6.479383471858E-003  9.730847179774E-002  1.339239728008E+000 -3.614093222431E+000
  7.742417461085E-001  6.530719357016E-003  1.059439169315E-001  1.315795737231E+000 -3.593772223881E+000
  7.807983389937E-001  6.582549262876E-003  1.144939581686E-001  1.292301859259E+000 -3.572603609121E+000
  7.874070113690E-001  6.634879375977E-003  1.229565008998E-001  1.268764086629E+000 -3.550581080456E+000
  7.940682665732E-001  6.687715974860E-003  1.313294564719E-001  1.245188591601E+000 -3.527699936282E+000
  8.007826142703E-001  6.741065431684E-003  1.396107440505E-001  1.221581719397E+000 -3.503957070287E+000
  8.075505705439E-001  6.794934213858E-003  1.477982925012E-001  1.197949981130E+000 -3.479350966163E+000
  8.143726579935E-001  6.849328885721E-003  1.558900422898E-001  1.174300046423E+000 -3.453881688055E+000
  8.212494058318E-001  6.904256110242E-003  1.638839473961E-001  1.150638735755E+000 -3.427550866961E+000
  8.281813499848E-001  6.959722650769E-003  1.717779772412E-001  1.126973012545E+000 -3.400361683286E+000
  8.351690331927E-001  7.015735372797E-003  1.795701186244E-001  1.103309975001E+000 -3.372318845779E+000
  8.422130051129E-001  7.072301245787E-003  1.872583776683E-001  1.079656847740E+000 -3.343428567053E+000
  8.493138224251E-001  7.129427345011E-003  1.948407817691E-001  1.056020973216E+000 -3.313698535916E+000
  8.564720489381E-001  7.187120853441E-003  2.023153815489E-001  1.032409802969E+000 -3.283137886710E+000
  8.636882556980E-001  7.245389063672E-003  2.096802528102E-001  1.008830888703E+000 -3.251757165871E+000
  8.709630210995E-001  7.304239379887E-003  2.169334984866E-001  9.852918732277E-001 -3.219568295929E+000
  8.782969309978E-001  7.363679319864E-003  2.240732505908E-001  9.618004812743E-001 -3.186584537123E+000
  8.856905788236E-001  7.423716517019E-003  2.310976721551E-001  9.383645102031E-001 -3.152820446860E+000
  8.931445656999E-001  7.484358722495E-003  2.380049591632E-001  9.149918206216E-001 -3.118291837192E+000
  9.006595005604E-001  7.545613807296E-003  2.447933424709E-001  8.916903269308E-001 -3.083015730505E+000
  9.082360002706E-001  7.607489764457E-003  2.514610897131E-001  8.684679878143E-001 -3.047010313611E+000
  9.158746897511E-001  7.669994711271E-003  2.580065071951E-001  8.453327966889E-001 -3.010294890416E+000
  9.235762021029E-001  7.733136891550E-003  2.644279417658E-001  8.222927721298E-001 -2.972889833343E+000
  9.313411787348E-001  7.796924677944E-003  2.707237826705E-001  7.993559482871E-001 -2.934816533667E+000
  9.391702694939E-001  7.861366574302E-003  2.768924633819E-001  7.765303653086E-001 -2.896097350942E+000
  9.470641327977E-001  7.926471218082E-003  2.829324634056E-001  7.538240597809E-001 -2.856755561657E+000
  9.550234357689E-001  7.992247382818E-003  2.888423100592E-001  7.312450552055E-001 -2.816815307281E+000
  9.630488543728E-001  8.058703980632E-003  2.946205802230E-001  7.088013525207E-001 -2.776301541837E+000
  9.711410735573E-001  8.125850064803E-003  3.002659020586E-001  6.865009206836E-001 -2.735239979143E+000
  9.793007873952E-001  8.193694832393E-003  3.057769566954E-001  6.643516873227E-001 -2.693657039840E+000
  9.875286992294E-001  8.262247626919E-003  3.111524798817E-001  6.423615294754E-001 -2.651579798347E+000
  9.958255218206E-001  8.331517941094E-003  3.163912635983E-001  6.205382644189E-001 -2.609035929841E+000
  1.004191977498E+000  8.401515419620E-003  3.214921576334E-001  5.988896406074E-001 -2.566053657383E+000
  1.012628798313E+000  8.472249862042E-003  3.264540711157E-001  5.774233287253E-001 -2.522661699292E+000
  1.021136726194E+000  8.543731225660E-003  3.312759740056E-001  5.561469128657E-001 -2.478889216854E+000
  1.029716513109E+000  8.615969628514E-003  3.359568985399E-001  5.350678818448E-001 -2.434765762471E+000
  1.038368921223E+000  8.688975352422E-003  3.404959406304E-001  5.141936206606E-001 -2.390321228325E+000
  1.047094723068E+000  8.762758846087E-003  3.448922612137E-001  4.935314021049E-001 -2.345585795629E+000
  1.055894701709E+000  8.837330728279E-003  3.491450875500E-001  4.730883785369E-001 -2.300589884560E+000
  1.064769650916E+000  8.912701791077E-003  3.532537144695E-001  4.528715738258E-001 -2.255364104907E+000
  1.073720375339E+000  8.988883003184E-003  3.572175055643E-001  4.328878754714E-001 -2.209939207529E+000
  1.082747690687E+000  9.065885513318E-003  3.610358943245E-001  4.131440269083E-001 -2.164346036656E+000
  1.091852423907E+000  9.143720653676E-003  3.647083852165E-001  3.936466200019E-001 -2.118615483086E+000
  1.101035413375E+000  9.222399943473E-003  3.682345547008E-001  3.744020877421E-001 -2.072778438342E+000
  1.110297509078E+000  9.301935092558E-003  3.716140521897E-001  3.554166971418E-001 -2.026865749804E+000
  1.119639572812E+000  9.382338005116E-003  3.748466009415E-001  3.366965423454E-001 -1.980908176873E+000
  1.129062478375E+000  9.463620783447E-003  3.779319988896E-001  3.182475379538E-001 -1.934936348192E+000
  1.138567111767E+000  9.545795731828E-003  3.808701194061E-001  3.000754125719E-001 -1.888980719955E+000
  1.148154371396E+000  9.628875360468E-003  3.836609119974E-001  2.821857025825E-001 -1.843071535324E+000
  1.157825168286E+000  9.712872389543E-003  3.863044029303E-001  2.645837461537E-001 -1.797238784990E+000
  1.167580426285E+000  9.797799753331E-003  3.888006957870E-001  2.472746774828E-001 -1.751512168880E+000
  1.177421082286E+000  9.883670604431E-003  3.911499719486E-001  2.302634212836E-001 -1.705921059033E+000
  1.187348086445E+000  9.970498318087E-003  3.933524910036E-001  2.135546875198E-001 -1.660494463673E+000
  1.197362402408E+000  1.005829649660E-002  3.954085910829E-001  1.971529663900E-001 -1.615260992460E+000
  1.207465007535E+000  1.014707897384E-002  3.973186891164E-001  1.810625235688E-001 -1.570248822959E+000
  1.217656893142E+000  1.023685981987E-002  3.990832810137E-001  1.652873957070E-001 -1.525485668308E+000
  1.227939064732E+000  1.032765334570E-002  4.007029417641E-001  1.498313861963E-001 -1.480998746119E+000
  1.238312542243E+000  1.041947410807E-002  4.021783254577E-001  1.346980612012E-001 -1.436814748580E+000
  1.248778360294E+000  1.051233691441E-002  4.035101652247E-001  1.198907459628E-001 -1.392959813796E+000
  1.259337568438E+000  1.060625682793E-002  4.046992730919E-001  1.054125213770E-001 -1.349459498346E+000
  1.269991231424E+000  1.070124917277E-002  4.057465397564E-001  9.126622085188E-002 -1.306338751066E+000
  1.280740429454E+000  1.079732953928E-002  4.066529342746E-001  7.745442744621E-002 -1.263621888057E+000
  1.291586258460E+000  1.089451378950E-002  4.074195036663E-001  6.397947129358E-002 -1.221332568910E+000
  1.302529830371E+000  1.099281806261E-002  4.080473724323E-001  5.084342731413E-002 -1.179493774162E+000
  1.313572273397E+000  1.109225878070E-002  4.085377419857E-001  3.804811321750E-002 -1.138127783958E+000
  1.324714732315E+000  1.119285265452E-002  4.088918899958E-001  2.559508779944E-002 -1.097256157932E+000
  1.335958368757E+000  1.129461668945E-002  4.091111696441E-001  1.348564953481E-002 -1.056899716303E+000
  1.347304361512E+000  1.139756819156E-002  4.091970087916E-001  1.720835469425E-003 -1.017078522171E+000
  1.358753906830E+000  1.150172477388E-002  4.091509090583E-001 -9.698579587092E-003 -9.778118650266E-001
  1.370308218725E+000  1.160710436274E-002  4.089744448128E-001 -2.077208356513E-002 -9.391182454515E-001
  1.381968529302E+000  1.171372520431E-002  4.086692620733E-001 -3.149942733389E-002 -9.010153610214E-001
  1.393736089072E+000  1.182160587128E-002  4.082370773198E-001 -4.188062459329E-002 -8.635200933987E-001
  1.405612167285E+000  1.193076526974E-002  4.076796762167E-001 -5.191595145765E-002 -8.266484966137E-001
  1.417598052267E+000  1.204122264614E-002  4.069989122469E-001 -6.160594572970E-002 -7.904157865309E-001
  1.429695051764E+000  1.215299759447E-002  4.061967052574E-001 -7.095140586406E-002 -7.548363314940E-001
  1.441904493292E+000  1.226611006367E-002  4.052750399171E-001 -7.995338961943E-002 -7.199236441480E-001
  1.454227724498E+000  1.238058036509E-002  4.042359640868E-001 -8.861321239881E-002 -6.856903744319E-001
  1.466666113523E+000  1.249642918025E-002  4.030815871027E-001 -9.693244527792E-002 -6.521483037402E-001
  1.479221049379E+000  1.261367756871E-002  4.018140779742E-001 -1.049129127216E-001 -6.193083402454E-001
  1.491893942329E+000  1.273234697619E-002  4.004356634969E-001 -1.125566899886E-001 -5.871805153808E-001
  1.504686224280E+000  1.285245924285E-002  3.989486262817E-001 -1.198661002265E-001 -5.557739814751E-001
  1.517599349178E+000  1.297403661177E-002  3.973553027023E-001 -1.268437112560E-001 -5.250970105363E-001
  1.530634793418E+000  1.309710173770E-002  3.956580807610E-001 -1.334923320480E-001 -4.951569941778E-001
  1.543794056259E+000  1.322167769594E-002  3.938593978766E-001 -1.398150088948E-001 -4.659604446816E-001
  1.557078660250E+000  1.334778799151E-002  3.919617385935E-001 -1.458150212768E-001 -4.375129971921E-001
  1.570490151664E+000  1.347545656850E-002  3.899676322170E-001 -1.514958774290E-001 -4.098194130332E-001
  1.584030100940E+000  1.360470781972E-002  3.878796503745E-001 -1.568613096097E-001 -3.828835841418E-001
  1.597700103140E+000  1.373556659647E-002  3.857004045061E-001 -1.619152690743E-001 -3.567085386084E-001
  1.611501778410E+000  1.386805821873E-002  3.834325432873E-001 -1.666619207603E-001 -3.312964473175E-001
  1.625436772454E+000  1.400220848543E-002  3.810787499855E-001 -1.711056376866E-001 -3.066486316760E-001
  1.639506757019E+000  1.413804368509E-002  3.786417397544E-001 -1.752509950718E-001 -2.827655724198E-001
  1.653713430392E+000  1.427559060672E-002  3.761242568683E-001 -1.791027641792E-001 -2.596469194869E-001
  1.668058517901E+000  1.441487655096E-002  3.735290719001E-001 -1.826659058930E-001 -2.372915029439E-001
  1.682543772437E+000  1.455592934152E-002  3.708589788466E-001 -1.859455640322E-001 -2.156973449513E-001
  1.697170974980E+000  1.469877733692E-002  3.681167922036E-001 -1.889470584108E-001 -1.948616727534E-001
  1.711941935141E+000  1.484344944253E-002  3.653053439966E-001 -1.916758776517E-001 -1.747809326753E-001
  1.726858491717E+000  1.498997512293E-002  3.624274807686E-001 -1.941376717610E-001 -1.554508051094E-001
  1.741922513251E+000  1.513838441457E-002  3.594860605311E-001 -1.963382444745E-001 -1.368662204723E-001
  1.757135898617E+000  1.528870793875E-002  3.564839496816E-001 -1.982835453835E-001 -1.190213761107E-001
  1.772500577606E+000  1.544097691499E-002  3.534240198927E-001 -1.999796618513E-001 -1.019097541347E-001
  1.788018511534E+000  1.559522317469E-002  3.503091449765E-001 -2.014328107301E-001 -8.552414015362E-002
  1.803691693862E+000  1.575147917521E-002  3.471421977300E-001 -2.026493298906E-001 -6.985664288968E-002
  1.819522150824E+000  1.590977801422E-002  3.439260467667E-001 -2.036356695751E-001 -5.489871464199E-002
  1.835511942080E+000  1.607015344457E-002  3.406635533379E-001 -2.043983835870E-001 -4.064117257174E-002
  1.851663161377E+000  1.623263988941E-002  3.373575681508E-001 -2.049441203293E-001 -2.707422077837E-002
  1.867977937225E+000  1.639727245782E-002  3.340109281881E-001 -2.052796137056E-001 -1.418747313424E-002
  1.884458433596E+000  1.656408696083E-002  3.306264535339E-001 -2.054116738981E-001 -1.969976843820E-003
  1.901106850627E+000  1.673311992779E-002  3.272069442130E-001 -2.053471780355E-001  9.589763308411E-003
  1.917925425352E+000  1.690440862332E-002  3.237551770478E-001 -2.050930607679E-001  2.050376005876E-002
  1.934916432447E+000  1.707799106458E-002  3.202739025401E-001 -2.046563047625E-001  3.078451815310E-002
  1.952082184984E+000  1.725390603910E-002  3.167658417825E-001 -2.040439311368E-001  4.044500826440E-002
  1.969425035219E+000  1.743219312307E-002  3.132336834064E-001 -2.032629898452E-001  4.949864038174E-002
  1.986947375385E+000  1.761289270008E-002  3.096800805720E-001 -2.023205500363E-001  5.795923671470E-002
  2.004651638511E+000  1.779604598045E-002  3.061076480065E-001 -2.012236903974E-001  6.584100415915E-002
  2.022540299257E+000  1.798169502102E-002  3.025189590978E-001 -1.999794895042E-001  7.315850637154E-002
  2.040615874771E+000  1.816988274555E-002  2.989165430478E-001 -1.985950161930E-001  7.992663550041E-002
  2.058880925569E+000  1.836065296558E-002  2.953028820933E-001 -1.970773199743E-001  8.616058362537E-002
  2.077338056431E+000  1.855405040203E-002  2.916804088003E-001 -1.954334215045E-001  9.187581395476E-002
  2.095989917319E+000  1.875012070721E-002  2.880515034371E-001 -1.936703031367E-001  9.708803183485E-002
  2.114839204326E+000  1.894891048761E-002  2.844184914331E-001 -1.917948995666E-001  1.018131556242E-001
  2.133888660636E+000  1.915046732719E-002  2.807836409298E-001 -1.898140885940E-001  1.060672874882E-001
  2.153141077517E+000  1.935483981146E-002  2.771491604279E-001 -1.877346820187E-001  1.098666841686E-001
  2.172599295333E+000  1.956207755211E-002  2.735171965396E-001 -1.855634166885E-001  1.132277277866E-001
  2.192266204583E+000  1.977223121241E-002  2.698898318486E-001 -1.833069457190E-001  1.161668967337E-001
  2.212144746966E+000  1.998535253333E-002  2.662690828862E-001 -1.809718299047E-001  1.187007367108E-001
  2.232237916472E+000  2.020149436036E-002  2.626568982267E-001 -1.785645293380E-001  1.208458319713E-001
  2.252548760501E+000  2.042071067117E-002  2.590551567094E-001 -1.760913952559E-001  1.226187768285E-001
  2.273080381009E+000  2.064305660393E-002  2.554656657908E-001 -1.735586621333E-001  1.240361474843E-001
  2.293835935679E+000  2.086858848664E-002  2.518901600325E-001 -1.709724400379E-001  1.251144742375E-001
  2.314818639134E+000  2.109736386713E-002  2.483302997298E-001 -1.683387072676E-001  1.258702141305E-001
  2.336031764165E+000  2.132944154399E-002  2.447876696844E-001 -1.656633032852E-001  1.263197240919E-001
  2.357478643000E+000  2.156488159846E-002  2.412637781268E-001 -1.629519219669E-001  1.264792346308E-001
  2.379162668605E+000  2.180374542716E-002  2.377600557903E-001 -1.602101051823E-001  1.263648241407E-001
  2.401087296012E+000  2.204609577583E-002  2.342778551419E-001 -1.574432367191E-001  1.259923938670E-001
  2.423256043690E+000  2.229199677406E-002  2.308184497722E-001 -1.546565365689E-001  1.253776435925E-001
  2.445672494944E+000  2.254151397102E-002  2.273830339474E-001 -1.518550555866E-001  1.245360480944E-001
  2.468340299351E+000  2.279471437225E-002  2.239727223254E-001 -1.490436705376E-001  1.234828344225E-001
  2.491263174239E+000  2.305166647761E-002  2.205885498391E-001 -1.462270795444E-001  1.222329600491E-001
  2.514444906201E+000  2.331244032027E-002  2.172314717469E-001 -1.434097979441E-001  1.208010919385E-001
  2.537889352643E+000  2.357710750690E-002  2.139023638530E-001 -1.405961545668E-001  1.192015865798E-001
  2.561600443385E+000  2.384574125913E-002  2.106020228973E-001 -1.377902884450E-001  1.174484710287E-001
  2.585582182291E+000  2.411841645615E-002  2.073311671157E-001 -1.349961459606E-001  1.155554249958E-001
  2.609838648953E+000  2.439520967871E-002  2.040904369700E-001 -1.322174784388E-001  1.135357640228E-001
  2.634374000412E+000  2.467619925437E-002  2.008803960473E-001 -1.294578401921E-001  1.114024237788E-001
  2.659192472932E+000  2.496146530420E-002  1.977015321273E-001 -1.267205870212E-001  1.091679455103E-001
  2.684298383812E+000  2.525108979086E-002  1.945542584154E-001 -1.240088751746E-001  1.068444626740E-001
  2.709696133256E+000  2.554515656820E-002  1.914389149411E-001 -1.213256607702E-001  1.044436887771E-001
  2.735390206289E+000  2.584375143236E-002  1.883557701160E-001 -1.186736996775E-001  1.019769064478E-001
  2.761385174724E+000  2.614696217447E-002  1.853050224513E-001 -1.160555478624E-001  9.945495775487E-002
  2.787685699187E+000  2.645487863501E-002  1.822868024286E-001 -1.134735621894E-001  9.688823579046E-002
  2.814296531191E+000  2.676759275979E-002  1.793011745207E-001 -1.109299016805E-001  9.428667752718E-002
  2.841222515273E+000  2.708519865783E-002  1.763481393582E-001 -1.084265292233E-001  9.165975795703E-002
  2.868468591183E+000  2.740779266088E-002  1.734276360345E-001 -1.059652137234E-001  8.901648551468E-002
  2.896039796142E+000  2.773547338500E-002  1.705395445460E-001 -1.035475326921E-001  8.636539878416E-002
  2.923941267155E+000  2.806834179396E-002  1.676836883590E-001 -1.011748752613E-001  8.371456448381E-002
  2.952178243390E+000  2.840650126474E-002  1.648598370971E-001 -9.884844561322E-002  8.107157671999E-002
  2.980756068629E+000  2.875005765509E-002  1.620677093429E-001 -9.656926681353E-002  7.844355749600E-002
  3.009680193780E+000  2.909911937326E-002  1.593069755440E-001 -9.433818503467E-002  7.583715845842E-002
  3.038956179465E+000  2.945379745002E-002  1.565772610177E-001 -9.215587415328E-002  7.325856385892E-002
  3.068589698678E+000  2.981420561296E-002  1.538781490433E-001 -9.002284070623E-002  7.071349470543E-002
  3.098586539522E+000  3.018046036322E-002  1.512091840351E-001 -8.793942918737E-002  6.820721407254E-002
  3.128952608019E+000  3.055268105474E-002  1.485698747850E-001 -8.590582766608E-002  6.574453353699E-002
  3.159693931008E+000  3.093098997614E-002  1.459596977671E-001 -8.392207370793E-002  6.332982070020E-002
  3.190816659116E+000  3.131551243519E-002  1.433781004916E-001 -8.198806057597E-002  6.096700775606E-002
  3.222327069827E+000  3.170637684618E-002  1.408245049004E-001 -8.010354369089E-002  5.865960105868E-002
  3.254231570626E+000  3.210371482016E-002  1.382983107920E-001 -7.826814732676E-002  5.641069164102E-002
  3.286536702251E+000  3.250766125815E-002  1.357988992666E-001 -7.648137151858E-002  5.422296663261E-002
  3.319249142021E+000  3.291835444751E-002  1.333256361790E-001 -7.474259915685E-002  5.209872152085E-002
  3.352375707281E+000  3.333593616154E-002  1.308778755893E-001 -7.305110324398E-002  5.003987319817E-002
  3.385923358932E+000  3.376055176243E-002  1.284549632011E-001 -7.140605428645E-002  4.804797373426E-002
  3.419899205078E+000  3.419235030771E-002  1.260562397740E-001 -6.980652779657E-002  4.612422481057E-002
  3.454310504773E+000  3.463148466035E-002  1.236810445019E-001 -6.825151187696E-002  4.426949275198E-002
  3.489164671884E+000  3.507811160254E-002  1.213287183445E-001 -6.673991486100E-002  4.248432408904E-002
  3.524469279068E+000  3.553239195349E-002  1.189986073013E-001 -6.527057298222E-002  4.076896158255E-002
  3.560232061872E+000  3.599449069121E-002  1.166900656189E-001 -6.384225804554E-002  3.912336064104E-002
  3.596460922951E+000  3.646457707851E-002  1.144024589190E-001 -6.245368507364E-002  3.754720606126E-002
  3.633163936421E+000  3.694282479345E-002  1.121351672383E-001 -6.110351990190E-002  3.603992902088E-002
  3.670349352338E+000  3.742941206427E-002  1.098875879700E-001 -5.979038669562E-002  3.460072425283E-002
  3.708025601321E+000  3.792452180909E-002  1.076591386980E-001 -5.851287536408E-002  3.322856733074E-002
  3.746201299310E+000  3.842834178055E-002  1.054492599122E-001 -5.726954884627E-002  3.192223199564E-002
  3.784885252479E+000  3.894106471552E-002  1.032574176001E-001 -5.605895024426E-002  3.068030745492E-002
  3.824086462295E+000  3.946288849018E-002  1.010831057023E-001 -5.487960978069E-002  2.950121558587E-002
  3.863814130737E+000  3.999401628061E-002  9.892584842667E-002 -5.373005155823E-002  2.838322797788E-002
  3.904077665680E+000  4.053465672917E-002  9.678520241374E-002 -5.260880009976E-002  2.732448274901E-002
  3.944886686444E+000  4.108502411682E-002  9.466075874489E-002 -5.151438664923E-002  2.632300107533E-002
  3.986251029526E+000  4.164533854175E-002  9.255214478931E-002 -5.044535521469E-002  2.537670337385E-002
  4.028180754505E+000  4.221582610447E-002  9.045902588294E-002 -4.940026833602E-002  2.448342508258E-002
  4.070686150141E+000  4.279671909963E-002  8.838110683509E-002 -4.837771256182E-002  2.364093198499E-002
  4.113777740671E+000  4.338825621494E-002  8.631813325838E-002 -4.737630362116E-002  2.284693502886E-002
  4.157466292298E+000  4.399068273736E-002  8.426989271869E-002 -4.639469127758E-002  2.209910459396E-002
  4.201762819903E+000  4.460425076701E-002  8.223621570216E-002 -4.543156385454E-002  2.139508416627E-002
  4.246678593965E+000  4.522921943893E-002  8.021697639723E-002 -4.448565242307E-002  2.073250338101E-002
  4.292225147712E+000  4.586585515324E-002  7.821209329049E-002 -4.355573464434E-002  2.010899040079E-002
  4.338414284501E+000  4.651443181386E-002  7.622152957534E-002 -4.264063826125E-002  1.952218359955E-002
  4.385258085451E+000  4.717523107627E-002  7.424529337390E-002 -4.173924423550E-002  1.896974252768E-002
  4.432768917317E+000  4.784854260471E-002  7.228343777251E-002 -4.085048952778E-002  1.844935813806E-002
  4.480959440634E+000  4.853466433906E-002  7.033606067249E-002 -3.997336952087E-002  1.795876225738E-002
  4.529842618130E+000  4.923390277205E-002  6.840330445809E-002 -3.910694008706E-002  1.749573629197E-002
  4.579431723421E+000  4.994657323711E-002  6.648535548431E-002 -3.825031930287E-002  1.705811916149E-002
  4.629740350001E+000  5.067300020725E-002  6.458244338805E-002 -3.740268881589E-002  1.664381445880E-002
  4.680782420536E+000  5.141351760571E-002  6.269484022622E-002 -3.656329486988E-002  1.625079683848E-002
  4.732572196475E+000  5.216846912857E-002  6.082285944552E-002 -3.573144899611E-002  1.587711764070E-002
  4.785124287986E+000  5.293820858010E-002  5.896685468871E-002 -3.490652837981E-002  1.552090976161E-002
  4.838453664244E+000  5.372310022136E-002  5.712721844277E-002 -3.408797591254E-002  1.518039178487E-002
  4.892575664061E+000  5.452351913246E-002  5.530438053504E-002 -3.327529994191E-002  1.485387139308E-002
  4.947506006896E+000  5.533985158941E-002  5.349880648338E-002 -3.246807373158E-002  1.453974808102E-002
  5.003260804243E+000  5.617249545595E-002  5.171099570718E-002 -3.166593464528E-002  1.423651519607E-002
  5.059856571426E+000  5.702186059109E-002  4.994147960613E-002 -3.086858306941E-002  1.394276133381E-002
  5.117310239798E+000  5.788836927326E-002  4.819081951399E-002 -3.007578108968E-002  1.365717111966E-002
  5.175639169387E+000  5.877245664153E-002  4.645960453492E-002 -2.928735093766E-002  1.337852540950E-002
  5.234861161977E+000  5.967457115491E-002  4.474844926991E-002 -2.850317322364E-002  1.310570094423E-002
  5.294994474672E+000  6.059517507053E-002  4.305799144128E-002 -2.772318497270E-002  1.283766949485E-002
  5.356057833938E+000  6.153474494144E-002  4.138888942325E-002 -2.694737748078E-002  1.257349653588E-002
  5.418070450158E+000  6.249377213514E-002  3.974181968642E-002 -2.617579400797E-002  1.231233948563E-002
  5.481052032713E+000  6.347276337365E-002  3.811747416448E-002 -2.540852732587E-002  1.205344555290E-002
  5.545022805617E+000  6.447224129620E-002  3.651655755119E-002 -2.464571713602E-002  1.179614922922E-002
  5.610003523725E+000  6.549274504570E-002  3.493978453569E-002 -2.388754737599E-002  1.153986946625E-002
  5.676015489539E+000  6.653483087989E-002  3.338787698442E-002 -2.313424342917E-002  1.128410657712E-002
  5.743080570645E+000  6.759907280862E-002  3.186156107749E-002 -2.238606925429E-002  1.102843889991E-002
  5.811221217785E+000  6.868606325834E-002  3.036156440777E-002 -2.164332444968E-002  1.077251926058E-002
  5.880460483627E+000  6.979641376515E-002  2.888861305043E-002 -2.090634126695E-002  1.051607127111E-002
  5.950822042228E+000  7.093075569785E-002  2.744342861098E-002 -2.017548158802E-002  1.025888549736E-002
  6.022330209245E+000  7.208974101243E-002  2.602672525962E-002 -1.945113387867E-002  1.000081552941E-002
  6.095009962911E+000  7.327404303952E-002  2.463920675966E-002 -1.873371013098E-002  9.741773985181E-003
  6.168886965815E+000  7.448435730644E-002  2.328156349772E-002 -1.802364280635E-002  9.481728476147E-003
  6.243987587532E+000  7.572140239564E-002  2.195446952357E-002 -1.732138178993E-002  9.220697561903E-003
  6.320338928115E+000  7.698592084123E-002  2.065857960714E-002 -1.662739136637E-002  8.958746717978E-003
  6.397968842520E+000  7.827868006559E-002  1.939452632045E-002 -1.594214722617E-002  8.695984339115E-003
  6.476905965970E+000  7.960047335811E-002  1.816291715235E-002 -1.526613351115E-002  8.432557797900E-003
  6.557179740341E+000  8.095212089813E-002  1.696433166363E-002 -1.459983990646E-002  8.168649576306E-003
  6.638820441572E+000  8.233447082436E-002  1.579931869059E-002 -1.394375878644E-002  7.904473485497E-003
  6.721859208188E+000  8.374840035322E-002  1.466839360493E-002 -1.329838242046E-002  7.640270987006E-003
  6.806328070951E+000  8.519481694860E-002  1.357203563821E-002 -1.266420024448E-002  7.376307626282E-003
  6.892259983722E+000  8.667465954569E-002  1.251068527904E-002 -1.204169620364E-002  7.112869587610E-003
  6.979688855560E+000  8.818889983170E-002  1.148474175164E-002 -1.143134617054E-002  6.850260377509E-003
  7.068649584147E+000  8.973854358657E-002  1.049456058439E-002 -1.083361544359E-002  6.588797641968E-003
  7.159178090571E+000  9.132463208668E-002  9.540451277338E-003 -1.024895632939E-002  6.328810121304E-003
  7.251311355556E+000  9.294824357511E-002  8.622675077827E-003 -9.677805813012E-003  6.070634744983E-003
  7.345087457189E+000  9.461049480179E-002  7.741442873689E-003 -9.120583319770E-003  5.814613867527E-003
  7.440545610231E+000  9.631254263753E-002  6.896913213727E-003 -8.577688571904E-003  5.561092645528E-003
  7.537726207077E+000  9.805558576575E-002  6.089190465380E-003 -8.049499543726E-003  5.310416554892E-003
  7.636670860445E+000  9.984086645629E-002  5.318323119786E-003 -7.536370518671E-003  5.062929046744E-003
  7.737422447889E+000  1.016696724257E-001  4.584302254632E-003 -7.038630251816E-003  4.818969339837E-003
  7.840025158212E+000  1.035433387888E-001  3.887060165358E-003 -6.556580241556E-003  4.578870346919E-003
  7.944524539879E+000  1.054632501069E-001  3.226469175460E-003 -6.090493114246E-003  4.342956732300E-003
  8.050967551532E+000  1.074308425370E-001  2.602340636679E-003 -5.640611125853E-003  4.111543097706E-003
  8.159402614703E+000  1.094476060897E-001  2.014424129940E-003 -5.207144784820E-003  3.884932293568E-003
  8.269879668844E+000  1.115150869994E-001  1.462406877810E-003 -4.790271600559E-003  3.663413853001E-003
  8.382450228789E+000  1.136348902153E-001  9.459133791420E-004 -4.390134962205E-003  3.447262545954E-003
  8.497167444759E+000  1.158086820192E-001  4.645052763280E-004 -4.006843152407E-003  3.236737051284E-003
  8.614086165068E+000  1.180381927775E-001  1.768146524337E-005 -3.640468501122E-003  3.032078744900E-003
  8.733263001636E+000  1.203252198350E-001 -3.951215424985E-004 -3.291046684441E-003  2.833510602459E-003
  8.854756398480E+000  1.226716305592E-001 -7.745289959489E-004 -2.958576173565E-003  2.641236215539E-003
  8.978626703324E+000  1.250793655439E-001 -1.121227011589E-003 -2.643017838999E-003  2.455438920597E-003
  9.104936242495E+000  1.275504419814E-001 -1.435961403046E-003 -2.344294714981E-003  2.276281040458E-003
  9.233749399286E+000  1.300869572130E-001 -1.719536227385E-003 -2.062291928942E-003  2.103903238383E-003
  9.365132695954E+000  1.326910924689E-001 -1.972812042816E-003 -1.796856800558E-003  1.938423985166E-003
  9.499154879564E+000  1.353651168096E-001 -2.196703874028E-003 -1.547799114553E-003  1.779939139904E-003
  9.635887011879E+000  1.381113912793E-001 -2.392178882908E-003 -1.314891570948E-003  1.628521645344E-003
  9.775402563513E+000  1.409323732860E-001 -2.560253744140E-003 -1.097870415821E-003  1.484221338785E-003
  9.917777512585E+000  1.438306212216E-001 -2.701991727069E-003 -8.964362549480E-004  1.347064879591E-003
  1.006309044812E+001  1.468087993362E-001 -2.818499487310E-003 -7.102550518266E-004  1.217055794273E-003
  1.021142267844E+001  1.498696828841E-001 -2.910923573777E-003 -5.389593106333E-004  1.094174639976E-003
  1.036285834490E+001  1.530161635571E-001 -2.980446659271E-003 -3.821494435536E-004  9.783792869399E-004
  1.051748454113E+001  1.562512552237E-001 -3.028283505242E-003 -2.393953207289E-004  8.696053201284E-004
  1.067539143822E+001  1.595780999949E-001 -3.055676674057E-003 -1.102379997255E-004  7.677665598006E-004
  1.083667241617E+001  1.629999746353E-001 -3.063892004876E-003  5.808369997823E-006  6.727557001984E-004
  1.100142420186E+001  1.665202973437E-001 -3.054213872095E-003  1.092544736847E-004  5.844450648980E-004
  1.116974701408E+001  1.701426349276E-001 -3.027940248275E-003  2.006335966142E-004  5.026874766188E-004
  1.134174471586E+001  1.738707103947E-001 -2.986377596402E-003  2.804992375438E-004  4.273172384558E-004
  1.151752497466E+001  1.777084109932E-001 -2.930835619317E-003  3.494225813744E-004  3.581512226063E-004
  1.169719943087E+001  1.816597967262E-001 -2.862621897010E-003  4.079898439350E-004  2.949900616933E-004
  1.188088387496E+001  1.857291093767E-001 -2.783036445351E-003  4.567995035732E-004  2.376194367776E-004
  1.206869843407E+001  1.899207820734E-001 -2.693366232465E-003  4.964594360227E-004  1.858114550980E-004
  1.226076776831E+001  1.942394494375E-001 -2.594879691465E-003  5.275839707581E-004  1.393261095071E-004
  1.245722127764E+001  1.986899583485E-001 -2.488821270530E-003  5.507908887221E-004  9.791281049346E-005
  1.265819331976E+001  2.032773793727E-001 -2.376406063229E-003  5.666983828793E-004  6.131198061627E-005
  1.286382343979E+001  2.080070189001E-001 -2.258814563629E-003  5.759220044941E-004  2.925670015152E-005
  1.307425661251E+001  2.128844320404E-001 -2.137187591871E-003  5.790716192947E-004  1.474391769242E-006
  1.328964349784E+001  2.179154363305E-001 -2.012621436640E-003  5.767483987529E-004 -2.231146883642E-005
  1.351014071049E+001  2.231061263126E-001 -1.886163261110E-003  5.695418725349E-004 -4.237963024673E-005
  1.373591110462E+001  2.284628890454E-001 -1.758806818535E-003  5.580270687248E-004 -5.900934511190E-005
  1.396712407456E+001  2.339924206157E-001 -1.631488522644E-003  5.427617686638E-004 -7.247866754311E-005
  1.420395587253E+001  2.397017437236E-001 -1.505083916242E-003  5.242839031423E-004 -8.306278358284E-005
  1.444658994448E+001  2.455982264215E-001 -1.380404579010E-003  5.031091162063E-004 -9.103239042288E-005
  1.469521728540E+001  2.516896020909E-001 -1.258195512326E-003  4.797285219697E-004 -9.665214002445E-005
  1.495003681512E+001  2.579839907514E-001 -1.139133034986E-003  4.546066785292E-004 -1.001791625576E-004
  1.521125577622E+001  2.644899218023E-001 -1.023823219060E-003  4.281798013638E-004 -1.018616846035E-004
  1.547909015543E+001  2.712163583054E-001 -9.128008896726E-004  4.008542364400E-004 -1.019377563419E-004
  1.575376513012E+001  2.781727229283E-001 -8.065292064242E-004  3.730052106567E-004 -1.006341009721E-004
  1.603551554159E+001  2.853689256764E-001 -7.053998373685E-004  3.449758742494E-004 -9.816509838456E-005
  1.632458639709E+001  2.928153935541E-001 -6.097337291570E-004  3.170766463650E-004 -9.473191361806E-005
  1.662123340252E+001  3.005231023070E-001 -5.197824691199E-004  2.895848712447E-004 -9.052177891289E-005
  1.692572352795E+001  3.085036104120E-001 -4.357302268722E-004  2.627447883594E-004 -8.570743622058E-005
  1.723833560836E+001  3.167690954931E-001 -3.576962546103E-004  2.367678154965E-004 -8.044674487795E-005
  1.755936098209E+001  3.253323933637E-001 -2.857379167657E-004  2.118331392540E-004 -7.488245682918E-005
  1.788910416970E+001  3.342070399064E-001 -2.198542112798E-004  1.880886027608E-004 -6.914215932084E-005
  1.822788359628E+001  3.434073160264E-001 -1.599897366434E-004  1.656518757811E-004 -6.333838244627E-005
  1.857603236030E+001  3.529482959355E-001 -1.060390512067E-004  1.446118877984E-004 -5.756886632751E-005
  1.893389905255E+001  3.628458990439E-001 -5.785136431783E-005  1.250305003025E-004 -5.191698015138E-005
  1.930184862892E+001  3.731169457693E-001 -1.523549279039E-005  1.069443904484E-004 -4.645228278187E-005
  1.968026334107E+001  3.837792175970E-001  2.203498875885E-005  9.036711462152E-005 -4.123121231613E-005
  2.006954372940E+001  3.948515217593E-001  5.421647884041E-005  7.529131735156E-005 -3.629788980137E-005
  2.047010968326E+001  4.063537609380E-001  8.159003865762E-005  6.169104856542E-005 -3.168502044732E-005
  2.088240157348E+001  4.183070084331E-001  1.044561183151E-004  4.952415045951E-005 -2.741487411384E-005
  2.130688146304E+001  4.307335892843E-001  1.231293966297E-004  3.873467437832E-005 -2.350032568121E-005
  2.174403440204E+001  4.436571678818E-001  1.379338087045E-004  2.925528807465E-005 -1.994593516651E-005
  2.219436981380E+001  4.571028426551E-001  1.491978308776E-004  2.100963463148E-005 -1.674904717025E-005
  2.265842297941E+001  4.710972484907E-001  1.572500863942E-004  1.391460615700E-005 -1.390088944564E-005
  2.313675662891E+001  4.856686675957E-001  1.624153273007E-004  7.882498103007E-006 -1.138765108640E-005
  2.362996264783E+001  5.008471495974E-001  1.650108387726E-004  2.823013649107E-006 -9.191522019354E-006
  2.413866390885E+001  5.166646417563E-001  1.653433016143E-004 -1.354908043505E-006 -7.291677139406E-006
  2.466351623912E+001  5.331551302586E-001  1.637061372787E-004 -4.741460892295E-006 -5.665190492790E-006
  2.520521053481E+001  5.503547936605E-001  1.603773477967E-004 -7.424553933987E-006 -4.287867338687E-006
  2.576447503577E+001  5.683021696742E-001  1.556178508437E-004 -9.488616162447E-006 -3.134984622650E-006
  2.634207777407E+001  5.870383366128E-001  1.496702982124E-004 -1.101362799114E-005 -2.181933287380E-006
  2.693882921201E+001  6.066071109618E-001  1.427583546064E-004 -1.207437724172E-005 -1.404758826934E-006
  2.755558508639E+001  6.270552627056E-001  1.350864033210E-004 -1.273993190605E-005 -7.805994530925E-007
  2.819324947776E+001  6.484327502262E-001  1.268396364082E-004 -1.307331674738E-005 -2.880240799506E-007
  2.885277812517E+001  6.707929767977E-001  1.181844796486E-004 -1.313137628236E-005  9.272505856560E-008
  2.953518200912E+001  6.941930709355E-001  1.092692973347E-004 -1.296480297757E-005  3.795780573905E-007
  3.024153122790E+001  7.186941931267E-001  1.002253186798E-004 -1.261830672434E-005  5.885622698857E-007
  3.097295919495E+001  7.443618717672E-001  9.116772668742E-005 -1.213089990489E-005  7.337961099799E-007
  3.173066718806E+001  7.712663714701E-001  8.219685152043E-005 -1.153627165983E-005  8.275403940514E-007
  3.251592928460E+001  7.994830973013E-001  7.339941368468E-005 -1.086322529445E-005  8.802954752078E-007
  3.333009772051E+001  8.290930389286E-001  6.484976745770E-005 -1.013615404511E-005  9.009325035852E-007
  3.417460871528E+001  8.601832591771E-001  5.661110165129E-005 -9.375532552513E-006  8.968476830018E-007
  3.505098880977E+001  8.928474320473E-001  4.873656262108E-005 -8.598404197600E-006  8.741293245355E-007
  3.596086176914E+001  9.271864359010E-001  4.127027300919E-005 -7.818847762333E-006  8.377287409354E-007
  3.690595610915E+001  9.633090082622E-001  3.424822859089E-005 -7.048410480282E-006  7.916274893441E-007
  3.788811331115E+001  1.001332469528E+000  2.769906436327E-005 -6.296498234012E-006  7.389950548446E-007
  3.890929679856E+001  1.041383523854E+000  2.164468926984E-005 -5.570717243727E-006  6.823326762195E-007
  3.997160175674E+001  1.083599146603E+000  1.610079636070E-005 -4.877164902799E-006  6.236005582546E-007
  4.107726588793E+001  1.128127569018E+000  1.107726148251E-005 -4.220670313138E-006  5.643271159404E-007
  4.222868120450E+001  1.175129372278E+000  6.578448595433E-006 -3.604987460137E-006  5.057000972359E-007
  4.342840697663E+001  1.224778704785E+000  2.603443435504E-006 -3.032945790586E-006  4.486403958081E-007
  4.467918396542E+001  1.277264638541E+000 -8.537605315516E-007 -2.506564208143E-006  3.938600779688E-007
  4.598395008935E+001  1.332792682730E+000 -3.804099028140E-006 -2.027135208850E-006  3.419066136978E-007
  4.734585769151E+001  1.391586475316E+000 -6.263272255700E-006 -1.595286103538E-006  2.931955419111E-007
  4.876829259716E+001  1.453889676562E+000 -8.251555491909E-006 -1.211024095008E-006  2.480338493283E-007
  5.025489517720E+001  1.519968091986E+000 -9.793564305971E-006 -8.737714857565E-007  2.066362421130E-007
  5.180958366227E+001  1.590112056525E+000 -1.091795689030E-005 -5.823965761000E-007  1.691362838432E-007
  5.343657998668E+001  1.664639116609E+000 -1.165705988015E-005 -3.352449537696E-007  1.355941038972E-007
  5.514043848090E+001  1.743897052700E+000 -1.204640849280E-005 -1.301749400726E-007  1.060020826665E-007
  5.692607777699E+001  1.828267291687E+000 -1.212419678192E-005  3.540000655853E-008  8.028962176168E-008
  5.879881634504E+001  1.918168766646E+000 -1.193063919226E-005  1.644600896932E-007  5.832782735287E-008
  6.076441214047E+001  2.014062291031E+000 -1.150725032268E-005  2.603182760241E-007  3.993468352015E-008
  6.282910691492E+001  2.116455525731E+000 -1.089605573716E-005  3.265497059285E-007  2.488107376300E-008
  6.499967582838E+001  2.225908630961E+000 -1.013875262039E-005  3.669122911253E-007  1.289782170814E-008
  6.728348309978E+001  2.343040711053E+000 -9.275844803993E-006  3.852601995821E-007  3.683763161599E-009
  6.968854455109E+001  2.468537179520E+000 -8.345781853868E-006  3.854526850564E-007 -3.085272914356E-009
  7.222359803827E+001  2.603158194911E+000 -7.384136090703E-006  3.712613823834E-007 -7.746809998879E-009
  7.489818292638E+001  2.747748345818E+000 -6.422854132072E-006  3.462797202696E-007 -1.064172415446E-008
  7.772272996116E+001  2.903247797049E+000 -5.489620283662E-006  3.138384519352E-007 -1.210429714976E-008
  8.070866312062E+001  3.070705149711E+000 -4.607367378445E-006  2.769314167160E-007 -1.245276608793E-008
  8.386851530746E+001  3.251292317482E+000 -3.793966070669E-006  2.381554713077E-007 -1.198082817586E-008
  8.721606007395E+001  3.446321781761E+000 -3.062115920486E-006  1.996680280680E-007 -1.095053971415E-008
  9.076646196997E+001  3.657266662366E+000 -2.419450912053E-006  1.631647924906E-007 -9.586990740009E-009
  9.453644858496E+001  3.885784131323E+000 -1.868858749457E-006  1.298791187502E-007 -8.075040291873E-009
  9.854450793646E+001  4.133742809499E+000 -1.408998207788E-006  1.006029597479E-007 -6.558265282179E-009
  1.028111155645E+002  4.403254924748E+000 -1.034983252513E-006  7.572778267492E-008 -5.140116744342E-009
  1.073589965532E+002  4.696714183174E+000 -7.391882268589E-007  5.530220523640E-008 -3.887104354414E-009
  1.122134287562E+002  5.016840521185E+000 -5.121170198763E-007  3.910166921791E-008 -2.833661917579E-009
  1.174025948014E+002  5.366733177321E+000 -3.432726243053E-007  2.670440899249E-008 -1.988204219666E-009
  1.229579920527E+002  5.749933865154E+000 -2.219633820691E-007  1.756747732698E-008 -1.339790566696E-009
  1.289149116977E+002  6.170502262575E+000 -1.379892889818E-007  1.109678824290E-008 -8.647799095744E-010
  1.353130006092E+002  6.633106586062E+000 -8.216573569850E-008  6.706061820854E-009 -5.329060456810E-010
  1.421969227381E+002  7.143132727652E+000 -4.666150881001E-008  3.861122454018E-009 -3.123167394147E-010
  1.496171407104E+002  7.706816346505E+000 -2.515008876378E-008  2.107996428479E-009 -1.732920981933E-010
  1.576308432581E+002  8.331403492543E+000 -1.279476318342E-008  1.085360168400E-009 -9.055745882016E-011
  1.663030504329E+002  9.025346887010E+000 -6.105176325320E-009  5.237449074580E-010 -4.429927062854E-011
  1.757079366439E+002  9.798547017815E+000 -2.712713521624E-009  2.351813227600E-010 -2.014419287261E-011
  1.859304220014E+002  1.066264989726E+001 -1.113148037514E-009  9.746561151377E-011 -8.446214271733E-012
  1.970680960005E+002  1.163141691467E+001 -4.178332412247E-010  3.692710404271E-011 -3.234855164339E-012
  2.092335553009E+002  1.272118703170E+001 -1.418945119937E-010  1.265071538403E-011 -1.119423908431E-012
  2.225572606979E+002  1.395145808866E+001 -4.304104943106E-011  3.869189766555E-012 -3.455978849573E-013
  2.371910493695E+002  1.534562289772E+001 -1.148883657285E-011  1.040869972865E-012 -9.378798023394E-014
  2.533124799663E+002  1.693190807750E+001 -2.651906966218E-012  2.420309704115E-013 -2.198732327839E-014
  2.711302441348E+002  1.874458067646E+001 -5.185621970611E-013  4.765699958763E-014 -4.362645306638E-015
  2.908909544388E+002  2.082551167268E+001 -8.383785735969E-014  7.755519022144E-015 -7.150632623570E-016
  3.128877238100E+002  2.322621962380E+001 -1.088697211153E-014  1.013360429210E-015 -9.406150971069E-017
  3.374710980131E+002  2.601056692963E+001 -1.096868414344E-015  1.026945547244E-016 -9.592403680621E-018
  3.650631086275E+002  2.925835283909E+001 -8.223367394635E-017  7.741700005263E-018 -7.274079973391E-019
  3.961755076120E+002  3.307015317425E+001 -4.360995373078E-018  4.126964756684E-019 -3.899191632470E-020
  4.314336683593E+002  3.757391532916E+001 -1.537613075638E-019  1.462250472437E-020 -1.388729310412E-021
  4.716082588016E+002  4.293405845494E+001 -3.339179187277E-021  3.190221505584E-022 -3.044578167688E-023
  5.176577150124E+002  4.936420231634E+001 -4.061174304893E-023  3.896917368044E-024 -3.735975519361E-025
  5.707859389821E+002  5.714523722280E+001 -2.454452738362E-025  2.364827523224E-026 -2.276835982972E-027
  6.325217920593E+002  6.665139453392E+001 -6.332300337146E-028  6.124527691357E-029 -5.920159218391E-030
  7.048303277946E+002  7.838853393393E+001 -5.735964561372E-031  5.567738463812E-032 -5.401976656133E-033
  7.902711186136E+002  9.305148431214E+001 -1.414114525112E-034  1.377262526308E-035 -1.340890311100E-036
  8.922279220017E+002  1.116118049127E+002 -6.774807751822E-039  6.618973317901E-040 -6.464929975118E-041
  1.015248934885E+003  1.354553960369E+002 -4.009587373568E-044  3.928796067937E-045 -3.848818309928E-046
  1.165562959801E+003  1.666042160165E+002 -1.575875074245E-050  1.548299695103E-051 -1.520965488482E-052
  1.351883652344E+003  2.080846492944E+002 -1.725381954806E-058  1.699423460321E-059 -1.673660185229E-060
  1.586701400210E+003  2.645613304778E+002 -1.514141166332E-068  1.494781374641E-069 -1.475545325124E-070
  1.888432505667E+003  3.434725639535E+002 -1.695720302789E-081  1.677545323147E-082 -1.659467730805E-083
  2.285143318319E+003  4.571619853297E+002 -1.471824242500E-098  1.458815085679E-099 -1.445863415991E-100
  2.821320956734E+003  6.271083502553E+002 -1.165911433435E-121  1.157580431296E-122 -1.149279191811E-123
  3.570911407966E+003  8.928945093246E+002 -5.229649463619E-154  5.200175009328E-155 -5.170783611229E-156
  4.664251624804E+003  1.332833789396E+003 -2.941673326742E-201  2.928999083727E-202 -2.916352143670E-203
  6.348805443328E+003  2.116490696331E+003 -3.786836449788E-274  3.774865202476E-275 -3.762912877159E-276
  9.142573163897E+003  3.657295926392E+003  0.000000000000E+000  0.000000000000E+000  0.000000000000E+000
  1.428564556186E+004  7.143156109596E+003  0.000000000000E+000  0.000000000000E+000  0.000000000000E+000
  2.539722173392E+004  1.693192559688E+004  0.000000000000E+000  0.000000000000E+000  0.000000000000E+000
  5.714458222993E+004  5.714524889422E+004  0.000000000000E+000  0.000000000000E+000  0.000000000000E+000
  2.285803289109E+005  4.571619911449E+005  0.000000000000E+000  0.000000000000E+000  0.000000000000E+000
