{
    "atomic_info": {
        "H": {
            "hubbard": {
                "1s": 0.41963000000000000
            },
            "occupation": {
                "1s": 1.0000000000000000
            },
            "orbital_energy": {
                "1s": -0.23860000000000001
            },
            "orbitals": [
                [
                    "1s"
                ]
            ]
        },
        "O": {
            "hubbard": {
                "2p": 0.49530000000000002,
                "2s": 0.52880000000000005
            },
            "occupation": {
                "2p": 4.0000000000000000,
                "2s": 2.0000000000000000
            },
            "orbital_energy": {
                "2p": -0.33184999999999998,
                "2s": -0.88055000000000005
            },
            "orbitals": [
                [
                    "2s",
                    "2p"
                ]
            ]
        }
    },
    "confining_info": {
        "H": {
            "confining": [
                {
                    "a": 3.0000000000000000,
                    "orbital_types": [
                        "s"
                    ],
                    "r": 2.0000000000000000,
                    "type": "orbital",
                    "w": 0.10000000000000001
                },
                {
                    "a": 3.0000000000000000,
                    "r": 7.0000000000000000,
                    "type": "density",
                    "w": 1.0000000000000000
                }
            ]
        },
        "O": {
            "confining": [
                {
                    "a": 3.0000000000000000,
                    "orbital_types": [
                        "s",
                        "p"
                    ],
                    "r": 2.0000000000000000,
                    "type": "orbital",
                    "w": 0.10000000000000001
                },
                {
                    "a": 3.0000000000000000,
                    "r": 7.0000000000000000,
                    "type": "density",
                    "w": 1.0000000000000000
                }
            ]
        }
    },
    "desired_pairs": [
        "H-H",
        "H-O",
        "O-H",
        "O-O"
    ],
    "options": {
        "program_paths": {
            "onecenter": "/home/sol/bin/onecent",
            "twocenter": "/home/sol/bin/twocent"
        },
        "save_intermediate": true,
        "superposition": "density"
    },
    "toolchain": "TWN"
}